{
  "Id": 1,
  "Description": "Link's House - Secret room",
  "Properties": {
    "X": 1008,
    "Y": 2192,
    "Width": 320,
    "Height": 240,
    "World": "inside_world",
    "MinLayer": 0,
    "MaxLayer": 2,
    "Tileset": 0,
    "Music": "same"
  },
  "Tile": [
    {
      "Layer": 0,
      "X": 16,
      "Y": 16,
      "Width": 24,
      "Height": 24,
      "Pattern": 45
    },
    {
      "Layer": 0,
      "X": 16,
      "Y": 200,
      "Width": 24,
      "Height": 24,
      "Pattern": 47
    },
    {
      "Layer": 0,
      "X": 40,
      "Y": 16,
      "Width": 64,
      "Height": 24,
      "Pattern": 49
    },
    {
      "Layer": 0,
      "X": 40,
      "Y": 40,
      "Width": 8,
      "Height": 8,
      "Pattern": 14
    },
    {
      "Layer": 0,
      "X": 48,
      "Y": 40,
      "Width": 48,
      "Height": 8,
      "Pattern": 18
    },
    {
      "Layer": 0,
      "X": 96,
      "Y": 40,
      "Width": 8,
      "Height": 8,
      "Pattern": 15
    },
    {
      "Layer": 0,
      "X": 48,
      "Y": 16,
      "Width": 32,
      "Height": 32,
      "Pattern": 129
    },
    {
      "Layer": 0,
      "X": 104,
      "Y": 16,
      "Width": 24,
      "Height": 24,
      "Pattern": 46
    },
    {
      "Layer": 0,
      "X": 16,
      "Y": 40,
      "Width": 24,
      "Height": 160,
      "Pattern": 51
    },
    {
      "Layer": 0,
      "X": 104,
      "Y": 200,
      "Width": 24,
      "Height": 24,
      "Pattern": 48
    },
    {
      "Layer": 0,
      "X": 104,
      "Y": 40,
      "Width": 24,
      "Height": 160,
      "Pattern": 50
    },
    {
      "Layer": 0,
      "X": 40,
      "Y": 200,
      "Width": 64,
      "Height": 24,
      "Pattern": 52
    },
    {
      "Layer": 0,
      "X": 96,
      "Y": 192,
      "Width": 8,
      "Height": 8,
      "Pattern": 17
    },
    {
      "Layer": 0,
      "X": 40,
      "Y": 192,
      "Width": 8,
      "Height": 8,
      "Pattern": 16
    },
    {
      "Layer": 0,
      "X": 48,
      "Y": 192,
      "Width": 48,
      "Height": 8,
      "Pattern": 21
    },
    {
      "Layer": 0,
      "X": 96,
      "Y": 48,
      "Width": 8,
      "Height": 144,
      "Pattern": 19
    },
    {
      "Layer": 0,
      "X": 40,
      "Y": 48,
      "Width": 8,
      "Height": 144,
      "Pattern": 20
    },
    {
      "Layer": 0,
      "X": 48,
      "Y": 48,
      "Width": 48,
      "Height": 144,
      "Pattern": 2
    },
    {
      "Layer": 0,
      "X": 56,
      "Y": 64,
      "Width": 8,
      "Height": 8,
      "Pattern": 69
    },
    {
      "Layer": 0,
      "X": 56,
      "Y": 80,
      "Width": 8,
      "Height": 8,
      "Pattern": 69
    },
    {
      "Layer": 0,
      "X": 96,
      "Y": 80,
      "Width": 8,
      "Height": 8,
      "Pattern": 69
    },
    {
      "Layer": 0,
      "X": 40,
      "Y": 104,
      "Width": 8,
      "Height": 8,
      "Pattern": 69
    },
    {
      "Layer": 0,
      "X": 40,
      "Y": 128,
      "Width": 8,
      "Height": 8,
      "Pattern": 69
    },
    {
      "Layer": 0,
      "X": 56,
      "Y": 128,
      "Width": 8,
      "Height": 8,
      "Pattern": 69
    },
    {
      "Layer": 0,
      "X": 56,
      "Y": 152,
      "Width": 8,
      "Height": 8,
      "Pattern": 69
    },
    {
      "Layer": 0,
      "X": 56,
      "Y": 176,
      "Width": 8,
      "Height": 8,
      "Pattern": 69
    },
    {
      "Layer": 0,
      "X": 80,
      "Y": 176,
      "Width": 8,
      "Height": 8,
      "Pattern": 69
    },
    {
      "Layer": 0,
      "X": 80,
      "Y": 192,
      "Width": 8,
      "Height": 8,
      "Pattern": 69
    },
    {
      "Layer": 0,
      "X": 80,
      "Y": 104,
      "Width": 8,
      "Height": 8,
      "Pattern": 69
    },
    {
      "Layer": 0,
      "X": 48,
      "Y": 104,
      "Width": 32,
      "Height": 8,
      "Pattern": 70
    },
    {
      "Layer": 0,
      "X": 64,
      "Y": 80,
      "Width": 32,
      "Height": 8,
      "Pattern": 70
    },
    {
      "Layer": 0,
      "X": 48,
      "Y": 128,
      "Width": 8,
      "Height": 8,
      "Pattern": 70
    },
    {
      "Layer": 0,
      "X": 64,
      "Y": 152,
      "Width": 16,
      "Height": 8,
      "Pattern": 70
    },
    {
      "Layer": 0,
      "X": 80,
      "Y": 112,
      "Width": 8,
      "Height": 40,
      "Pattern": 71
    },
    {
      "Layer": 0,
      "X": 56,
      "Y": 72,
      "Width": 8,
      "Height": 8,
      "Pattern": 71
    },
    {
      "Layer": 0,
      "X": 56,
      "Y": 160,
      "Width": 8,
      "Height": 16,
      "Pattern": 71
    },
    {
      "Layer": 0,
      "X": 80,
      "Y": 184,
      "Width": 8,
      "Height": 8,
      "Pattern": 71
    },
    {
      "Layer": 0,
      "X": 80,
      "Y": 152,
      "Width": 8,
      "Height": 8,
      "Pattern": 69
    },
    {
      "Layer": 0,
      "X": 24,
      "Y": 112,
      "Width": 16,
      "Height": 16,
      "Pattern": 94
    },
    {
      "Layer": 0,
      "X": 24,
      "Y": 104,
      "Width": 16,
      "Height": 8,
      "Pattern": 90
    },
    {
      "Layer": 0,
      "X": 24,
      "Y": 128,
      "Width": 16,
      "Height": 8,
      "Pattern": 92
    },
    {
      "Layer": 0,
      "X": -8,
      "Y": 112,
      "Width": 32,
      "Height": 16,
      "Pattern": 2
    },
    {
      "Layer": 0,
      "X": 0,
      "Y": 104,
      "Width": 16,
      "Height": 8,
      "Pattern": 70
    },
    {
      "Layer": 0,
      "X": 0,
      "Y": 128,
      "Width": 16,
      "Height": 8,
      "Pattern": 70
    },
    {
      "Layer": 0,
      "X": 80,
      "Y": 56,
      "Width": 8,
      "Height": 8,
      "Pattern": 69
    },
    {
      "Layer": 0,
      "X": 80,
      "Y": 40,
      "Width": 8,
      "Height": 8,
      "Pattern": 69
    },
    {
      "Layer": 0,
      "X": 80,
      "Y": 48,
      "Width": 8,
      "Height": 8,
      "Pattern": 71
    },
    {
      "Layer": 2,
      "X": 16,
      "Y": 80,
      "Width": 8,
      "Height": 96,
      "Pattern": 266
    },
    {
      "Layer": 2,
      "X": 0,
      "Y": 0,
      "Width": 16,
      "Height": 240,
      "Pattern": 170
    },
    {
      "Layer": 2,
      "X": 16,
      "Y": 0,
      "Width": 112,
      "Height": 16,
      "Pattern": 170
    },
    {
      "Layer": 2,
      "X": 16,
      "Y": 224,
      "Width": 112,
      "Height": 16,
      "Pattern": 170
    },
    {
      "Layer": 2,
      "X": 128,
      "Y": 0,
      "Width": 192,
      "Height": 240,
      "Pattern": 170
    },
    {
      "Layer": 2,
      "X": 16,
      "Y": 104,
      "Width": 8,
      "Height": 32,
      "Pattern": 160
    }
  ],
  "Destination": [
    {
      "Layer": 0,
      "X": 32,
      "Y": 125,
      "Name": "from_main_room",
      "Direction": 0
    }
  ],
  "Teletransporter": [
    {
      "Layer": 0,
      "X": -16,
      "Y": 112,
      "Width": 16,
      "Height": 16,
      "Name": "to_main_room",
      "Transition": "scrolling",
      "DestinationMap": 28,
      "Destination": "_side"
    }
  ],
  "Stairs": [],
  "Pickable": [],
  "Sensor": [],
  "Door": [],
  "DynamicTile": [],
  "Npc": [],
  "Block": [],
  "Chest": [
    {
      "Layer": 0,
      "X": 96,
      "Y": 53,
      "Name": "Chest",
      "TreasureName": "piece_of_heart",
      "TreasureVariant": 1,
      "TreasureSavegameVariable": "b12",
      "Sprite": "entities\/chest"
    }
  ],
  "Jumper": [],
  "Wall": [],
  "Enemy": [],
  "Destructible": [],
  "Switch": []
}
