{
  "Id": 12,
  "Description": "Sahasrahla house",
  "Properties": {
    "X": 712,
    "Y": 2352,
    "Width": 528,
    "Height": 240,
    "World": "inside_world",
    "MinLayer": 0,
    "MaxLayer": 2,
    "Tileset": 0,
    "Music": "village"
  },
  "Tile": [
    {
      "Layer": 0,
      "X": 360,
      "Y": 40,
      "Width": 24,
      "Height": 24,
      "Pattern": 57
    },
    {
      "Layer": 0,
      "X": 384,
      "Y": 40,
      "Width": 80,
      "Height": 24,
      "Pattern": 195
    },
    {
      "Layer": 0,
      "X": 464,
      "Y": 40,
      "Width": 24,
      "Height": 24,
      "Pattern": 58
    },
    {
      "Layer": 0,
      "X": 464,
      "Y": 64,
      "Width": 24,
      "Height": 80,
      "Pattern": 199
    },
    {
      "Layer": 0,
      "X": 384,
      "Y": 144,
      "Width": 80,
      "Height": 24,
      "Pattern": 200
    },
    {
      "Layer": 0,
      "X": 464,
      "Y": 144,
      "Width": 24,
      "Height": 24,
      "Pattern": 60
    },
    {
      "Layer": 0,
      "X": 360,
      "Y": 144,
      "Width": 24,
      "Height": 24,
      "Pattern": 59
    },
    {
      "Layer": 0,
      "X": 360,
      "Y": 64,
      "Width": 24,
      "Height": 80,
      "Pattern": 197
    },
    {
      "Layer": 0,
      "X": 384,
      "Y": 64,
      "Width": 8,
      "Height": 8,
      "Pattern": 26
    },
    {
      "Layer": 0,
      "X": 384,
      "Y": 136,
      "Width": 8,
      "Height": 8,
      "Pattern": 28
    },
    {
      "Layer": 0,
      "X": 456,
      "Y": 136,
      "Width": 8,
      "Height": 8,
      "Pattern": 29
    },
    {
      "Layer": 0,
      "X": 456,
      "Y": 64,
      "Width": 8,
      "Height": 8,
      "Pattern": 27
    },
    {
      "Layer": 0,
      "X": 392,
      "Y": 64,
      "Width": 64,
      "Height": 8,
      "Pattern": 30
    },
    {
      "Layer": 0,
      "X": 456,
      "Y": 72,
      "Width": 8,
      "Height": 64,
      "Pattern": 31
    },
    {
      "Layer": 0,
      "X": 392,
      "Y": 136,
      "Width": 64,
      "Height": 8,
      "Pattern": 33
    },
    {
      "Layer": 0,
      "X": 384,
      "Y": 72,
      "Width": 8,
      "Height": 64,
      "Pattern": 32
    },
    {
      "Layer": 0,
      "X": 392,
      "Y": 72,
      "Width": 64,
      "Height": 64,
      "Pattern": 3
    },
    {
      "Layer": 0,
      "X": 416,
      "Y": 48,
      "Width": 16,
      "Height": 16,
      "Pattern": 177
    },
    {
      "Layer": 0,
      "X": 408,
      "Y": 48,
      "Width": 8,
      "Height": 16,
      "Pattern": 72
    },
    {
      "Layer": 0,
      "X": 432,
      "Y": 48,
      "Width": 8,
      "Height": 16,
      "Pattern": 73
    },
    {
      "Layer": 0,
      "X": 448,
      "Y": 64,
      "Width": 16,
      "Height": 48,
      "Pattern": 13
    },
    {
      "Layer": 0,
      "X": 432,
      "Y": 64,
      "Width": 16,
      "Height": 32,
      "Pattern": 13
    },
    {
      "Layer": 0,
      "X": 384,
      "Y": 64,
      "Width": 16,
      "Height": 32,
      "Pattern": 1
    },
    {
      "Layer": 0,
      "X": 448,
      "Y": 128,
      "Width": 16,
      "Height": 16,
      "Pattern": 1
    },
    {
      "Layer": 0,
      "X": 408,
      "Y": 136,
      "Width": 8,
      "Height": 24,
      "Pattern": 255
    },
    {
      "Layer": 0,
      "X": 416,
      "Y": 136,
      "Width": 16,
      "Height": 24,
      "Pattern": 257
    },
    {
      "Layer": 0,
      "X": 432,
      "Y": 136,
      "Width": 8,
      "Height": 24,
      "Pattern": 256
    },
    {
      "Layer": 1,
      "X": 376,
      "Y": 40,
      "Width": 96,
      "Height": 8,
      "Pattern": 264
    },
    {
      "Layer": 1,
      "X": 408,
      "Y": 40,
      "Width": 32,
      "Height": 8,
      "Pattern": 152
    },
    {
      "Layer": 1,
      "X": 296,
      "Y": 40,
      "Width": 64,
      "Height": 160,
      "Pattern": 2
    },
    {
      "Layer": 1,
      "X": 360,
      "Y": 168,
      "Width": 128,
      "Height": 32,
      "Pattern": 2
    },
    {
      "Layer": 1,
      "X": 16,
      "Y": 16,
      "Width": 24,
      "Height": 24,
      "Pattern": 45
    },
    {
      "Layer": 1,
      "X": 16,
      "Y": 40,
      "Width": 24,
      "Height": 160,
      "Pattern": 51
    },
    {
      "Layer": 1,
      "X": 16,
      "Y": 200,
      "Width": 24,
      "Height": 24,
      "Pattern": 47
    },
    {
      "Layer": 1,
      "X": 40,
      "Y": 16,
      "Width": 192,
      "Height": 24,
      "Pattern": 49
    },
    {
      "Layer": 1,
      "X": 232,
      "Y": 16,
      "Width": 24,
      "Height": 24,
      "Pattern": 46
    },
    {
      "Layer": 1,
      "X": 232,
      "Y": 200,
      "Width": 24,
      "Height": 24,
      "Pattern": 48
    },
    {
      "Layer": 1,
      "X": 232,
      "Y": 40,
      "Width": 24,
      "Height": 160,
      "Pattern": 50
    },
    {
      "Layer": 1,
      "X": 40,
      "Y": 200,
      "Width": 192,
      "Height": 24,
      "Pattern": 52
    },
    {
      "Layer": 1,
      "X": 40,
      "Y": 40,
      "Width": 8,
      "Height": 8,
      "Pattern": 14
    },
    {
      "Layer": 1,
      "X": 224,
      "Y": 40,
      "Width": 8,
      "Height": 8,
      "Pattern": 15
    },
    {
      "Layer": 1,
      "X": 224,
      "Y": 192,
      "Width": 8,
      "Height": 8,
      "Pattern": 17
    },
    {
      "Layer": 1,
      "X": 40,
      "Y": 192,
      "Width": 8,
      "Height": 8,
      "Pattern": 16
    },
    {
      "Layer": 1,
      "X": 40,
      "Y": 48,
      "Width": 8,
      "Height": 144,
      "Pattern": 20
    },
    {
      "Layer": 1,
      "X": 48,
      "Y": 40,
      "Width": 176,
      "Height": 8,
      "Pattern": 18
    },
    {
      "Layer": 1,
      "X": 48,
      "Y": 192,
      "Width": 176,
      "Height": 8,
      "Pattern": 21
    },
    {
      "Layer": 1,
      "X": 224,
      "Y": 48,
      "Width": 8,
      "Height": 144,
      "Pattern": 19
    },
    {
      "Layer": 1,
      "X": 48,
      "Y": 48,
      "Width": 176,
      "Height": 144,
      "Pattern": 2
    },
    {
      "Layer": 1,
      "X": 272,
      "Y": 16,
      "Width": 24,
      "Height": 24,
      "Pattern": 45
    },
    {
      "Layer": 1,
      "X": 272,
      "Y": 40,
      "Width": 24,
      "Height": 160,
      "Pattern": 51
    },
    {
      "Layer": 1,
      "X": 272,
      "Y": 200,
      "Width": 24,
      "Height": 24,
      "Pattern": 47
    },
    {
      "Layer": 1,
      "X": 296,
      "Y": 16,
      "Width": 192,
      "Height": 24,
      "Pattern": 49
    },
    {
      "Layer": 1,
      "X": 488,
      "Y": 16,
      "Width": 24,
      "Height": 24,
      "Pattern": 46
    },
    {
      "Layer": 1,
      "X": 488,
      "Y": 200,
      "Width": 24,
      "Height": 24,
      "Pattern": 48
    },
    {
      "Layer": 1,
      "X": 488,
      "Y": 40,
      "Width": 24,
      "Height": 160,
      "Pattern": 50
    },
    {
      "Layer": 1,
      "X": 296,
      "Y": 200,
      "Width": 192,
      "Height": 24,
      "Pattern": 52
    },
    {
      "Layer": 1,
      "X": 296,
      "Y": 40,
      "Width": 8,
      "Height": 8,
      "Pattern": 14
    },
    {
      "Layer": 1,
      "X": 480,
      "Y": 192,
      "Width": 8,
      "Height": 8,
      "Pattern": 17
    },
    {
      "Layer": 1,
      "X": 296,
      "Y": 192,
      "Width": 8,
      "Height": 8,
      "Pattern": 16
    },
    {
      "Layer": 1,
      "X": 296,
      "Y": 48,
      "Width": 8,
      "Height": 144,
      "Pattern": 20
    },
    {
      "Layer": 1,
      "X": 304,
      "Y": 192,
      "Width": 176,
      "Height": 8,
      "Pattern": 21
    },
    {
      "Layer": 1,
      "X": 304,
      "Y": 40,
      "Width": 48,
      "Height": 8,
      "Pattern": 18
    },
    {
      "Layer": 1,
      "X": 352,
      "Y": 40,
      "Width": 8,
      "Height": 8,
      "Pattern": 69
    },
    {
      "Layer": 1,
      "X": 352,
      "Y": 104,
      "Width": 8,
      "Height": 8,
      "Pattern": 69
    },
    {
      "Layer": 1,
      "X": 352,
      "Y": 128,
      "Width": 8,
      "Height": 8,
      "Pattern": 69
    },
    {
      "Layer": 1,
      "X": 352,
      "Y": 168,
      "Width": 8,
      "Height": 8,
      "Pattern": 69
    },
    {
      "Layer": 1,
      "X": 352,
      "Y": 48,
      "Width": 8,
      "Height": 56,
      "Pattern": 71
    },
    {
      "Layer": 1,
      "X": 352,
      "Y": 136,
      "Width": 8,
      "Height": 32,
      "Pattern": 71
    },
    {
      "Layer": 1,
      "X": 360,
      "Y": 168,
      "Width": 40,
      "Height": 8,
      "Pattern": 70
    },
    {
      "Layer": 1,
      "X": 448,
      "Y": 168,
      "Width": 32,
      "Height": 8,
      "Pattern": 70
    },
    {
      "Layer": 1,
      "X": 440,
      "Y": 168,
      "Width": 8,
      "Height": 8,
      "Pattern": 69
    },
    {
      "Layer": 1,
      "X": 480,
      "Y": 168,
      "Width": 8,
      "Height": 8,
      "Pattern": 69
    },
    {
      "Layer": 1,
      "X": 400,
      "Y": 168,
      "Width": 8,
      "Height": 8,
      "Pattern": 69
    },
    {
      "Layer": 1,
      "X": 184,
      "Y": 200,
      "Width": 16,
      "Height": 16,
      "Pattern": 77
    },
    {
      "Layer": 1,
      "X": 200,
      "Y": 200,
      "Width": 8,
      "Height": 16,
      "Pattern": 75
    },
    {
      "Layer": 1,
      "X": 176,
      "Y": 200,
      "Width": 8,
      "Height": 16,
      "Pattern": 74
    },
    {
      "Layer": 1,
      "X": 56,
      "Y": 136,
      "Width": 16,
      "Height": 32,
      "Pattern": 42
    },
    {
      "Layer": 1,
      "X": 72,
      "Y": 136,
      "Width": 16,
      "Height": 32,
      "Pattern": 44
    },
    {
      "Layer": 1,
      "X": 88,
      "Y": 136,
      "Width": 16,
      "Height": 32,
      "Pattern": 43
    },
    {
      "Layer": 1,
      "X": 16,
      "Y": 160,
      "Width": 16,
      "Height": 16,
      "Pattern": 40
    },
    {
      "Layer": 1,
      "X": 16,
      "Y": 64,
      "Width": 16,
      "Height": 16,
      "Pattern": 40
    },
    {
      "Layer": 1,
      "X": 496,
      "Y": 160,
      "Width": 16,
      "Height": 16,
      "Pattern": 39
    },
    {
      "Layer": 1,
      "X": 496,
      "Y": 64,
      "Width": 16,
      "Height": 16,
      "Pattern": 39
    },
    {
      "Layer": 1,
      "X": 16,
      "Y": 104,
      "Width": 24,
      "Height": 32,
      "Pattern": 132
    },
    {
      "Layer": 1,
      "X": 88,
      "Y": 200,
      "Width": 32,
      "Height": 24,
      "Pattern": 133
    },
    {
      "Layer": 1,
      "X": 48,
      "Y": 16,
      "Width": 32,
      "Height": 32,
      "Pattern": 129
    },
    {
      "Layer": 1,
      "X": 112,
      "Y": 16,
      "Width": 16,
      "Height": 32,
      "Pattern": 111
    },
    {
      "Layer": 1,
      "X": 96,
      "Y": 16,
      "Width": 16,
      "Height": 32,
      "Pattern": 109
    },
    {
      "Layer": 1,
      "X": 128,
      "Y": 16,
      "Width": 16,
      "Height": 32,
      "Pattern": 110
    },
    {
      "Layer": 1,
      "X": 200,
      "Y": 40,
      "Width": 32,
      "Height": 40,
      "Pattern": 125
    },
    {
      "Layer": 1,
      "X": 160,
      "Y": 24,
      "Width": 32,
      "Height": 16,
      "Pattern": 108
    },
    {
      "Layer": 1,
      "X": 112,
      "Y": 64,
      "Width": 8,
      "Height": 8,
      "Pattern": 4
    },
    {
      "Layer": 1,
      "X": 112,
      "Y": 168,
      "Width": 8,
      "Height": 8,
      "Pattern": 6
    },
    {
      "Layer": 1,
      "X": 184,
      "Y": 168,
      "Width": 8,
      "Height": 8,
      "Pattern": 7
    },
    {
      "Layer": 1,
      "X": 184,
      "Y": 64,
      "Width": 8,
      "Height": 8,
      "Pattern": 5
    },
    {
      "Layer": 1,
      "X": 120,
      "Y": 168,
      "Width": 64,
      "Height": 8,
      "Pattern": 11
    },
    {
      "Layer": 1,
      "X": 184,
      "Y": 72,
      "Width": 8,
      "Height": 96,
      "Pattern": 9
    },
    {
      "Layer": 1,
      "X": 120,
      "Y": 64,
      "Width": 64,
      "Height": 8,
      "Pattern": 8
    },
    {
      "Layer": 1,
      "X": 112,
      "Y": 72,
      "Width": 8,
      "Height": 96,
      "Pattern": 10
    },
    {
      "Layer": 1,
      "X": 120,
      "Y": 72,
      "Width": 64,
      "Height": 96,
      "Pattern": 173
    },
    {
      "Layer": 1,
      "X": 144,
      "Y": 144,
      "Width": 16,
      "Height": 16,
      "Pattern": 12
    },
    {
      "Layer": 1,
      "X": 232,
      "Y": 112,
      "Width": 16,
      "Height": 16,
      "Pattern": 83
    },
    {
      "Layer": 1,
      "X": 280,
      "Y": 112,
      "Width": 16,
      "Height": 16,
      "Pattern": 82
    },
    {
      "Layer": 1,
      "X": 232,
      "Y": 104,
      "Width": 16,
      "Height": 8,
      "Pattern": 79
    },
    {
      "Layer": 1,
      "X": 232,
      "Y": 128,
      "Width": 16,
      "Height": 8,
      "Pattern": 81
    },
    {
      "Layer": 1,
      "X": 280,
      "Y": 128,
      "Width": 16,
      "Height": 8,
      "Pattern": 80
    },
    {
      "Layer": 1,
      "X": 280,
      "Y": 104,
      "Width": 16,
      "Height": 8,
      "Pattern": 78
    },
    {
      "Layer": 1,
      "X": 56,
      "Y": 80,
      "Width": 32,
      "Height": 8,
      "Pattern": 120
    },
    {
      "Layer": 1,
      "X": 40,
      "Y": 104,
      "Width": 8,
      "Height": 8,
      "Pattern": 122
    },
    {
      "Layer": 1,
      "X": 88,
      "Y": 80,
      "Width": 8,
      "Height": 8,
      "Pattern": 123
    },
    {
      "Layer": 1,
      "X": 56,
      "Y": 72,
      "Width": 32,
      "Height": 8,
      "Pattern": 119
    },
    {
      "Layer": 1,
      "X": 88,
      "Y": 72,
      "Width": 8,
      "Height": 8,
      "Pattern": 115
    },
    {
      "Layer": 1,
      "X": 88,
      "Y": 64,
      "Width": 8,
      "Height": 8,
      "Pattern": 113
    },
    {
      "Layer": 1,
      "X": 40,
      "Y": 64,
      "Width": 8,
      "Height": 8,
      "Pattern": 112
    },
    {
      "Layer": 1,
      "X": 48,
      "Y": 64,
      "Width": 40,
      "Height": 8,
      "Pattern": 116
    },
    {
      "Layer": 1,
      "X": 64,
      "Y": 64,
      "Width": 8,
      "Height": 16,
      "Pattern": 124
    },
    {
      "Layer": 1,
      "X": 56,
      "Y": 64,
      "Width": 8,
      "Height": 16,
      "Pattern": 124
    },
    {
      "Layer": 1,
      "X": 48,
      "Y": 104,
      "Width": 8,
      "Height": 8,
      "Pattern": 123
    },
    {
      "Layer": 1,
      "X": 48,
      "Y": 80,
      "Width": 8,
      "Height": 24,
      "Pattern": 117
    },
    {
      "Layer": 1,
      "X": 40,
      "Y": 72,
      "Width": 8,
      "Height": 32,
      "Pattern": 118
    },
    {
      "Layer": 1,
      "X": 48,
      "Y": 72,
      "Width": 8,
      "Height": 8,
      "Pattern": 121
    },
    {
      "Layer": 1,
      "X": 64,
      "Y": 88,
      "Width": 16,
      "Height": 16,
      "Pattern": 12
    },
    {
      "Layer": 1,
      "X": 144,
      "Y": 80,
      "Width": 16,
      "Height": 16,
      "Pattern": 12
    },
    {
      "Layer": 1,
      "X": 448,
      "Y": 176,
      "Width": 32,
      "Height": 16,
      "Pattern": 1
    },
    {
      "Layer": 1,
      "X": 320,
      "Y": 24,
      "Width": 16,
      "Height": 16,
      "Pattern": 136
    },
    {
      "Layer": 1,
      "X": 336,
      "Y": 16,
      "Width": 16,
      "Height": 24,
      "Pattern": 135
    },
    {
      "Layer": 1,
      "X": 304,
      "Y": 16,
      "Width": 16,
      "Height": 24,
      "Pattern": 134
    },
    {
      "Layer": 1,
      "X": 296,
      "Y": 160,
      "Width": 16,
      "Height": 24,
      "Pattern": 138
    },
    {
      "Layer": 1,
      "X": 296,
      "Y": 176,
      "Width": 16,
      "Height": 24,
      "Pattern": 138
    },
    {
      "Layer": 1,
      "X": 312,
      "Y": 176,
      "Width": 16,
      "Height": 24,
      "Pattern": 138
    },
    {
      "Layer": 1,
      "X": 184,
      "Y": 216,
      "Width": 16,
      "Height": 32,
      "Pattern": 2
    },
    {
      "Layer": 1,
      "X": 176,
      "Y": 224,
      "Width": 8,
      "Height": 16,
      "Pattern": 71
    },
    {
      "Layer": 1,
      "X": 200,
      "Y": 224,
      "Width": 8,
      "Height": 16,
      "Pattern": 71
    },
    {
      "Layer": 1,
      "X": 248,
      "Y": 112,
      "Width": 32,
      "Height": 16,
      "Pattern": 2
    },
    {
      "Layer": 1,
      "X": 256,
      "Y": 104,
      "Width": 16,
      "Height": 8,
      "Pattern": 70
    },
    {
      "Layer": 1,
      "X": 256,
      "Y": 128,
      "Width": 16,
      "Height": 8,
      "Pattern": 70
    },
    {
      "Layer": 1,
      "X": 408,
      "Y": 200,
      "Width": 32,
      "Height": 24,
      "Pattern": 133
    },
    {
      "Layer": 1,
      "X": 480,
      "Y": 176,
      "Width": 8,
      "Height": 16,
      "Pattern": 19
    },
    {
      "Layer": 1,
      "X": 184,
      "Y": 240,
      "Width": 16,
      "Height": 8,
      "Pattern": 70
    },
    {
      "Layer": 1,
      "X": 128,
      "Y": 104,
      "Width": 8,
      "Height": 8,
      "Pattern": 207
    },
    {
      "Layer": 1,
      "X": 168,
      "Y": 104,
      "Width": 8,
      "Height": 8,
      "Pattern": 209
    },
    {
      "Layer": 1,
      "X": 136,
      "Y": 128,
      "Width": 32,
      "Height": 8,
      "Pattern": 215
    },
    {
      "Layer": 1,
      "X": 128,
      "Y": 128,
      "Width": 8,
      "Height": 8,
      "Pattern": 213
    },
    {
      "Layer": 1,
      "X": 136,
      "Y": 104,
      "Width": 32,
      "Height": 8,
      "Pattern": 208
    },
    {
      "Layer": 1,
      "X": 128,
      "Y": 112,
      "Width": 8,
      "Height": 16,
      "Pattern": 211
    },
    {
      "Layer": 1,
      "X": 168,
      "Y": 112,
      "Width": 8,
      "Height": 16,
      "Pattern": 210
    },
    {
      "Layer": 1,
      "X": 168,
      "Y": 128,
      "Width": 8,
      "Height": 8,
      "Pattern": 214
    },
    {
      "Layer": 1,
      "X": 136,
      "Y": 112,
      "Width": 32,
      "Height": 16,
      "Pattern": 212
    },
    {
      "Layer": 1,
      "X": 144,
      "Y": 104,
      "Width": 16,
      "Height": 16,
      "Pattern": 205
    },
    {
      "Layer": 1,
      "X": 136,
      "Y": 112,
      "Width": 8,
      "Height": 8,
      "Pattern": 206
    },
    {
      "Layer": 1,
      "X": 160,
      "Y": 112,
      "Width": 8,
      "Height": 8,
      "Pattern": 206
    },
    {
      "Layer": 1,
      "X": 416,
      "Y": 40,
      "Width": 16,
      "Height": 8,
      "Pattern": 158
    },
    {
      "Layer": 1,
      "X": 408,
      "Y": 160,
      "Width": 32,
      "Height": 8,
      "Pattern": 254
    },
    {
      "Layer": 2,
      "X": 272,
      "Y": 72,
      "Width": 8,
      "Height": 96,
      "Pattern": 266
    },
    {
      "Layer": 2,
      "X": 248,
      "Y": 72,
      "Width": 8,
      "Height": 96,
      "Pattern": 267
    },
    {
      "Layer": 2,
      "X": 144,
      "Y": 216,
      "Width": 96,
      "Height": 8,
      "Pattern": 263
    },
    {
      "Layer": 2,
      "X": 0,
      "Y": 16,
      "Width": 16,
      "Height": 208,
      "Pattern": 170
    },
    {
      "Layer": 2,
      "X": 256,
      "Y": 16,
      "Width": 16,
      "Height": 208,
      "Pattern": 170
    },
    {
      "Layer": 2,
      "X": 512,
      "Y": 16,
      "Width": 16,
      "Height": 208,
      "Pattern": 170
    },
    {
      "Layer": 2,
      "X": 0,
      "Y": 0,
      "Width": 528,
      "Height": 16,
      "Pattern": 170
    },
    {
      "Layer": 2,
      "X": 0,
      "Y": 224,
      "Width": 528,
      "Height": 16,
      "Pattern": 170
    },
    {
      "Layer": 2,
      "X": 176,
      "Y": 216,
      "Width": 32,
      "Height": 8,
      "Pattern": 153
    },
    {
      "Layer": 2,
      "X": 240,
      "Y": 64,
      "Width": 16,
      "Height": 16,
      "Pattern": 39
    },
    {
      "Layer": 2,
      "X": 240,
      "Y": 160,
      "Width": 16,
      "Height": 16,
      "Pattern": 39
    },
    {
      "Layer": 2,
      "X": 272,
      "Y": 64,
      "Width": 16,
      "Height": 16,
      "Pattern": 40
    },
    {
      "Layer": 2,
      "X": 272,
      "Y": 160,
      "Width": 16,
      "Height": 16,
      "Pattern": 40
    },
    {
      "Layer": 2,
      "X": 248,
      "Y": 104,
      "Width": 8,
      "Height": 32,
      "Pattern": 163
    },
    {
      "Layer": 2,
      "X": 272,
      "Y": 104,
      "Width": 8,
      "Height": 32,
      "Pattern": 162
    }
  ],
  "Destination": [
    {
      "Layer": 0,
      "X": 424,
      "Y": 61,
      "Name": "from_B1",
      "Direction": 3
    },
    {
      "Layer": 1,
      "X": 192,
      "Y": 213,
      "Name": "main_entrance",
      "Direction": 1
    }
  ],
  "Teletransporter": [
    {
      "Layer": 0,
      "X": 416,
      "Y": 48,
      "Width": 16,
      "Height": 16,
      "Name": "to_B1",
      "Transition": "fade",
      "DestinationMap": 13,
      "Destination": "from_1F"
    },
    {
      "Layer": 1,
      "X": 184,
      "Y": 224,
      "Width": 16,
      "Height": 16,
      "Name": "to_outside",
      "Transition": "fade",
      "DestinationMap": 3,
      "Destination": "out_sahasrahla_house"
    },
    {
      "Layer": 1,
      "X": 168,
      "Y": 200,
      "Width": 16,
      "Height": 16,
      "Name": "teletransporter",
      "Transition": "fade",
      "DestinationMap": 15,
      "Destination": "from_B2"
    }
  ],
  "Stairs": [
    {
      "Layer": 0,
      "X": 416,
      "Y": 144,
      "Name": "stairs_1",
      "Direction": 3,
      "Subtype": 4
    },
    {
      "Layer": 0,
      "X": 416,
      "Y": 48,
      "Name": "stairs_2",
      "Direction": 1,
      "Subtype": 1
    }
  ],
  "Pickable": [],
  "Sensor": [],
  "Door": [
    {
      "Layer": 1,
      "X": 232,
      "Y": 112,
      "Name": "door",
      "Direction": 0,
      "Sprite": "entities\/door_normal",
      "SavegameVariable": "b66"
    },
    {
      "Layer": 1,
      "X": 280,
      "Y": 112,
      "Name": "door_2",
      "Direction": 2,
      "Sprite": "entities\/door_normal",
      "SavegameVariable": "b66"
    }
  ],
  "DynamicTile": [],
  "Npc": [
    {
      "Layer": 1,
      "X": 104,
      "Y": 117,
      "Name": "sahasrahla",
      "Direction": 3,
      "Subtype": 1,
      "Sprite": "npc\/sahasrahla"
    },
    {
      "Layer": 1,
      "X": 80,
      "Y": 165,
      "Name": "library_2",
      "Direction": 3,
      "Subtype": 0,
      "Behavior": "dialog#sahasrahla_house.memories"
    }
  ],
  "Block": [],
  "Chest": [],
  "Jumper": [
    {
      "Layer": 1,
      "X": 360,
      "Y": 112,
      "Width": 8,
      "Height": 16,
      "Name": "jumper",
      "Direction": 0,
      "JumpLength": 40
    }
  ],
  "Wall": [
    {
      "Layer": 1,
      "X": 408,
      "Y": 136,
      "Width": 8,
      "Height": 32,
      "Name": "custom_obstacle",
      "StopsHero": true,
      "StopsEnemies": true,
      "StopsNpcs": true,
      "StopsBlocks": true
    },
    {
      "Layer": 1,
      "X": 432,
      "Y": 136,
      "Width": 8,
      "Height": 32,
      "Name": "custom_obstacle_2",
      "StopsHero": true,
      "StopsEnemies": true,
      "StopsNpcs": true,
      "StopsBlocks": true
    }
  ],
  "Enemy": [],
  "Destructible": [
    {
      "Layer": 0,
      "X": 456,
      "Y": 141,
      "Sprite": "entities\/pot",
      "DestructionSound": "stone",
      "DamageOnEnemies": 2,
      "TreasureName": "random",
      "TreasureVariant": 1
    },
    {
      "Layer": 0,
      "X": 392,
      "Y": 93,
      "Sprite": "entities\/pot",
      "DestructionSound": "stone",
      "DamageOnEnemies": 2,
      "TreasureName": "random",
      "TreasureVariant": 1
    },
    {
      "Layer": 0,
      "X": 392,
      "Y": 77,
      "Sprite": "entities\/pot",
      "DestructionSound": "stone",
      "DamageOnEnemies": 2,
      "TreasureName": "random",
      "TreasureVariant": 1
    },
    {
      "Layer": 1,
      "X": 456,
      "Y": 189,
      "Sprite": "entities\/pot",
      "DestructionSound": "stone",
      "DamageOnEnemies": 2,
      "TreasureName": "random",
      "TreasureVariant": 1
    },
    {
      "Layer": 1,
      "X": 472,
      "Y": 189,
      "Sprite": "entities\/pot",
      "DestructionSound": "stone",
      "DamageOnEnemies": 2,
      "TreasureName": "heart",
      "TreasureVariant": 1
    }
  ],
  "Switch": []
}
