{
  "Id": 129,
  "Description": "Hidden palace D6",
  "Properties": {
    "X": 1968,
    "Y": 2696,
    "Width": 544,
    "Height": 496,
    "World": "inside_world",
    "MinLayer": 0,
    "MaxLayer": 2,
    "Tileset": 9,
    "Music": "light_world_dungeon"
  },
  "Tile": [
    {
      "Layer": 0,
      "X": 88,
      "Y": 400,
      "Width": 336,
      "Height": 24,
      "Pattern": 234
    },
    {
      "Layer": 0,
      "X": 96,
      "Y": 120,
      "Width": 320,
      "Height": 272,
      "Pattern": 320
    },
    {
      "Layer": 0,
      "X": 200,
      "Y": 224,
      "Width": 208,
      "Height": 8,
      "Pattern": 70
    },
    {
      "Layer": 0,
      "X": 208,
      "Y": 176,
      "Width": 144,
      "Height": 24,
      "Pattern": 324
    },
    {
      "Layer": 0,
      "X": 96,
      "Y": 112,
      "Width": 320,
      "Height": 8,
      "Pattern": 311
    },
    {
      "Layer": 0,
      "X": 88,
      "Y": 88,
      "Width": 336,
      "Height": 24,
      "Pattern": 232
    },
    {
      "Layer": 0,
      "X": 120,
      "Y": 96,
      "Width": 16,
      "Height": 24,
      "Pattern": 290
    },
    {
      "Layer": 0,
      "X": 112,
      "Y": 96,
      "Width": 8,
      "Height": 24,
      "Pattern": 288
    },
    {
      "Layer": 0,
      "X": 136,
      "Y": 96,
      "Width": 8,
      "Height": 24,
      "Pattern": 289
    },
    {
      "Layer": 0,
      "X": 64,
      "Y": 88,
      "Width": 24,
      "Height": 24,
      "Pattern": 57
    },
    {
      "Layer": 0,
      "X": 64,
      "Y": 112,
      "Width": 24,
      "Height": 288,
      "Pattern": 235
    },
    {
      "Layer": 0,
      "X": 88,
      "Y": 112,
      "Width": 8,
      "Height": 8,
      "Pattern": 307
    },
    {
      "Layer": 0,
      "X": 88,
      "Y": 120,
      "Width": 8,
      "Height": 272,
      "Pattern": 313
    },
    {
      "Layer": 0,
      "X": 328,
      "Y": 96,
      "Width": 16,
      "Height": 24,
      "Pattern": 290
    },
    {
      "Layer": 0,
      "X": 320,
      "Y": 96,
      "Width": 8,
      "Height": 24,
      "Pattern": 288
    },
    {
      "Layer": 0,
      "X": 344,
      "Y": 96,
      "Width": 8,
      "Height": 24,
      "Pattern": 289
    },
    {
      "Layer": 0,
      "X": 376,
      "Y": 96,
      "Width": 16,
      "Height": 24,
      "Pattern": 290
    },
    {
      "Layer": 0,
      "X": 368,
      "Y": 96,
      "Width": 8,
      "Height": 24,
      "Pattern": 288
    },
    {
      "Layer": 0,
      "X": 392,
      "Y": 96,
      "Width": 8,
      "Height": 24,
      "Pattern": 289
    },
    {
      "Layer": 0,
      "X": 352,
      "Y": 104,
      "Width": 16,
      "Height": 16,
      "Pattern": 325
    },
    {
      "Layer": 0,
      "X": 408,
      "Y": 112,
      "Width": 8,
      "Height": 8,
      "Pattern": 308
    },
    {
      "Layer": 0,
      "X": 408,
      "Y": 120,
      "Width": 8,
      "Height": 272,
      "Pattern": 314
    },
    {
      "Layer": 0,
      "X": 416,
      "Y": 88,
      "Width": 24,
      "Height": 24,
      "Pattern": 58
    },
    {
      "Layer": 0,
      "X": 416,
      "Y": 112,
      "Width": 24,
      "Height": 288,
      "Pattern": 233
    },
    {
      "Layer": 0,
      "X": 384,
      "Y": 144,
      "Width": 8,
      "Height": 8,
      "Pattern": 69
    },
    {
      "Layer": 0,
      "X": 384,
      "Y": 224,
      "Width": 8,
      "Height": 8,
      "Pattern": 69
    },
    {
      "Layer": 0,
      "X": 408,
      "Y": 224,
      "Width": 8,
      "Height": 8,
      "Pattern": 69
    },
    {
      "Layer": 0,
      "X": 384,
      "Y": 152,
      "Width": 8,
      "Height": 72,
      "Pattern": 71
    },
    {
      "Layer": 0,
      "X": 352,
      "Y": 120,
      "Width": 16,
      "Height": 56,
      "Pattern": 326
    },
    {
      "Layer": 0,
      "X": 352,
      "Y": 176,
      "Width": 16,
      "Height": 24,
      "Pattern": 363
    },
    {
      "Layer": 0,
      "X": 304,
      "Y": 136,
      "Width": 16,
      "Height": 24,
      "Pattern": 363
    },
    {
      "Layer": 0,
      "X": 280,
      "Y": 176,
      "Width": 16,
      "Height": 24,
      "Pattern": 363
    },
    {
      "Layer": 0,
      "X": 208,
      "Y": 136,
      "Width": 96,
      "Height": 24,
      "Pattern": 324
    },
    {
      "Layer": 0,
      "X": 192,
      "Y": 136,
      "Width": 16,
      "Height": 24,
      "Pattern": 363
    },
    {
      "Layer": 0,
      "X": 192,
      "Y": 176,
      "Width": 16,
      "Height": 24,
      "Pattern": 363
    },
    {
      "Layer": 0,
      "X": 192,
      "Y": 224,
      "Width": 8,
      "Height": 8,
      "Pattern": 69
    },
    {
      "Layer": 0,
      "X": 192,
      "Y": 256,
      "Width": 8,
      "Height": 8,
      "Pattern": 69
    },
    {
      "Layer": 0,
      "X": 264,
      "Y": 256,
      "Width": 8,
      "Height": 8,
      "Pattern": 69
    },
    {
      "Layer": 0,
      "X": 200,
      "Y": 256,
      "Width": 64,
      "Height": 8,
      "Pattern": 70
    },
    {
      "Layer": 0,
      "X": 288,
      "Y": 256,
      "Width": 8,
      "Height": 8,
      "Pattern": 69
    },
    {
      "Layer": 0,
      "X": 360,
      "Y": 256,
      "Width": 8,
      "Height": 8,
      "Pattern": 69
    },
    {
      "Layer": 0,
      "X": 296,
      "Y": 256,
      "Width": 64,
      "Height": 8,
      "Pattern": 70
    },
    {
      "Layer": 0,
      "X": 288,
      "Y": 288,
      "Width": 8,
      "Height": 8,
      "Pattern": 69
    },
    {
      "Layer": 0,
      "X": 360,
      "Y": 288,
      "Width": 8,
      "Height": 8,
      "Pattern": 69
    },
    {
      "Layer": 0,
      "X": 296,
      "Y": 288,
      "Width": 64,
      "Height": 8,
      "Pattern": 70
    },
    {
      "Layer": 0,
      "X": 192,
      "Y": 288,
      "Width": 8,
      "Height": 8,
      "Pattern": 69
    },
    {
      "Layer": 0,
      "X": 264,
      "Y": 288,
      "Width": 8,
      "Height": 8,
      "Pattern": 69
    },
    {
      "Layer": 0,
      "X": 200,
      "Y": 288,
      "Width": 64,
      "Height": 8,
      "Pattern": 70
    },
    {
      "Layer": 0,
      "X": 272,
      "Y": 240,
      "Width": 16,
      "Height": 16,
      "Pattern": 2
    },
    {
      "Layer": 0,
      "X": 400,
      "Y": 208,
      "Width": 16,
      "Height": 16,
      "Pattern": 2
    },
    {
      "Layer": 0,
      "X": 152,
      "Y": 176,
      "Width": 16,
      "Height": 16,
      "Pattern": 325
    },
    {
      "Layer": 0,
      "X": 152,
      "Y": 192,
      "Width": 16,
      "Height": 32,
      "Pattern": 326
    },
    {
      "Layer": 0,
      "X": 152,
      "Y": 224,
      "Width": 16,
      "Height": 24,
      "Pattern": 363
    },
    {
      "Layer": 0,
      "X": 112,
      "Y": 176,
      "Width": 16,
      "Height": 16,
      "Pattern": 325
    },
    {
      "Layer": 0,
      "X": 112,
      "Y": 192,
      "Width": 16,
      "Height": 32,
      "Pattern": 326
    },
    {
      "Layer": 0,
      "X": 112,
      "Y": 224,
      "Width": 16,
      "Height": 24,
      "Pattern": 363
    },
    {
      "Layer": 0,
      "X": 152,
      "Y": 264,
      "Width": 16,
      "Height": 16,
      "Pattern": 325
    },
    {
      "Layer": 0,
      "X": 152,
      "Y": 280,
      "Width": 16,
      "Height": 72,
      "Pattern": 326
    },
    {
      "Layer": 0,
      "X": 152,
      "Y": 352,
      "Width": 16,
      "Height": 24,
      "Pattern": 363
    },
    {
      "Layer": 0,
      "X": 112,
      "Y": 264,
      "Width": 16,
      "Height": 16,
      "Pattern": 325
    },
    {
      "Layer": 0,
      "X": 112,
      "Y": 280,
      "Width": 16,
      "Height": 72,
      "Pattern": 326
    },
    {
      "Layer": 0,
      "X": 112,
      "Y": 352,
      "Width": 16,
      "Height": 24,
      "Pattern": 363
    },
    {
      "Layer": 0,
      "X": 208,
      "Y": 352,
      "Width": 144,
      "Height": 24,
      "Pattern": 324
    },
    {
      "Layer": 0,
      "X": 352,
      "Y": 352,
      "Width": 16,
      "Height": 24,
      "Pattern": 363
    },
    {
      "Layer": 0,
      "X": 280,
      "Y": 352,
      "Width": 16,
      "Height": 24,
      "Pattern": 363
    },
    {
      "Layer": 0,
      "X": 192,
      "Y": 352,
      "Width": 16,
      "Height": 24,
      "Pattern": 363
    },
    {
      "Layer": 0,
      "X": 288,
      "Y": 320,
      "Width": 8,
      "Height": 8,
      "Pattern": 69
    },
    {
      "Layer": 0,
      "X": 360,
      "Y": 320,
      "Width": 8,
      "Height": 8,
      "Pattern": 69
    },
    {
      "Layer": 0,
      "X": 296,
      "Y": 320,
      "Width": 64,
      "Height": 8,
      "Pattern": 70
    },
    {
      "Layer": 0,
      "X": 192,
      "Y": 320,
      "Width": 8,
      "Height": 8,
      "Pattern": 69
    },
    {
      "Layer": 0,
      "X": 264,
      "Y": 320,
      "Width": 8,
      "Height": 8,
      "Pattern": 69
    },
    {
      "Layer": 0,
      "X": 200,
      "Y": 320,
      "Width": 64,
      "Height": 8,
      "Pattern": 70
    },
    {
      "Layer": 0,
      "X": 88,
      "Y": 392,
      "Width": 8,
      "Height": 8,
      "Pattern": 310
    },
    {
      "Layer": 0,
      "X": 96,
      "Y": 392,
      "Width": 320,
      "Height": 8,
      "Pattern": 312
    },
    {
      "Layer": 0,
      "X": 408,
      "Y": 392,
      "Width": 8,
      "Height": 8,
      "Pattern": 309
    },
    {
      "Layer": 0,
      "X": 416,
      "Y": 400,
      "Width": 24,
      "Height": 24,
      "Pattern": 60
    },
    {
      "Layer": 0,
      "X": 64,
      "Y": 400,
      "Width": 24,
      "Height": 24,
      "Pattern": 59
    },
    {
      "Layer": 0,
      "X": 376,
      "Y": 392,
      "Width": 16,
      "Height": 24,
      "Pattern": 302
    },
    {
      "Layer": 0,
      "X": 392,
      "Y": 392,
      "Width": 8,
      "Height": 24,
      "Pattern": 301
    },
    {
      "Layer": 0,
      "X": 368,
      "Y": 392,
      "Width": 8,
      "Height": 24,
      "Pattern": 300
    },
    {
      "Layer": 0,
      "X": 256,
      "Y": 304,
      "Width": 16,
      "Height": 16,
      "Pattern": 2
    },
    {
      "Layer": 1,
      "X": 40,
      "Y": 424,
      "Width": 400,
      "Height": 32,
      "Pattern": 319
    },
    {
      "Layer": 1,
      "X": 40,
      "Y": 88,
      "Width": 16,
      "Height": 336,
      "Pattern": 319
    },
    {
      "Layer": 1,
      "X": 40,
      "Y": 456,
      "Width": 432,
      "Height": 24,
      "Pattern": 52
    },
    {
      "Layer": 1,
      "X": 440,
      "Y": 88,
      "Width": 32,
      "Height": 368,
      "Pattern": 319
    },
    {
      "Layer": 1,
      "X": 48,
      "Y": 448,
      "Width": 416,
      "Height": 8,
      "Pattern": 236
    },
    {
      "Layer": 1,
      "X": 40,
      "Y": 40,
      "Width": 432,
      "Height": 48,
      "Pattern": 319
    },
    {
      "Layer": 1,
      "X": 56,
      "Y": 88,
      "Width": 8,
      "Height": 336,
      "Pattern": 71
    },
    {
      "Layer": 1,
      "X": 16,
      "Y": 16,
      "Width": 24,
      "Height": 24,
      "Pattern": 45
    },
    {
      "Layer": 1,
      "X": 40,
      "Y": 16,
      "Width": 432,
      "Height": 24,
      "Pattern": 49
    },
    {
      "Layer": 1,
      "X": 16,
      "Y": 40,
      "Width": 24,
      "Height": 416,
      "Pattern": 51
    },
    {
      "Layer": 1,
      "X": 40,
      "Y": 40,
      "Width": 8,
      "Height": 8,
      "Pattern": 14
    },
    {
      "Layer": 1,
      "X": 48,
      "Y": 40,
      "Width": 416,
      "Height": 8,
      "Pattern": 179
    },
    {
      "Layer": 1,
      "X": 40,
      "Y": 48,
      "Width": 8,
      "Height": 400,
      "Pattern": 237
    },
    {
      "Layer": 1,
      "X": 112,
      "Y": 24,
      "Width": 8,
      "Height": 16,
      "Pattern": 72
    },
    {
      "Layer": 1,
      "X": 136,
      "Y": 24,
      "Width": 8,
      "Height": 16,
      "Pattern": 73
    },
    {
      "Layer": 1,
      "X": 120,
      "Y": 24,
      "Width": 16,
      "Height": 16,
      "Pattern": 76
    },
    {
      "Layer": 1,
      "X": 24,
      "Y": 104,
      "Width": 16,
      "Height": 8,
      "Pattern": 78
    },
    {
      "Layer": 1,
      "X": 24,
      "Y": 128,
      "Width": 16,
      "Height": 8,
      "Pattern": 80
    },
    {
      "Layer": 1,
      "X": 24,
      "Y": 112,
      "Width": 16,
      "Height": 16,
      "Pattern": 82
    },
    {
      "Layer": 1,
      "X": -8,
      "Y": 112,
      "Width": 32,
      "Height": 16,
      "Pattern": 319
    },
    {
      "Layer": 1,
      "X": 120,
      "Y": -8,
      "Width": 16,
      "Height": 32,
      "Pattern": 319
    },
    {
      "Layer": 1,
      "X": 0,
      "Y": 104,
      "Width": 16,
      "Height": 8,
      "Pattern": 70
    },
    {
      "Layer": 1,
      "X": 0,
      "Y": 128,
      "Width": 16,
      "Height": 8,
      "Pattern": 70
    },
    {
      "Layer": 1,
      "X": 120,
      "Y": 0,
      "Width": 16,
      "Height": 8,
      "Pattern": 70
    },
    {
      "Layer": 1,
      "X": 0,
      "Y": 112,
      "Width": 8,
      "Height": 16,
      "Pattern": 71
    },
    {
      "Layer": 1,
      "X": 112,
      "Y": 0,
      "Width": 8,
      "Height": 16,
      "Pattern": 71
    },
    {
      "Layer": 1,
      "X": 136,
      "Y": 0,
      "Width": 8,
      "Height": 16,
      "Pattern": 71
    },
    {
      "Layer": 1,
      "X": 56,
      "Y": 40,
      "Width": 8,
      "Height": 8,
      "Pattern": 69
    },
    {
      "Layer": 1,
      "X": 56,
      "Y": 56,
      "Width": 8,
      "Height": 8,
      "Pattern": 69
    },
    {
      "Layer": 1,
      "X": 144,
      "Y": 56,
      "Width": 8,
      "Height": 8,
      "Pattern": 69
    },
    {
      "Layer": 1,
      "X": 144,
      "Y": 80,
      "Width": 8,
      "Height": 8,
      "Pattern": 69
    },
    {
      "Layer": 1,
      "X": 176,
      "Y": 80,
      "Width": 8,
      "Height": 8,
      "Pattern": 69
    },
    {
      "Layer": 1,
      "X": 104,
      "Y": 80,
      "Width": 8,
      "Height": 8,
      "Pattern": 69
    },
    {
      "Layer": 1,
      "X": 56,
      "Y": 80,
      "Width": 8,
      "Height": 8,
      "Pattern": 69
    },
    {
      "Layer": 1,
      "X": 56,
      "Y": 144,
      "Width": 8,
      "Height": 8,
      "Pattern": 69
    },
    {
      "Layer": 1,
      "X": 56,
      "Y": 48,
      "Width": 8,
      "Height": 8,
      "Pattern": 71
    },
    {
      "Layer": 1,
      "X": 144,
      "Y": 64,
      "Width": 8,
      "Height": 16,
      "Pattern": 71
    },
    {
      "Layer": 1,
      "X": 176,
      "Y": 88,
      "Width": 8,
      "Height": 56,
      "Pattern": 71
    },
    {
      "Layer": 1,
      "X": 64,
      "Y": 56,
      "Width": 80,
      "Height": 8,
      "Pattern": 70
    },
    {
      "Layer": 1,
      "X": 64,
      "Y": 80,
      "Width": 40,
      "Height": 8,
      "Pattern": 70
    },
    {
      "Layer": 1,
      "X": 64,
      "Y": 144,
      "Width": 112,
      "Height": 8,
      "Pattern": 70
    },
    {
      "Layer": 1,
      "X": 176,
      "Y": 144,
      "Width": 8,
      "Height": 8,
      "Pattern": 69
    },
    {
      "Layer": 1,
      "X": 112,
      "Y": 88,
      "Width": 32,
      "Height": 8,
      "Pattern": 287
    },
    {
      "Layer": 1,
      "X": 240,
      "Y": 80,
      "Width": 56,
      "Height": 8,
      "Pattern": 70
    },
    {
      "Layer": 1,
      "X": 232,
      "Y": 80,
      "Width": 8,
      "Height": 8,
      "Pattern": 69
    },
    {
      "Layer": 1,
      "X": 296,
      "Y": 80,
      "Width": 8,
      "Height": 8,
      "Pattern": 69
    },
    {
      "Layer": 1,
      "X": 232,
      "Y": 88,
      "Width": 8,
      "Height": 336,
      "Pattern": 71
    },
    {
      "Layer": 1,
      "X": 304,
      "Y": 64,
      "Width": 16,
      "Height": 24,
      "Pattern": 363
    },
    {
      "Layer": 1,
      "X": 304,
      "Y": 56,
      "Width": 16,
      "Height": 8,
      "Pattern": 326
    },
    {
      "Layer": 1,
      "X": 304,
      "Y": 40,
      "Width": 16,
      "Height": 16,
      "Pattern": 325
    },
    {
      "Layer": 1,
      "X": 152,
      "Y": 80,
      "Width": 24,
      "Height": 8,
      "Pattern": 70
    },
    {
      "Layer": 1,
      "X": 184,
      "Y": 80,
      "Width": 48,
      "Height": 72,
      "Pattern": 519
    },
    {
      "Layer": 1,
      "X": 64,
      "Y": 152,
      "Width": 168,
      "Height": 280,
      "Pattern": 519
    },
    {
      "Layer": 1,
      "X": 320,
      "Y": 88,
      "Width": 32,
      "Height": 8,
      "Pattern": 287
    },
    {
      "Layer": 1,
      "X": 368,
      "Y": 88,
      "Width": 32,
      "Height": 8,
      "Pattern": 287
    },
    {
      "Layer": 1,
      "X": 352,
      "Y": 80,
      "Width": 8,
      "Height": 8,
      "Pattern": 69
    },
    {
      "Layer": 1,
      "X": 352,
      "Y": 56,
      "Width": 8,
      "Height": 8,
      "Pattern": 69
    },
    {
      "Layer": 1,
      "X": 400,
      "Y": 80,
      "Width": 8,
      "Height": 8,
      "Pattern": 69
    },
    {
      "Layer": 1,
      "X": 440,
      "Y": 80,
      "Width": 8,
      "Height": 8,
      "Pattern": 69
    },
    {
      "Layer": 1,
      "X": 360,
      "Y": 56,
      "Width": 104,
      "Height": 8,
      "Pattern": 70
    },
    {
      "Layer": 1,
      "X": 464,
      "Y": 56,
      "Width": 8,
      "Height": 8,
      "Pattern": 69
    },
    {
      "Layer": 1,
      "X": 352,
      "Y": 64,
      "Width": 8,
      "Height": 16,
      "Pattern": 71
    },
    {
      "Layer": 1,
      "X": 440,
      "Y": 88,
      "Width": 8,
      "Height": 136,
      "Pattern": 71
    },
    {
      "Layer": 1,
      "X": 408,
      "Y": 80,
      "Width": 32,
      "Height": 8,
      "Pattern": 70
    },
    {
      "Layer": 1,
      "X": 472,
      "Y": 16,
      "Width": 24,
      "Height": 24,
      "Pattern": 46
    },
    {
      "Layer": 1,
      "X": 464,
      "Y": 48,
      "Width": 8,
      "Height": 400,
      "Pattern": 238
    },
    {
      "Layer": 1,
      "X": 464,
      "Y": 40,
      "Width": 8,
      "Height": 8,
      "Pattern": 15
    },
    {
      "Layer": 1,
      "X": 368,
      "Y": 24,
      "Width": 8,
      "Height": 16,
      "Pattern": 72
    },
    {
      "Layer": 1,
      "X": 392,
      "Y": 24,
      "Width": 8,
      "Height": 16,
      "Pattern": 73
    },
    {
      "Layer": 1,
      "X": 376,
      "Y": 24,
      "Width": 16,
      "Height": 16,
      "Pattern": 76
    },
    {
      "Layer": 1,
      "X": 376,
      "Y": -8,
      "Width": 16,
      "Height": 32,
      "Pattern": 319
    },
    {
      "Layer": 1,
      "X": 368,
      "Y": 0,
      "Width": 8,
      "Height": 16,
      "Pattern": 71
    },
    {
      "Layer": 1,
      "X": 392,
      "Y": 0,
      "Width": 8,
      "Height": 16,
      "Pattern": 71
    },
    {
      "Layer": 1,
      "X": 472,
      "Y": 40,
      "Width": 24,
      "Height": 416,
      "Pattern": 50
    },
    {
      "Layer": 1,
      "X": 440,
      "Y": 224,
      "Width": 8,
      "Height": 8,
      "Pattern": 69
    },
    {
      "Layer": 1,
      "X": 464,
      "Y": 224,
      "Width": 8,
      "Height": 8,
      "Pattern": 69
    },
    {
      "Layer": 1,
      "X": 448,
      "Y": 224,
      "Width": 16,
      "Height": 8,
      "Pattern": 70
    },
    {
      "Layer": 1,
      "X": 472,
      "Y": 104,
      "Width": 16,
      "Height": 8,
      "Pattern": 79
    },
    {
      "Layer": 1,
      "X": 472,
      "Y": 128,
      "Width": 16,
      "Height": 8,
      "Pattern": 81
    },
    {
      "Layer": 1,
      "X": 472,
      "Y": 112,
      "Width": 16,
      "Height": 16,
      "Pattern": 83
    },
    {
      "Layer": 1,
      "X": 472,
      "Y": 232,
      "Width": 16,
      "Height": 8,
      "Pattern": 79
    },
    {
      "Layer": 1,
      "X": 472,
      "Y": 256,
      "Width": 16,
      "Height": 8,
      "Pattern": 81
    },
    {
      "Layer": 1,
      "X": 472,
      "Y": 240,
      "Width": 16,
      "Height": 16,
      "Pattern": 83
    },
    {
      "Layer": 1,
      "X": 488,
      "Y": 112,
      "Width": 32,
      "Height": 16,
      "Pattern": 319
    },
    {
      "Layer": 1,
      "X": 488,
      "Y": 240,
      "Width": 32,
      "Height": 16,
      "Pattern": 319
    },
    {
      "Layer": 1,
      "X": 496,
      "Y": 104,
      "Width": 16,
      "Height": 8,
      "Pattern": 70
    },
    {
      "Layer": 1,
      "X": 496,
      "Y": 232,
      "Width": 16,
      "Height": 8,
      "Pattern": 70
    },
    {
      "Layer": 1,
      "X": 488,
      "Y": 128,
      "Width": 24,
      "Height": 8,
      "Pattern": 70
    },
    {
      "Layer": 1,
      "X": 496,
      "Y": 256,
      "Width": 16,
      "Height": 8,
      "Pattern": 70
    },
    {
      "Layer": 1,
      "X": 504,
      "Y": 112,
      "Width": 8,
      "Height": 16,
      "Pattern": 71
    },
    {
      "Layer": 1,
      "X": 504,
      "Y": 240,
      "Width": 8,
      "Height": 16,
      "Pattern": 71
    },
    {
      "Layer": 1,
      "X": 440,
      "Y": 264,
      "Width": 8,
      "Height": 8,
      "Pattern": 69
    },
    {
      "Layer": 1,
      "X": 440,
      "Y": 272,
      "Width": 8,
      "Height": 152,
      "Pattern": 71
    },
    {
      "Layer": 1,
      "X": 400,
      "Y": 424,
      "Width": 8,
      "Height": 8,
      "Pattern": 69
    },
    {
      "Layer": 1,
      "X": 440,
      "Y": 424,
      "Width": 8,
      "Height": 8,
      "Pattern": 69
    },
    {
      "Layer": 1,
      "X": 408,
      "Y": 424,
      "Width": 32,
      "Height": 8,
      "Pattern": 70
    },
    {
      "Layer": 1,
      "X": 232,
      "Y": 424,
      "Width": 8,
      "Height": 8,
      "Pattern": 69
    },
    {
      "Layer": 1,
      "X": 344,
      "Y": 424,
      "Width": 8,
      "Height": 8,
      "Pattern": 69
    },
    {
      "Layer": 1,
      "X": 368,
      "Y": 416,
      "Width": 32,
      "Height": 8,
      "Pattern": 299
    },
    {
      "Layer": 1,
      "X": 352,
      "Y": 424,
      "Width": 16,
      "Height": 32,
      "Pattern": 520
    },
    {
      "Layer": 1,
      "X": 472,
      "Y": 360,
      "Width": 16,
      "Height": 8,
      "Pattern": 79
    },
    {
      "Layer": 1,
      "X": 472,
      "Y": 384,
      "Width": 16,
      "Height": 8,
      "Pattern": 81
    },
    {
      "Layer": 1,
      "X": 472,
      "Y": 368,
      "Width": 16,
      "Height": 16,
      "Pattern": 83
    },
    {
      "Layer": 1,
      "X": 488,
      "Y": 368,
      "Width": 64,
      "Height": 16,
      "Pattern": 319
    },
    {
      "Layer": 1,
      "X": 496,
      "Y": 360,
      "Width": 48,
      "Height": 8,
      "Pattern": 70
    },
    {
      "Layer": 1,
      "X": 496,
      "Y": 384,
      "Width": 48,
      "Height": 8,
      "Pattern": 70
    },
    {
      "Layer": 1,
      "X": 464,
      "Y": 448,
      "Width": 8,
      "Height": 8,
      "Pattern": 17
    },
    {
      "Layer": 1,
      "X": 240,
      "Y": 424,
      "Width": 104,
      "Height": 8,
      "Pattern": 70
    },
    {
      "Layer": 1,
      "X": 472,
      "Y": 456,
      "Width": 24,
      "Height": 24,
      "Pattern": 48
    },
    {
      "Layer": 1,
      "X": 416,
      "Y": 456,
      "Width": 32,
      "Height": 16,
      "Pattern": 339
    },
    {
      "Layer": 1,
      "X": 320,
      "Y": 456,
      "Width": 32,
      "Height": 16,
      "Pattern": 339
    },
    {
      "Layer": 1,
      "X": 376,
      "Y": 456,
      "Width": 16,
      "Height": 16,
      "Pattern": 77
    },
    {
      "Layer": 1,
      "X": 368,
      "Y": 456,
      "Width": 8,
      "Height": 16,
      "Pattern": 74
    },
    {
      "Layer": 1,
      "X": 392,
      "Y": 456,
      "Width": 8,
      "Height": 16,
      "Pattern": 75
    },
    {
      "Layer": 1,
      "X": 376,
      "Y": 472,
      "Width": 16,
      "Height": 32,
      "Pattern": 319
    },
    {
      "Layer": 1,
      "X": 368,
      "Y": 480,
      "Width": 8,
      "Height": 16,
      "Pattern": 71
    },
    {
      "Layer": 1,
      "X": 392,
      "Y": 480,
      "Width": 8,
      "Height": 16,
      "Pattern": 71
    },
    {
      "Layer": 1,
      "X": 376,
      "Y": 496,
      "Width": 16,
      "Height": 8,
      "Pattern": 70
    },
    {
      "Layer": 1,
      "X": 56,
      "Y": 424,
      "Width": 8,
      "Height": 8,
      "Pattern": 69
    },
    {
      "Layer": 1,
      "X": 40,
      "Y": 448,
      "Width": 8,
      "Height": 8,
      "Pattern": 16
    },
    {
      "Layer": 1,
      "X": 16,
      "Y": 456,
      "Width": 24,
      "Height": 24,
      "Pattern": 47
    },
    {
      "Layer": 1,
      "X": 24,
      "Y": 360,
      "Width": 16,
      "Height": 8,
      "Pattern": 78
    },
    {
      "Layer": 1,
      "X": 24,
      "Y": 384,
      "Width": 16,
      "Height": 8,
      "Pattern": 80
    },
    {
      "Layer": 1,
      "X": 24,
      "Y": 368,
      "Width": 16,
      "Height": 16,
      "Pattern": 82
    },
    {
      "Layer": 1,
      "X": -8,
      "Y": 368,
      "Width": 32,
      "Height": 16,
      "Pattern": 319
    },
    {
      "Layer": 1,
      "X": 0,
      "Y": 360,
      "Width": 16,
      "Height": 8,
      "Pattern": 70
    },
    {
      "Layer": 1,
      "X": 0,
      "Y": 384,
      "Width": 16,
      "Height": 8,
      "Pattern": 70
    },
    {
      "Layer": 1,
      "X": 0,
      "Y": 368,
      "Width": 8,
      "Height": 16,
      "Pattern": 71
    },
    {
      "Layer": 1,
      "X": 96,
      "Y": 208,
      "Width": 8,
      "Height": 8,
      "Pattern": 69
    },
    {
      "Layer": 1,
      "X": 200,
      "Y": 208,
      "Width": 8,
      "Height": 8,
      "Pattern": 69
    },
    {
      "Layer": 1,
      "X": 104,
      "Y": 208,
      "Width": 96,
      "Height": 8,
      "Pattern": 70
    },
    {
      "Layer": 1,
      "X": 96,
      "Y": 272,
      "Width": 8,
      "Height": 8,
      "Pattern": 69
    },
    {
      "Layer": 1,
      "X": 200,
      "Y": 272,
      "Width": 8,
      "Height": 8,
      "Pattern": 69
    },
    {
      "Layer": 1,
      "X": 104,
      "Y": 272,
      "Width": 96,
      "Height": 8,
      "Pattern": 70
    },
    {
      "Layer": 1,
      "X": 96,
      "Y": 336,
      "Width": 8,
      "Height": 8,
      "Pattern": 69
    },
    {
      "Layer": 1,
      "X": 200,
      "Y": 336,
      "Width": 8,
      "Height": 8,
      "Pattern": 69
    },
    {
      "Layer": 1,
      "X": 104,
      "Y": 336,
      "Width": 96,
      "Height": 8,
      "Pattern": 70
    },
    {
      "Layer": 1,
      "X": 128,
      "Y": 240,
      "Width": 16,
      "Height": 16,
      "Pattern": 529
    },
    {
      "Layer": 2,
      "X": 328,
      "Y": 472,
      "Width": 96,
      "Height": 8,
      "Pattern": 438
    },
    {
      "Layer": 2,
      "X": 16,
      "Y": 80,
      "Width": 8,
      "Height": 96,
      "Pattern": 441
    },
    {
      "Layer": 2,
      "X": 88,
      "Y": 16,
      "Width": 96,
      "Height": 8,
      "Pattern": 437
    },
    {
      "Layer": 2,
      "X": 0,
      "Y": 0,
      "Width": 16,
      "Height": 480,
      "Pattern": 170
    },
    {
      "Layer": 2,
      "X": 16,
      "Y": 0,
      "Width": 480,
      "Height": 16,
      "Pattern": 170
    },
    {
      "Layer": 2,
      "X": 112,
      "Y": 16,
      "Width": 32,
      "Height": 8,
      "Pattern": 431
    },
    {
      "Layer": 2,
      "X": 16,
      "Y": 104,
      "Width": 8,
      "Height": 32,
      "Pattern": 162
    },
    {
      "Layer": 2,
      "X": 344,
      "Y": 16,
      "Width": 96,
      "Height": 8,
      "Pattern": 437
    },
    {
      "Layer": 2,
      "X": 368,
      "Y": 16,
      "Width": 32,
      "Height": 8,
      "Pattern": 431
    },
    {
      "Layer": 2,
      "X": 488,
      "Y": 72,
      "Width": 8,
      "Height": 96,
      "Pattern": 442
    },
    {
      "Layer": 2,
      "X": 488,
      "Y": 200,
      "Width": 8,
      "Height": 96,
      "Pattern": 442
    },
    {
      "Layer": 2,
      "X": 488,
      "Y": 104,
      "Width": 8,
      "Height": 32,
      "Pattern": 353
    },
    {
      "Layer": 2,
      "X": 488,
      "Y": 232,
      "Width": 8,
      "Height": 32,
      "Pattern": 161
    },
    {
      "Layer": 2,
      "X": 488,
      "Y": 360,
      "Width": 8,
      "Height": 32,
      "Pattern": 161
    },
    {
      "Layer": 2,
      "X": 488,
      "Y": 328,
      "Width": 8,
      "Height": 96,
      "Pattern": 442
    },
    {
      "Layer": 2,
      "X": 488,
      "Y": 360,
      "Width": 8,
      "Height": 32,
      "Pattern": 161
    },
    {
      "Layer": 2,
      "X": 368,
      "Y": 472,
      "Width": 32,
      "Height": 8,
      "Pattern": 432
    },
    {
      "Layer": 2,
      "X": 16,
      "Y": 336,
      "Width": 8,
      "Height": 96,
      "Pattern": 441
    },
    {
      "Layer": 2,
      "X": 16,
      "Y": 360,
      "Width": 8,
      "Height": 32,
      "Pattern": 352
    },
    {
      "Layer": 2,
      "X": 0,
      "Y": 480,
      "Width": 496,
      "Height": 16,
      "Pattern": 170
    },
    {
      "Layer": 2,
      "X": 496,
      "Y": 0,
      "Width": 48,
      "Height": 496,
      "Pattern": 170
    }
  ],
  "Destination": [],
  "Teletransporter": [
    {
      "Layer": 1,
      "X": 544,
      "Y": 368,
      "Width": 16,
      "Height": 16,
      "Name": "teletransporter",
      "Transition": "scrolling",
      "DestinationMap": 136,
      "Destination": "_side"
    },
    {
      "Layer": 1,
      "X": 376,
      "Y": -16,
      "Width": 16,
      "Height": 16,
      "Name": "teletransporter_2",
      "Transition": "scrolling",
      "DestinationMap": 137,
      "Destination": "_side"
    }
  ],
  "Stairs": [
    {
      "Layer": 0,
      "X": 120,
      "Y": 96,
      "Name": "stairs",
      "Direction": 1,
      "Subtype": 4
    },
    {
      "Layer": 0,
      "X": 328,
      "Y": 96,
      "Name": "stairs_2",
      "Direction": 1,
      "Subtype": 4
    },
    {
      "Layer": 0,
      "X": 376,
      "Y": 96,
      "Name": "stairs_3",
      "Direction": 1,
      "Subtype": 4
    },
    {
      "Layer": 0,
      "X": 376,
      "Y": 400,
      "Name": "stairs_4",
      "Direction": 3,
      "Subtype": 4
    }
  ],
  "Pickable": [],
  "Sensor": [
    {
      "Layer": 0,
      "X": 384,
      "Y": 13,
      "Width": 16,
      "Height": 16,
      "Name": "to_layer_1_sensor"
    }
  ],
  "Door": [
    {
      "Layer": 1,
      "X": 24,
      "Y": 112,
      "Name": "door_2",
      "Direction": 2,
      "Sprite": "entities\/door_normal"
    },
    {
      "Layer": 1,
      "X": 24,
      "Y": 368,
      "Name": "door_3",
      "Direction": 2,
      "Sprite": "entities\/door_normal"
    },
    {
      "Layer": 1,
      "X": 376,
      "Y": 456,
      "Name": "door_4",
      "Direction": 3,
      "Sprite": "entities\/door_normal"
    },
    {
      "Layer": 1,
      "X": 472,
      "Y": 240,
      "Name": "door_5",
      "Direction": 0,
      "Sprite": "entities\/door_normal"
    },
    {
      "Layer": 1,
      "X": 472,
      "Y": 112,
      "Name": "door_6",
      "Direction": 0,
      "Sprite": "entities\/door_normal"
    },
    {
      "Layer": 1,
      "X": 120,
      "Y": 24,
      "Name": "door",
      "Direction": 1,
      "Sprite": "entities\/door_normal"
    }
  ],
  "DynamicTile": [],
  "Npc": [],
  "Block": [
    {
      "Layer": 0,
      "X": 208,
      "Y": 208,
      "Width": 16,
      "Height": 16,
      "Subtype": 1
    },
    {
      "Layer": 1,
      "X": 192,
      "Y": 80,
      "Width": 32,
      "Height": 16,
      "Subtype": 1
    },
    {
      "Layer": 1,
      "X": 192,
      "Y": 128,
      "Width": 32,
      "Height": 16,
      "Subtype": 1
    }
  ],
  "Chest": [
    {
      "Layer": 1,
      "X": 296,
      "Y": 61,
      "Name": "chest",
      "TreasureVariant": 1,
      "TreasureSaveGameVariable": "b10",
      "Sprite": "entities\/chest"
    }
  ],
  "Jumper": [
    {
      "Layer": 1,
      "X": 432,
      "Y": 232,
      "Width": 8,
      "Height": 32,
      "Name": "jumper",
      "Direction": 4,
      "JumpLength": 40
    }
  ],
  "Wall": [
    {
      "Layer": 1,
      "X": 112,
      "Y": 88,
      "Width": 8,
      "Height": 8,
      "Name": "custom_obstacle",
      "StopsHero": true,
      "StopsEnemies": true,
      "StopsNpcs": true,
      "StopsBlocks": true
    },
    {
      "Layer": 1,
      "X": 136,
      "Y": 88,
      "Width": 8,
      "Height": 8,
      "Name": "custom_obstacle_2",
      "StopsHero": true,
      "StopsEnemies": true,
      "StopsNpcs": true,
      "StopsBlocks": true
    },
    {
      "Layer": 1,
      "X": 320,
      "Y": 88,
      "Width": 8,
      "Height": 8,
      "Name": "custom_obstacle_3",
      "StopsHero": true,
      "StopsEnemies": true,
      "StopsNpcs": true,
      "StopsBlocks": true
    },
    {
      "Layer": 1,
      "X": 344,
      "Y": 88,
      "Width": 8,
      "Height": 8,
      "Name": "custom_obstacle_4",
      "StopsHero": true,
      "StopsEnemies": true,
      "StopsNpcs": true,
      "StopsBlocks": true
    },
    {
      "Layer": 1,
      "X": 368,
      "Y": 88,
      "Width": 8,
      "Height": 8,
      "Name": "custom_obstacle_5",
      "StopsHero": true,
      "StopsEnemies": true,
      "StopsNpcs": true,
      "StopsBlocks": true
    },
    {
      "Layer": 1,
      "X": 392,
      "Y": 88,
      "Width": 8,
      "Height": 8,
      "Name": "custom_obstacle_6",
      "StopsHero": true,
      "StopsEnemies": true,
      "StopsNpcs": true,
      "StopsBlocks": true
    },
    {
      "Layer": 1,
      "X": 368,
      "Y": 416,
      "Width": 8,
      "Height": 8,
      "Name": "custom_obstacle_7",
      "StopsHero": true,
      "StopsEnemies": true,
      "StopsNpcs": true,
      "StopsBlocks": true
    },
    {
      "Layer": 1,
      "X": 392,
      "Y": 416,
      "Width": 8,
      "Height": 8,
      "Name": "custom_obstacle_8",
      "StopsHero": true,
      "StopsEnemies": true,
      "StopsNpcs": true,
      "StopsBlocks": true
    }
  ],
  "Enemy": [],
  "Destructible": [
    {
      "Layer": 0,
      "X": 280,
      "Y": 253,
      "Sprite": "entities\/pot",
      "DestructionSound": "stone",
      "DamageOnEnemies": 2,
      "TreasureName": "random",
      "TreasureVariant": 1
    },
    {
      "Layer": 0,
      "X": 408,
      "Y": 221,
      "Sprite": "entities\/pot",
      "DestructionSound": "stone",
      "DamageOnEnemies": 2,
      "TreasureName": "random",
      "TreasureVariant": 1
    },
    {
      "Layer": 0,
      "X": 264,
      "Y": 317,
      "Sprite": "entities\/pot",
      "DestructionSound": "stone",
      "DamageOnEnemies": 2,
      "TreasureName": "random",
      "TreasureVariant": 1
    }
  ],
  "Switch": [
    {
      "Layer": 1,
      "X": 208,
      "Y": 104,
      "Name": "switch",
      "Subtype": "walkable",
      "Sprite": "entities\/switch",
      "Sound": "switch",
      "NeedsBlock": false,
      "InactivateWhenLeaving": false
    }
  ]
}
