{
  "Id": 138,
  "Description": "Hidden palace D5",
  "Properties": {
    "X": 1968,
    "Y": 2696,
    "Width": 672,
    "Height": 240,
    "World": "inside_world",
    "MinLayer": 0,
    "MaxLayer": 2,
    "Tileset": 2,
    "Music": "light_world_dungeon"
  },
  "Tile": [
    {
      "Layer": 1,
      "X": 432,
      "Y": 48,
      "Width": 160,
      "Height": 144,
      "Pattern": 2
    },
    {
      "Layer": 1,
      "X": 592,
      "Y": 80,
      "Width": 16,
      "Height": 16,
      "Pattern": 590
    },
    {
      "Layer": 1,
      "X": 576,
      "Y": 64,
      "Width": 16,
      "Height": 16,
      "Pattern": 590
    },
    {
      "Layer": 1,
      "X": 560,
      "Y": 48,
      "Width": 16,
      "Height": 16,
      "Pattern": 590
    },
    {
      "Layer": 1,
      "X": 544,
      "Y": 32,
      "Width": 16,
      "Height": 16,
      "Pattern": 590
    },
    {
      "Layer": 1,
      "X": 480,
      "Y": 16,
      "Width": 64,
      "Height": 24,
      "Pattern": 49
    },
    {
      "Layer": 1,
      "X": 480,
      "Y": 40,
      "Width": 64,
      "Height": 8,
      "Pattern": 179
    },
    {
      "Layer": 1,
      "X": 480,
      "Y": 192,
      "Width": 64,
      "Height": 8,
      "Pattern": 236
    },
    {
      "Layer": 1,
      "X": 424,
      "Y": 96,
      "Width": 8,
      "Height": 48,
      "Pattern": 237
    },
    {
      "Layer": 1,
      "X": 592,
      "Y": 96,
      "Width": 8,
      "Height": 48,
      "Pattern": 238
    },
    {
      "Layer": 1,
      "X": 480,
      "Y": 200,
      "Width": 64,
      "Height": 24,
      "Pattern": 52
    },
    {
      "Layer": 1,
      "X": 600,
      "Y": 96,
      "Width": 24,
      "Height": 48,
      "Pattern": 50
    },
    {
      "Layer": 1,
      "X": 400,
      "Y": 96,
      "Width": 24,
      "Height": 48,
      "Pattern": 51
    },
    {
      "Layer": 1,
      "X": 416,
      "Y": 80,
      "Width": 16,
      "Height": 16,
      "Pattern": 593
    },
    {
      "Layer": 1,
      "X": 432,
      "Y": 64,
      "Width": 16,
      "Height": 16,
      "Pattern": 593
    },
    {
      "Layer": 1,
      "X": 448,
      "Y": 48,
      "Width": 16,
      "Height": 16,
      "Pattern": 593
    },
    {
      "Layer": 1,
      "X": 464,
      "Y": 32,
      "Width": 16,
      "Height": 16,
      "Pattern": 593
    },
    {
      "Layer": 1,
      "X": 424,
      "Y": 80,
      "Width": 16,
      "Height": 16,
      "Pattern": 594
    },
    {
      "Layer": 1,
      "X": 432,
      "Y": 72,
      "Width": 16,
      "Height": 16,
      "Pattern": 594
    },
    {
      "Layer": 1,
      "X": 440,
      "Y": 64,
      "Width": 16,
      "Height": 16,
      "Pattern": 594
    },
    {
      "Layer": 1,
      "X": 448,
      "Y": 56,
      "Width": 16,
      "Height": 16,
      "Pattern": 594
    },
    {
      "Layer": 1,
      "X": 456,
      "Y": 48,
      "Width": 16,
      "Height": 16,
      "Pattern": 594
    },
    {
      "Layer": 1,
      "X": 464,
      "Y": 40,
      "Width": 16,
      "Height": 16,
      "Pattern": 594
    },
    {
      "Layer": 1,
      "X": 544,
      "Y": 40,
      "Width": 16,
      "Height": 16,
      "Pattern": 589
    },
    {
      "Layer": 1,
      "X": 560,
      "Y": 56,
      "Width": 16,
      "Height": 16,
      "Pattern": 589
    },
    {
      "Layer": 1,
      "X": 576,
      "Y": 72,
      "Width": 16,
      "Height": 16,
      "Pattern": 589
    },
    {
      "Layer": 1,
      "X": 584,
      "Y": 80,
      "Width": 16,
      "Height": 16,
      "Pattern": 589
    },
    {
      "Layer": 1,
      "X": 568,
      "Y": 64,
      "Width": 16,
      "Height": 16,
      "Pattern": 589
    },
    {
      "Layer": 1,
      "X": 552,
      "Y": 48,
      "Width": 16,
      "Height": 16,
      "Pattern": 589
    },
    {
      "Layer": 1,
      "X": 592,
      "Y": 144,
      "Width": 16,
      "Height": 16,
      "Pattern": 605
    },
    {
      "Layer": 1,
      "X": 576,
      "Y": 160,
      "Width": 16,
      "Height": 16,
      "Pattern": 605
    },
    {
      "Layer": 1,
      "X": 560,
      "Y": 176,
      "Width": 16,
      "Height": 16,
      "Pattern": 605
    },
    {
      "Layer": 1,
      "X": 544,
      "Y": 192,
      "Width": 16,
      "Height": 16,
      "Pattern": 605
    },
    {
      "Layer": 1,
      "X": 584,
      "Y": 144,
      "Width": 16,
      "Height": 16,
      "Pattern": 604
    },
    {
      "Layer": 1,
      "X": 576,
      "Y": 152,
      "Width": 16,
      "Height": 16,
      "Pattern": 604
    },
    {
      "Layer": 1,
      "X": 568,
      "Y": 160,
      "Width": 16,
      "Height": 16,
      "Pattern": 604
    },
    {
      "Layer": 1,
      "X": 560,
      "Y": 168,
      "Width": 16,
      "Height": 16,
      "Pattern": 604
    },
    {
      "Layer": 1,
      "X": 552,
      "Y": 176,
      "Width": 16,
      "Height": 16,
      "Pattern": 604
    },
    {
      "Layer": 1,
      "X": 544,
      "Y": 184,
      "Width": 16,
      "Height": 16,
      "Pattern": 604
    },
    {
      "Layer": 1,
      "X": 464,
      "Y": 192,
      "Width": 16,
      "Height": 16,
      "Pattern": 598
    },
    {
      "Layer": 1,
      "X": 448,
      "Y": 176,
      "Width": 16,
      "Height": 16,
      "Pattern": 598
    },
    {
      "Layer": 1,
      "X": 432,
      "Y": 160,
      "Width": 16,
      "Height": 16,
      "Pattern": 598
    },
    {
      "Layer": 1,
      "X": 416,
      "Y": 144,
      "Width": 16,
      "Height": 16,
      "Pattern": 598
    },
    {
      "Layer": 1,
      "X": 424,
      "Y": 144,
      "Width": 16,
      "Height": 16,
      "Pattern": 599
    },
    {
      "Layer": 1,
      "X": 432,
      "Y": 152,
      "Width": 16,
      "Height": 16,
      "Pattern": 599
    },
    {
      "Layer": 1,
      "X": 440,
      "Y": 160,
      "Width": 16,
      "Height": 16,
      "Pattern": 599
    },
    {
      "Layer": 1,
      "X": 448,
      "Y": 168,
      "Width": 16,
      "Height": 16,
      "Pattern": 599
    },
    {
      "Layer": 1,
      "X": 456,
      "Y": 176,
      "Width": 16,
      "Height": 16,
      "Pattern": 599
    },
    {
      "Layer": 1,
      "X": 464,
      "Y": 184,
      "Width": 16,
      "Height": 16,
      "Pattern": 599
    },
    {
      "Layer": 1,
      "X": 496,
      "Y": 24,
      "Width": 8,
      "Height": 16,
      "Pattern": 72
    },
    {
      "Layer": 1,
      "X": 520,
      "Y": 24,
      "Width": 8,
      "Height": 16,
      "Pattern": 73
    },
    {
      "Layer": 1,
      "X": 504,
      "Y": 24,
      "Width": 16,
      "Height": 16,
      "Pattern": 189
    },
    {
      "Layer": 1,
      "X": 496,
      "Y": 200,
      "Width": 8,
      "Height": 16,
      "Pattern": 74
    },
    {
      "Layer": 1,
      "X": 520,
      "Y": 200,
      "Width": 8,
      "Height": 16,
      "Pattern": 75
    },
    {
      "Layer": 1,
      "X": 504,
      "Y": 200,
      "Width": 16,
      "Height": 16,
      "Pattern": 77
    },
    {
      "Layer": 1,
      "X": 504,
      "Y": 216,
      "Width": 16,
      "Height": 32,
      "Pattern": 2
    },
    {
      "Layer": 1,
      "X": 520,
      "Y": 224,
      "Width": 8,
      "Height": 16,
      "Pattern": 71
    },
    {
      "Layer": 1,
      "X": 496,
      "Y": 224,
      "Width": 8,
      "Height": 16,
      "Pattern": 71
    },
    {
      "Layer": 1,
      "X": 464,
      "Y": 96,
      "Width": 16,
      "Height": 16,
      "Pattern": 546
    },
    {
      "Layer": 1,
      "X": 456,
      "Y": 88,
      "Width": 32,
      "Height": 8,
      "Pattern": 542
    },
    {
      "Layer": 1,
      "X": 456,
      "Y": 112,
      "Width": 32,
      "Height": 8,
      "Pattern": 543
    },
    {
      "Layer": 1,
      "X": 456,
      "Y": 96,
      "Width": 8,
      "Height": 16,
      "Pattern": 544
    },
    {
      "Layer": 1,
      "X": 480,
      "Y": 96,
      "Width": 8,
      "Height": 16,
      "Pattern": 545
    },
    {
      "Layer": 1,
      "X": 544,
      "Y": 96,
      "Width": 16,
      "Height": 16,
      "Pattern": 546
    },
    {
      "Layer": 1,
      "X": 536,
      "Y": 88,
      "Width": 32,
      "Height": 8,
      "Pattern": 542
    },
    {
      "Layer": 1,
      "X": 536,
      "Y": 112,
      "Width": 32,
      "Height": 8,
      "Pattern": 543
    },
    {
      "Layer": 1,
      "X": 536,
      "Y": 96,
      "Width": 8,
      "Height": 16,
      "Pattern": 544
    },
    {
      "Layer": 1,
      "X": 560,
      "Y": 96,
      "Width": 8,
      "Height": 16,
      "Pattern": 545
    },
    {
      "Layer": 2,
      "X": 464,
      "Y": 0,
      "Width": 96,
      "Height": 16,
      "Pattern": 170
    },
    {
      "Layer": 2,
      "X": 560,
      "Y": 0,
      "Width": 32,
      "Height": 48,
      "Pattern": 170
    },
    {
      "Layer": 2,
      "X": 592,
      "Y": 0,
      "Width": 32,
      "Height": 80,
      "Pattern": 170
    },
    {
      "Layer": 2,
      "X": 400,
      "Y": 160,
      "Width": 32,
      "Height": 80,
      "Pattern": 170
    },
    {
      "Layer": 2,
      "X": 576,
      "Y": 176,
      "Width": 32,
      "Height": 64,
      "Pattern": 170
    },
    {
      "Layer": 2,
      "X": 464,
      "Y": 224,
      "Width": 88,
      "Height": 16,
      "Pattern": 170
    },
    {
      "Layer": 2,
      "X": 432,
      "Y": 192,
      "Width": 32,
      "Height": 48,
      "Pattern": 170
    },
    {
      "Layer": 2,
      "X": 0,
      "Y": 0,
      "Width": 400,
      "Height": 240,
      "Pattern": 170
    },
    {
      "Layer": 2,
      "X": 400,
      "Y": 0,
      "Width": 32,
      "Height": 80,
      "Pattern": 170
    },
    {
      "Layer": 2,
      "X": 624,
      "Y": 0,
      "Width": 48,
      "Height": 160,
      "Pattern": 170
    },
    {
      "Layer": 2,
      "X": 432,
      "Y": 0,
      "Width": 32,
      "Height": 48,
      "Pattern": 170
    },
    {
      "Layer": 2,
      "X": 472,
      "Y": 16,
      "Width": 64,
      "Height": 8,
      "Pattern": 304
    },
    {
      "Layer": 2,
      "X": 400,
      "Y": 80,
      "Width": 16,
      "Height": 16,
      "Pattern": 592
    },
    {
      "Layer": 2,
      "X": 416,
      "Y": 64,
      "Width": 16,
      "Height": 16,
      "Pattern": 592
    },
    {
      "Layer": 2,
      "X": 432,
      "Y": 48,
      "Width": 16,
      "Height": 16,
      "Pattern": 592
    },
    {
      "Layer": 2,
      "X": 448,
      "Y": 32,
      "Width": 16,
      "Height": 16,
      "Pattern": 592
    },
    {
      "Layer": 2,
      "X": 464,
      "Y": 16,
      "Width": 16,
      "Height": 16,
      "Pattern": 592
    },
    {
      "Layer": 2,
      "X": 400,
      "Y": 144,
      "Width": 16,
      "Height": 16,
      "Pattern": 597
    },
    {
      "Layer": 2,
      "X": 416,
      "Y": 160,
      "Width": 16,
      "Height": 16,
      "Pattern": 597
    },
    {
      "Layer": 2,
      "X": 432,
      "Y": 176,
      "Width": 16,
      "Height": 16,
      "Pattern": 597
    },
    {
      "Layer": 2,
      "X": 448,
      "Y": 192,
      "Width": 16,
      "Height": 16,
      "Pattern": 597
    },
    {
      "Layer": 2,
      "X": 464,
      "Y": 208,
      "Width": 16,
      "Height": 16,
      "Pattern": 597
    },
    {
      "Layer": 2,
      "X": 544,
      "Y": 208,
      "Width": 16,
      "Height": 16,
      "Pattern": 606
    },
    {
      "Layer": 2,
      "X": 560,
      "Y": 192,
      "Width": 16,
      "Height": 16,
      "Pattern": 606
    },
    {
      "Layer": 2,
      "X": 576,
      "Y": 176,
      "Width": 16,
      "Height": 16,
      "Pattern": 606
    },
    {
      "Layer": 2,
      "X": 592,
      "Y": 160,
      "Width": 16,
      "Height": 16,
      "Pattern": 606
    },
    {
      "Layer": 2,
      "X": 608,
      "Y": 144,
      "Width": 16,
      "Height": 16,
      "Pattern": 606
    },
    {
      "Layer": 2,
      "X": 544,
      "Y": 16,
      "Width": 16,
      "Height": 16,
      "Pattern": 591
    },
    {
      "Layer": 2,
      "X": 560,
      "Y": 32,
      "Width": 16,
      "Height": 16,
      "Pattern": 591
    },
    {
      "Layer": 2,
      "X": 576,
      "Y": 48,
      "Width": 16,
      "Height": 16,
      "Pattern": 591
    },
    {
      "Layer": 2,
      "X": 592,
      "Y": 64,
      "Width": 16,
      "Height": 16,
      "Pattern": 591
    },
    {
      "Layer": 2,
      "X": 608,
      "Y": 80,
      "Width": 16,
      "Height": 16,
      "Pattern": 591
    },
    {
      "Layer": 2,
      "X": 496,
      "Y": 16,
      "Width": 32,
      "Height": 8,
      "Pattern": 152
    },
    {
      "Layer": 2,
      "X": 504,
      "Y": 16,
      "Width": 16,
      "Height": 8,
      "Pattern": 271
    },
    {
      "Layer": 2,
      "X": 488,
      "Y": 216,
      "Width": 64,
      "Height": 8,
      "Pattern": 305
    },
    {
      "Layer": 2,
      "X": 496,
      "Y": 216,
      "Width": 32,
      "Height": 8,
      "Pattern": 188
    },
    {
      "Layer": 2,
      "X": 552,
      "Y": 208,
      "Width": 24,
      "Height": 32,
      "Pattern": 170
    },
    {
      "Layer": 2,
      "X": 608,
      "Y": 160,
      "Width": 64,
      "Height": 80,
      "Pattern": 170
    }
  ],
  "Destination": [
    {
      "Layer": 1,
      "X": 504,
      "Y": 157,
      "Name": "destination_point",
      "Direction": -1,
      "Sprite": "entities\/destination"
    },
    {
      "Layer": 1,
      "X": 512,
      "Y": 37,
      "Name": "from_d8",
      "Direction": 3
    }
  ],
  "Teletransporter": [
    {
      "Layer": 1,
      "X": 504,
      "Y": 240,
      "Width": 16,
      "Height": 16,
      "Name": "teletransporter",
      "Transition": "scrolling",
      "DestinationMap": 137,
      "Destination": "_side"
    },
    {
      "Layer": 1,
      "X": 504,
      "Y": 24,
      "Width": 16,
      "Height": 16,
      "Name": "teletransporter_2",
      "Transition": "fade",
      "DestinationMap": 139,
      "Destination": "from_d5"
    }
  ],
  "Stairs": [
    {
      "Layer": 1,
      "X": 504,
      "Y": 24,
      "Name": "stairs",
      "Direction": 1,
      "Subtype": 0
    }
  ],
  "Pickable": [],
  "Sensor": [],
  "Door": [],
  "DynamicTile": [],
  "Npc": [],
  "Block": [],
  "Chest": [],
  "Jumper": [],
  "Wall": [
    {
      "Layer": 1,
      "X": 504,
      "Y": 200,
      "Width": 16,
      "Height": 16,
      "Name": "custom_obstacle",
      "StopsHero": false,
      "StopsEnemies": true,
      "StopsNpcs": false,
      "StopsBlocks": false
    }
  ],
  "Enemy": [
    {
      "Layer": 1,
      "X": 504,
      "Y": 120,
      "Name": "enemy",
      "Direction": 3,
      "Breed": "bubble",
      "TreasureName": "random",
      "TreasureVariant": 1
    }
  ],
  "Destructible": [],
  "Switch": []
}
