{
  "Id": 20,
  "Description": "Lyriann Cave 1F",
  "Properties": {
    "X": 1192,
    "Y": 2056,
    "Width": 480,
    "Height": 640,
    "World": "inside_world",
    "Floor": 0,
    "MinLayer": 0,
    "MaxLayer": 2,
    "Tileset": 3,
    "Music": "cave"
  },
  "Tile": [
    {
      "Layer": 0,
      "X": 64,
      "Y": 512,
      "Width": 48,
      "Height": 48,
      "Pattern": 345
    },
    {
      "Layer": 0,
      "X": 64,
      "Y": 560,
      "Width": 352,
      "Height": 16,
      "Pattern": 3
    },
    {
      "Layer": 0,
      "X": 112,
      "Y": 512,
      "Width": 304,
      "Height": 48,
      "Pattern": 3
    },
    {
      "Layer": 0,
      "X": 64,
      "Y": 64,
      "Width": 352,
      "Height": 448,
      "Pattern": 3
    },
    {
      "Layer": 0,
      "X": 280,
      "Y": 104,
      "Width": 8,
      "Height": 416,
      "Pattern": 71
    },
    {
      "Layer": 0,
      "X": 192,
      "Y": 272,
      "Width": 8,
      "Height": 40,
      "Pattern": 71
    },
    {
      "Layer": 0,
      "X": 120,
      "Y": 312,
      "Width": 40,
      "Height": 8,
      "Pattern": 70
    },
    {
      "Layer": 0,
      "X": 120,
      "Y": 288,
      "Width": 40,
      "Height": 8,
      "Pattern": 70
    },
    {
      "Layer": 0,
      "X": 64,
      "Y": 368,
      "Width": 48,
      "Height": 24,
      "Pattern": 226
    },
    {
      "Layer": 0,
      "X": 72,
      "Y": 384,
      "Width": 16,
      "Height": 16,
      "Pattern": 3
    },
    {
      "Layer": 0,
      "X": 168,
      "Y": 520,
      "Width": 8,
      "Height": 48,
      "Pattern": 219
    },
    {
      "Layer": 0,
      "X": 40,
      "Y": 576,
      "Width": 24,
      "Height": 24,
      "Pattern": 59
    },
    {
      "Layer": 0,
      "X": 416,
      "Y": 576,
      "Width": 24,
      "Height": 24,
      "Pattern": 60
    },
    {
      "Layer": 0,
      "X": 416,
      "Y": 40,
      "Width": 24,
      "Height": 24,
      "Pattern": 58
    },
    {
      "Layer": 0,
      "X": 40,
      "Y": 40,
      "Width": 24,
      "Height": 24,
      "Pattern": 57
    },
    {
      "Layer": 0,
      "X": 64,
      "Y": 40,
      "Width": 352,
      "Height": 24,
      "Pattern": 224
    },
    {
      "Layer": 0,
      "X": 416,
      "Y": 64,
      "Width": 24,
      "Height": 512,
      "Pattern": 225
    },
    {
      "Layer": 0,
      "X": 40,
      "Y": 64,
      "Width": 24,
      "Height": 304,
      "Pattern": 227
    },
    {
      "Layer": 0,
      "X": 64,
      "Y": 576,
      "Width": 112,
      "Height": 24,
      "Pattern": 226
    },
    {
      "Layer": 0,
      "X": 72,
      "Y": 568,
      "Width": 96,
      "Height": 8,
      "Pattern": 217
    },
    {
      "Layer": 0,
      "X": 408,
      "Y": 568,
      "Width": 8,
      "Height": 8,
      "Pattern": 215
    },
    {
      "Layer": 0,
      "X": 64,
      "Y": 72,
      "Width": 8,
      "Height": 288,
      "Pattern": 218
    },
    {
      "Layer": 0,
      "X": 408,
      "Y": 72,
      "Width": 8,
      "Height": 496,
      "Pattern": 219
    },
    {
      "Layer": 0,
      "X": 408,
      "Y": 64,
      "Width": 8,
      "Height": 8,
      "Pattern": 213
    },
    {
      "Layer": 0,
      "X": 64,
      "Y": 64,
      "Width": 8,
      "Height": 8,
      "Pattern": 212
    },
    {
      "Layer": 0,
      "X": 72,
      "Y": 64,
      "Width": 336,
      "Height": 8,
      "Pattern": 216
    },
    {
      "Layer": 0,
      "X": 40,
      "Y": 456,
      "Width": 24,
      "Height": 24,
      "Pattern": 57
    },
    {
      "Layer": 0,
      "X": 40,
      "Y": 480,
      "Width": 24,
      "Height": 96,
      "Pattern": 227
    },
    {
      "Layer": 0,
      "X": 64,
      "Y": 456,
      "Width": 48,
      "Height": 24,
      "Pattern": 224
    },
    {
      "Layer": 0,
      "X": 72,
      "Y": 464,
      "Width": 16,
      "Height": 16,
      "Pattern": 251
    },
    {
      "Layer": 0,
      "X": 64,
      "Y": 464,
      "Width": 8,
      "Height": 16,
      "Pattern": 285
    },
    {
      "Layer": 0,
      "X": 104,
      "Y": 384,
      "Width": 24,
      "Height": 80,
      "Pattern": 227
    },
    {
      "Layer": 0,
      "X": 40,
      "Y": 368,
      "Width": 24,
      "Height": 24,
      "Pattern": 59
    },
    {
      "Layer": 0,
      "X": 64,
      "Y": 360,
      "Width": 8,
      "Height": 8,
      "Pattern": 214
    },
    {
      "Layer": 0,
      "X": 72,
      "Y": 360,
      "Width": 64,
      "Height": 8,
      "Pattern": 217
    },
    {
      "Layer": 0,
      "X": 128,
      "Y": 360,
      "Width": 8,
      "Height": 8,
      "Pattern": 221
    },
    {
      "Layer": 0,
      "X": 64,
      "Y": 488,
      "Width": 8,
      "Height": 32,
      "Pattern": 218
    },
    {
      "Layer": 0,
      "X": 72,
      "Y": 480,
      "Width": 64,
      "Height": 8,
      "Pattern": 216
    },
    {
      "Layer": 0,
      "X": 128,
      "Y": 368,
      "Width": 8,
      "Height": 112,
      "Pattern": 218
    },
    {
      "Layer": 0,
      "X": 104,
      "Y": 456,
      "Width": 24,
      "Height": 24,
      "Pattern": 68
    },
    {
      "Layer": 0,
      "X": 104,
      "Y": 368,
      "Width": 24,
      "Height": 24,
      "Pattern": 66
    },
    {
      "Layer": 0,
      "X": 128,
      "Y": 480,
      "Width": 8,
      "Height": 8,
      "Pattern": 222
    },
    {
      "Layer": 0,
      "X": 64,
      "Y": 480,
      "Width": 8,
      "Height": 8,
      "Pattern": 212
    },
    {
      "Layer": 0,
      "X": 88,
      "Y": 464,
      "Width": 8,
      "Height": 16,
      "Pattern": 286
    },
    {
      "Layer": 0,
      "X": 104,
      "Y": 576,
      "Width": 16,
      "Height": 16,
      "Pattern": 294
    },
    {
      "Layer": 0,
      "X": 96,
      "Y": 576,
      "Width": 8,
      "Height": 16,
      "Pattern": 288
    },
    {
      "Layer": 0,
      "X": 120,
      "Y": 576,
      "Width": 8,
      "Height": 16,
      "Pattern": 287
    },
    {
      "Layer": 0,
      "X": 104,
      "Y": 624,
      "Width": 16,
      "Height": 8,
      "Pattern": 70
    },
    {
      "Layer": 0,
      "X": 176,
      "Y": 576,
      "Width": 24,
      "Height": 24,
      "Pattern": 60
    },
    {
      "Layer": 0,
      "X": 168,
      "Y": 568,
      "Width": 8,
      "Height": 8,
      "Pattern": 215
    },
    {
      "Layer": 0,
      "X": 176,
      "Y": 544,
      "Width": 24,
      "Height": 32,
      "Pattern": 225
    },
    {
      "Layer": 0,
      "X": 192,
      "Y": 528,
      "Width": 80,
      "Height": 24,
      "Pattern": 226
    },
    {
      "Layer": 0,
      "X": 264,
      "Y": 544,
      "Width": 24,
      "Height": 32,
      "Pattern": 227
    },
    {
      "Layer": 0,
      "X": 264,
      "Y": 576,
      "Width": 24,
      "Height": 24,
      "Pattern": 59
    },
    {
      "Layer": 0,
      "X": 288,
      "Y": 576,
      "Width": 128,
      "Height": 24,
      "Pattern": 226
    },
    {
      "Layer": 0,
      "X": 288,
      "Y": 568,
      "Width": 8,
      "Height": 8,
      "Pattern": 214
    },
    {
      "Layer": 0,
      "X": 296,
      "Y": 568,
      "Width": 112,
      "Height": 8,
      "Pattern": 217
    },
    {
      "Layer": 0,
      "X": 176,
      "Y": 520,
      "Width": 112,
      "Height": 8,
      "Pattern": 217
    },
    {
      "Layer": 0,
      "X": 168,
      "Y": 520,
      "Width": 8,
      "Height": 8,
      "Pattern": 220
    },
    {
      "Layer": 0,
      "X": 288,
      "Y": 520,
      "Width": 8,
      "Height": 48,
      "Pattern": 218
    },
    {
      "Layer": 0,
      "X": 288,
      "Y": 520,
      "Width": 8,
      "Height": 8,
      "Pattern": 221
    },
    {
      "Layer": 0,
      "X": 176,
      "Y": 528,
      "Width": 24,
      "Height": 24,
      "Pattern": 65
    },
    {
      "Layer": 0,
      "X": 264,
      "Y": 528,
      "Width": 24,
      "Height": 24,
      "Pattern": 66
    },
    {
      "Layer": 0,
      "X": 104,
      "Y": 592,
      "Width": 16,
      "Height": 32,
      "Pattern": 3
    },
    {
      "Layer": 0,
      "X": 72,
      "Y": 552,
      "Width": 32,
      "Height": 8,
      "Pattern": 334
    },
    {
      "Layer": 0,
      "X": 72,
      "Y": 512,
      "Width": 32,
      "Height": 8,
      "Pattern": 332
    },
    {
      "Layer": 0,
      "X": 104,
      "Y": 512,
      "Width": 8,
      "Height": 8,
      "Pattern": 331
    },
    {
      "Layer": 0,
      "X": 104,
      "Y": 552,
      "Width": 8,
      "Height": 8,
      "Pattern": 330
    },
    {
      "Layer": 0,
      "X": 88,
      "Y": 528,
      "Width": 8,
      "Height": 16,
      "Pattern": 335
    },
    {
      "Layer": 0,
      "X": 64,
      "Y": 512,
      "Width": 8,
      "Height": 8,
      "Pattern": 328
    },
    {
      "Layer": 0,
      "X": 64,
      "Y": 552,
      "Width": 8,
      "Height": 8,
      "Pattern": 329
    },
    {
      "Layer": 0,
      "X": 64,
      "Y": 520,
      "Width": 8,
      "Height": 32,
      "Pattern": 333
    },
    {
      "Layer": 0,
      "X": 104,
      "Y": 624,
      "Width": 16,
      "Height": 8,
      "Pattern": 70
    },
    {
      "Layer": 0,
      "X": 96,
      "Y": 528,
      "Width": 16,
      "Height": 16,
      "Pattern": 3
    },
    {
      "Layer": 0,
      "X": 104,
      "Y": 520,
      "Width": 8,
      "Height": 8,
      "Pattern": 330
    },
    {
      "Layer": 0,
      "X": 104,
      "Y": 544,
      "Width": 8,
      "Height": 8,
      "Pattern": 331
    },
    {
      "Layer": 0,
      "X": 96,
      "Y": 544,
      "Width": 8,
      "Height": 8,
      "Pattern": 332
    },
    {
      "Layer": 0,
      "X": 96,
      "Y": 520,
      "Width": 8,
      "Height": 8,
      "Pattern": 334
    },
    {
      "Layer": 0,
      "X": 88,
      "Y": 520,
      "Width": 8,
      "Height": 8,
      "Pattern": 336
    },
    {
      "Layer": 0,
      "X": 88,
      "Y": 544,
      "Width": 8,
      "Height": 8,
      "Pattern": 339
    },
    {
      "Layer": 0,
      "X": 232,
      "Y": 616,
      "Width": 16,
      "Height": 16,
      "Pattern": 2
    },
    {
      "Layer": 0,
      "X": 232,
      "Y": 624,
      "Width": 16,
      "Height": 8,
      "Pattern": 70
    },
    {
      "Layer": 0,
      "X": 72,
      "Y": 368,
      "Width": 16,
      "Height": 16,
      "Pattern": 252
    },
    {
      "Layer": 0,
      "X": 72,
      "Y": 392,
      "Width": 16,
      "Height": 8,
      "Pattern": 70
    },
    {
      "Layer": 0,
      "X": 88,
      "Y": 368,
      "Width": 8,
      "Height": 16,
      "Pattern": 287
    },
    {
      "Layer": 0,
      "X": 64,
      "Y": 368,
      "Width": 8,
      "Height": 16,
      "Pattern": 288
    },
    {
      "Layer": 0,
      "X": 64,
      "Y": 240,
      "Width": 8,
      "Height": 8,
      "Pattern": 69
    },
    {
      "Layer": 0,
      "X": 72,
      "Y": 240,
      "Width": 64,
      "Height": 8,
      "Pattern": 70
    },
    {
      "Layer": 0,
      "X": 112,
      "Y": 360,
      "Width": 8,
      "Height": 8,
      "Pattern": 69
    },
    {
      "Layer": 0,
      "X": 136,
      "Y": 240,
      "Width": 8,
      "Height": 8,
      "Pattern": 69
    },
    {
      "Layer": 0,
      "X": 136,
      "Y": 360,
      "Width": 8,
      "Height": 8,
      "Pattern": 69
    },
    {
      "Layer": 0,
      "X": 120,
      "Y": 360,
      "Width": 16,
      "Height": 8,
      "Pattern": 70
    },
    {
      "Layer": 0,
      "X": 136,
      "Y": 248,
      "Width": 8,
      "Height": 40,
      "Pattern": 71
    },
    {
      "Layer": 0,
      "X": 136,
      "Y": 320,
      "Width": 8,
      "Height": 40,
      "Pattern": 71
    },
    {
      "Layer": 0,
      "X": 136,
      "Y": 288,
      "Width": 8,
      "Height": 8,
      "Pattern": 69
    },
    {
      "Layer": 0,
      "X": 136,
      "Y": 312,
      "Width": 8,
      "Height": 8,
      "Pattern": 69
    },
    {
      "Layer": 0,
      "X": 112,
      "Y": 288,
      "Width": 8,
      "Height": 8,
      "Pattern": 69
    },
    {
      "Layer": 0,
      "X": 112,
      "Y": 312,
      "Width": 8,
      "Height": 8,
      "Pattern": 69
    },
    {
      "Layer": 0,
      "X": 160,
      "Y": 312,
      "Width": 8,
      "Height": 8,
      "Pattern": 69
    },
    {
      "Layer": 0,
      "X": 160,
      "Y": 288,
      "Width": 8,
      "Height": 8,
      "Pattern": 69
    },
    {
      "Layer": 0,
      "X": 280,
      "Y": 520,
      "Width": 8,
      "Height": 8,
      "Pattern": 69
    },
    {
      "Layer": 0,
      "X": 192,
      "Y": 448,
      "Width": 8,
      "Height": 8,
      "Pattern": 69
    },
    {
      "Layer": 0,
      "X": 216,
      "Y": 448,
      "Width": 8,
      "Height": 8,
      "Pattern": 69
    },
    {
      "Layer": 0,
      "X": 216,
      "Y": 424,
      "Width": 8,
      "Height": 8,
      "Pattern": 69
    },
    {
      "Layer": 0,
      "X": 256,
      "Y": 424,
      "Width": 8,
      "Height": 8,
      "Pattern": 69
    },
    {
      "Layer": 0,
      "X": 192,
      "Y": 400,
      "Width": 8,
      "Height": 8,
      "Pattern": 69
    },
    {
      "Layer": 0,
      "X": 176,
      "Y": 344,
      "Width": 8,
      "Height": 8,
      "Pattern": 69
    },
    {
      "Layer": 0,
      "X": 192,
      "Y": 408,
      "Width": 8,
      "Height": 40,
      "Pattern": 71
    },
    {
      "Layer": 0,
      "X": 256,
      "Y": 392,
      "Width": 8,
      "Height": 32,
      "Pattern": 71
    },
    {
      "Layer": 0,
      "X": 216,
      "Y": 432,
      "Width": 8,
      "Height": 16,
      "Pattern": 71
    },
    {
      "Layer": 0,
      "X": 200,
      "Y": 448,
      "Width": 16,
      "Height": 8,
      "Pattern": 70
    },
    {
      "Layer": 0,
      "X": 224,
      "Y": 424,
      "Width": 32,
      "Height": 8,
      "Pattern": 70
    },
    {
      "Layer": 0,
      "X": 184,
      "Y": 344,
      "Width": 48,
      "Height": 8,
      "Pattern": 70
    },
    {
      "Layer": 0,
      "X": 144,
      "Y": 240,
      "Width": 96,
      "Height": 8,
      "Pattern": 70
    },
    {
      "Layer": 0,
      "X": 232,
      "Y": 504,
      "Width": 24,
      "Height": 8,
      "Pattern": 70
    },
    {
      "Layer": 0,
      "X": 224,
      "Y": 504,
      "Width": 8,
      "Height": 8,
      "Pattern": 69
    },
    {
      "Layer": 0,
      "X": 200,
      "Y": 520,
      "Width": 8,
      "Height": 8,
      "Pattern": 69
    },
    {
      "Layer": 0,
      "X": 200,
      "Y": 480,
      "Width": 8,
      "Height": 8,
      "Pattern": 69
    },
    {
      "Layer": 0,
      "X": 256,
      "Y": 480,
      "Width": 8,
      "Height": 8,
      "Pattern": 69
    },
    {
      "Layer": 0,
      "X": 240,
      "Y": 456,
      "Width": 8,
      "Height": 8,
      "Pattern": 69
    },
    {
      "Layer": 0,
      "X": 208,
      "Y": 480,
      "Width": 48,
      "Height": 8,
      "Pattern": 70
    },
    {
      "Layer": 0,
      "X": 248,
      "Y": 456,
      "Width": 32,
      "Height": 8,
      "Pattern": 70
    },
    {
      "Layer": 0,
      "X": 200,
      "Y": 488,
      "Width": 8,
      "Height": 32,
      "Pattern": 71
    },
    {
      "Layer": 0,
      "X": 256,
      "Y": 504,
      "Width": 8,
      "Height": 8,
      "Pattern": 69
    },
    {
      "Layer": 0,
      "X": 256,
      "Y": 488,
      "Width": 8,
      "Height": 16,
      "Pattern": 71
    },
    {
      "Layer": 0,
      "X": 256,
      "Y": 264,
      "Width": 8,
      "Height": 8,
      "Pattern": 69
    },
    {
      "Layer": 0,
      "X": 192,
      "Y": 264,
      "Width": 8,
      "Height": 8,
      "Pattern": 69
    },
    {
      "Layer": 0,
      "X": 216,
      "Y": 288,
      "Width": 8,
      "Height": 8,
      "Pattern": 69
    },
    {
      "Layer": 0,
      "X": 192,
      "Y": 312,
      "Width": 8,
      "Height": 8,
      "Pattern": 69
    },
    {
      "Layer": 0,
      "X": 224,
      "Y": 288,
      "Width": 112,
      "Height": 8,
      "Pattern": 70
    },
    {
      "Layer": 0,
      "X": 200,
      "Y": 264,
      "Width": 56,
      "Height": 8,
      "Pattern": 70
    },
    {
      "Layer": 0,
      "X": 200,
      "Y": 312,
      "Width": 56,
      "Height": 8,
      "Pattern": 70
    },
    {
      "Layer": 0,
      "X": 280,
      "Y": 456,
      "Width": 8,
      "Height": 8,
      "Pattern": 69
    },
    {
      "Layer": 0,
      "X": 144,
      "Y": 392,
      "Width": 8,
      "Height": 8,
      "Pattern": 69
    },
    {
      "Layer": 0,
      "X": 144,
      "Y": 464,
      "Width": 8,
      "Height": 8,
      "Pattern": 69
    },
    {
      "Layer": 0,
      "X": 136,
      "Y": 464,
      "Width": 8,
      "Height": 8,
      "Pattern": 70
    },
    {
      "Layer": 0,
      "X": 144,
      "Y": 400,
      "Width": 8,
      "Height": 64,
      "Pattern": 71
    },
    {
      "Layer": 0,
      "X": 128,
      "Y": 464,
      "Width": 8,
      "Height": 8,
      "Pattern": 69
    },
    {
      "Layer": 0,
      "X": 256,
      "Y": 384,
      "Width": 8,
      "Height": 8,
      "Pattern": 69
    },
    {
      "Layer": 0,
      "X": 232,
      "Y": 384,
      "Width": 8,
      "Height": 8,
      "Pattern": 69
    },
    {
      "Layer": 0,
      "X": 232,
      "Y": 344,
      "Width": 8,
      "Height": 8,
      "Pattern": 69
    },
    {
      "Layer": 0,
      "X": 176,
      "Y": 400,
      "Width": 8,
      "Height": 8,
      "Pattern": 69
    },
    {
      "Layer": 0,
      "X": 184,
      "Y": 400,
      "Width": 8,
      "Height": 8,
      "Pattern": 70
    },
    {
      "Layer": 0,
      "X": 240,
      "Y": 384,
      "Width": 16,
      "Height": 8,
      "Pattern": 70
    },
    {
      "Layer": 0,
      "X": 176,
      "Y": 352,
      "Width": 8,
      "Height": 48,
      "Pattern": 71
    },
    {
      "Layer": 0,
      "X": 232,
      "Y": 352,
      "Width": 8,
      "Height": 32,
      "Pattern": 71
    },
    {
      "Layer": 0,
      "X": 256,
      "Y": 312,
      "Width": 8,
      "Height": 8,
      "Pattern": 69
    },
    {
      "Layer": 0,
      "X": 256,
      "Y": 336,
      "Width": 8,
      "Height": 8,
      "Pattern": 69
    },
    {
      "Layer": 0,
      "X": 280,
      "Y": 336,
      "Width": 8,
      "Height": 8,
      "Pattern": 69
    },
    {
      "Layer": 0,
      "X": 264,
      "Y": 336,
      "Width": 16,
      "Height": 8,
      "Pattern": 70
    },
    {
      "Layer": 0,
      "X": 256,
      "Y": 320,
      "Width": 8,
      "Height": 16,
      "Pattern": 71
    },
    {
      "Layer": 0,
      "X": 128,
      "Y": 88,
      "Width": 16,
      "Height": 24,
      "Pattern": 359
    },
    {
      "Layer": 0,
      "X": 120,
      "Y": 88,
      "Width": 8,
      "Height": 24,
      "Pattern": 361
    },
    {
      "Layer": 0,
      "X": 144,
      "Y": 88,
      "Width": 8,
      "Height": 24,
      "Pattern": 362
    },
    {
      "Layer": 0,
      "X": 160,
      "Y": 160,
      "Width": 16,
      "Height": 24,
      "Pattern": 368
    },
    {
      "Layer": 0,
      "X": 152,
      "Y": 160,
      "Width": 8,
      "Height": 24,
      "Pattern": 365
    },
    {
      "Layer": 0,
      "X": 152,
      "Y": 184,
      "Width": 32,
      "Height": 8,
      "Pattern": 367
    },
    {
      "Layer": 0,
      "X": 176,
      "Y": 160,
      "Width": 8,
      "Height": 24,
      "Pattern": 366
    },
    {
      "Layer": 0,
      "X": 152,
      "Y": 96,
      "Width": 8,
      "Height": 8,
      "Pattern": 69
    },
    {
      "Layer": 0,
      "X": 112,
      "Y": 96,
      "Width": 8,
      "Height": 8,
      "Pattern": 69
    },
    {
      "Layer": 0,
      "X": 88,
      "Y": 96,
      "Width": 8,
      "Height": 8,
      "Pattern": 69
    },
    {
      "Layer": 0,
      "X": 88,
      "Y": 128,
      "Width": 8,
      "Height": 8,
      "Pattern": 69
    },
    {
      "Layer": 0,
      "X": 88,
      "Y": 208,
      "Width": 8,
      "Height": 8,
      "Pattern": 69
    },
    {
      "Layer": 0,
      "X": 64,
      "Y": 208,
      "Width": 8,
      "Height": 8,
      "Pattern": 69
    },
    {
      "Layer": 0,
      "X": 72,
      "Y": 208,
      "Width": 16,
      "Height": 8,
      "Pattern": 70
    },
    {
      "Layer": 0,
      "X": 96,
      "Y": 128,
      "Width": 16,
      "Height": 8,
      "Pattern": 70
    },
    {
      "Layer": 0,
      "X": 96,
      "Y": 96,
      "Width": 16,
      "Height": 8,
      "Pattern": 70
    },
    {
      "Layer": 0,
      "X": 88,
      "Y": 104,
      "Width": 8,
      "Height": 24,
      "Pattern": 71
    },
    {
      "Layer": 0,
      "X": 128,
      "Y": 152,
      "Width": 8,
      "Height": 56,
      "Pattern": 71
    },
    {
      "Layer": 0,
      "X": 128,
      "Y": 208,
      "Width": 8,
      "Height": 8,
      "Pattern": 69
    },
    {
      "Layer": 0,
      "X": 280,
      "Y": 96,
      "Width": 8,
      "Height": 8,
      "Pattern": 69
    },
    {
      "Layer": 0,
      "X": 160,
      "Y": 96,
      "Width": 120,
      "Height": 8,
      "Pattern": 70
    },
    {
      "Layer": 0,
      "X": 160,
      "Y": 208,
      "Width": 8,
      "Height": 8,
      "Pattern": 69
    },
    {
      "Layer": 0,
      "X": 224,
      "Y": 216,
      "Width": 8,
      "Height": 8,
      "Pattern": 69
    },
    {
      "Layer": 0,
      "X": 240,
      "Y": 136,
      "Width": 8,
      "Height": 56,
      "Pattern": 71
    },
    {
      "Layer": 0,
      "X": 280,
      "Y": 240,
      "Width": 8,
      "Height": 8,
      "Pattern": 69
    },
    {
      "Layer": 0,
      "X": 128,
      "Y": 144,
      "Width": 8,
      "Height": 8,
      "Pattern": 69
    },
    {
      "Layer": 0,
      "X": 112,
      "Y": 144,
      "Width": 8,
      "Height": 8,
      "Pattern": 69
    },
    {
      "Layer": 0,
      "X": 136,
      "Y": 208,
      "Width": 24,
      "Height": 8,
      "Pattern": 70
    },
    {
      "Layer": 0,
      "X": 152,
      "Y": 136,
      "Width": 8,
      "Height": 8,
      "Pattern": 69
    },
    {
      "Layer": 0,
      "X": 240,
      "Y": 136,
      "Width": 8,
      "Height": 8,
      "Pattern": 69
    },
    {
      "Layer": 0,
      "X": 160,
      "Y": 136,
      "Width": 80,
      "Height": 8,
      "Pattern": 70
    },
    {
      "Layer": 0,
      "X": 200,
      "Y": 160,
      "Width": 8,
      "Height": 8,
      "Pattern": 69
    },
    {
      "Layer": 0,
      "X": 200,
      "Y": 168,
      "Width": 8,
      "Height": 24,
      "Pattern": 71
    },
    {
      "Layer": 0,
      "X": 200,
      "Y": 192,
      "Width": 8,
      "Height": 8,
      "Pattern": 69
    },
    {
      "Layer": 0,
      "X": 208,
      "Y": 192,
      "Width": 32,
      "Height": 8,
      "Pattern": 70
    },
    {
      "Layer": 0,
      "X": 240,
      "Y": 192,
      "Width": 8,
      "Height": 8,
      "Pattern": 69
    },
    {
      "Layer": 0,
      "X": 176,
      "Y": 144,
      "Width": 8,
      "Height": 8,
      "Pattern": 71
    },
    {
      "Layer": 0,
      "X": 176,
      "Y": 136,
      "Width": 8,
      "Height": 8,
      "Pattern": 69
    },
    {
      "Layer": 0,
      "X": 176,
      "Y": 152,
      "Width": 8,
      "Height": 8,
      "Pattern": 69
    },
    {
      "Layer": 0,
      "X": 176,
      "Y": 216,
      "Width": 48,
      "Height": 8,
      "Pattern": 70
    },
    {
      "Layer": 0,
      "X": 168,
      "Y": 216,
      "Width": 8,
      "Height": 8,
      "Pattern": 69
    },
    {
      "Layer": 0,
      "X": 112,
      "Y": 128,
      "Width": 8,
      "Height": 8,
      "Pattern": 69
    },
    {
      "Layer": 0,
      "X": 120,
      "Y": 144,
      "Width": 8,
      "Height": 8,
      "Pattern": 70
    },
    {
      "Layer": 0,
      "X": 112,
      "Y": 136,
      "Width": 8,
      "Height": 8,
      "Pattern": 71
    },
    {
      "Layer": 0,
      "X": 112,
      "Y": 208,
      "Width": 8,
      "Height": 8,
      "Pattern": 69
    },
    {
      "Layer": 0,
      "X": 120,
      "Y": 208,
      "Width": 8,
      "Height": 8,
      "Pattern": 70
    },
    {
      "Layer": 0,
      "X": 288,
      "Y": 560,
      "Width": 32,
      "Height": 16,
      "Pattern": 345
    },
    {
      "Layer": 0,
      "X": 288,
      "Y": 568,
      "Width": 8,
      "Height": 8,
      "Pattern": 329
    },
    {
      "Layer": 0,
      "X": 288,
      "Y": 560,
      "Width": 8,
      "Height": 8,
      "Pattern": 328
    },
    {
      "Layer": 0,
      "X": 312,
      "Y": 560,
      "Width": 8,
      "Height": 8,
      "Pattern": 331
    },
    {
      "Layer": 0,
      "X": 312,
      "Y": 568,
      "Width": 8,
      "Height": 8,
      "Pattern": 330
    },
    {
      "Layer": 0,
      "X": 296,
      "Y": 560,
      "Width": 16,
      "Height": 8,
      "Pattern": 332
    },
    {
      "Layer": 0,
      "X": 296,
      "Y": 568,
      "Width": 16,
      "Height": 8,
      "Pattern": 334
    },
    {
      "Layer": 0,
      "X": 280,
      "Y": 288,
      "Width": 8,
      "Height": 8,
      "Pattern": 69
    },
    {
      "Layer": 0,
      "X": 408,
      "Y": 288,
      "Width": 8,
      "Height": 8,
      "Pattern": 69
    },
    {
      "Layer": 0,
      "X": 368,
      "Y": 288,
      "Width": 40,
      "Height": 8,
      "Pattern": 70
    },
    {
      "Layer": 0,
      "X": 336,
      "Y": 264,
      "Width": 8,
      "Height": 56,
      "Pattern": 71
    },
    {
      "Layer": 0,
      "X": 360,
      "Y": 264,
      "Width": 8,
      "Height": 56,
      "Pattern": 71
    },
    {
      "Layer": 0,
      "X": 336,
      "Y": 288,
      "Width": 8,
      "Height": 8,
      "Pattern": 69
    },
    {
      "Layer": 0,
      "X": 336,
      "Y": 264,
      "Width": 8,
      "Height": 8,
      "Pattern": 69
    },
    {
      "Layer": 0,
      "X": 336,
      "Y": 312,
      "Width": 8,
      "Height": 8,
      "Pattern": 69
    },
    {
      "Layer": 0,
      "X": 360,
      "Y": 312,
      "Width": 8,
      "Height": 8,
      "Pattern": 69
    },
    {
      "Layer": 0,
      "X": 360,
      "Y": 288,
      "Width": 8,
      "Height": 8,
      "Pattern": 69
    },
    {
      "Layer": 0,
      "X": 360,
      "Y": 264,
      "Width": 8,
      "Height": 8,
      "Pattern": 69
    },
    {
      "Layer": 0,
      "X": 336,
      "Y": 464,
      "Width": 8,
      "Height": 8,
      "Pattern": 69
    },
    {
      "Layer": 0,
      "X": 360,
      "Y": 464,
      "Width": 8,
      "Height": 8,
      "Pattern": 69
    },
    {
      "Layer": 0,
      "X": 336,
      "Y": 472,
      "Width": 8,
      "Height": 40,
      "Pattern": 71
    },
    {
      "Layer": 0,
      "X": 360,
      "Y": 472,
      "Width": 8,
      "Height": 40,
      "Pattern": 71
    },
    {
      "Layer": 0,
      "X": 312,
      "Y": 136,
      "Width": 8,
      "Height": 8,
      "Pattern": 69
    },
    {
      "Layer": 0,
      "X": 312,
      "Y": 216,
      "Width": 8,
      "Height": 8,
      "Pattern": 69
    },
    {
      "Layer": 0,
      "X": 384,
      "Y": 216,
      "Width": 8,
      "Height": 8,
      "Pattern": 69
    },
    {
      "Layer": 0,
      "X": 384,
      "Y": 136,
      "Width": 8,
      "Height": 8,
      "Pattern": 69
    },
    {
      "Layer": 0,
      "X": 312,
      "Y": 144,
      "Width": 8,
      "Height": 72,
      "Pattern": 71
    },
    {
      "Layer": 0,
      "X": 384,
      "Y": 144,
      "Width": 8,
      "Height": 72,
      "Pattern": 71
    },
    {
      "Layer": 0,
      "X": 320,
      "Y": 136,
      "Width": 64,
      "Height": 8,
      "Pattern": 70
    },
    {
      "Layer": 0,
      "X": 320,
      "Y": 216,
      "Width": 64,
      "Height": 8,
      "Pattern": 70
    },
    {
      "Layer": 0,
      "X": 320,
      "Y": 352,
      "Width": 8,
      "Height": 8,
      "Pattern": 69
    },
    {
      "Layer": 0,
      "X": 376,
      "Y": 352,
      "Width": 8,
      "Height": 8,
      "Pattern": 69
    },
    {
      "Layer": 0,
      "X": 320,
      "Y": 424,
      "Width": 8,
      "Height": 8,
      "Pattern": 69
    },
    {
      "Layer": 0,
      "X": 376,
      "Y": 424,
      "Width": 8,
      "Height": 8,
      "Pattern": 69
    },
    {
      "Layer": 0,
      "X": 328,
      "Y": 352,
      "Width": 48,
      "Height": 8,
      "Pattern": 70
    },
    {
      "Layer": 0,
      "X": 328,
      "Y": 424,
      "Width": 48,
      "Height": 8,
      "Pattern": 70
    },
    {
      "Layer": 0,
      "X": 320,
      "Y": 360,
      "Width": 8,
      "Height": 64,
      "Pattern": 71
    },
    {
      "Layer": 0,
      "X": 376,
      "Y": 360,
      "Width": 8,
      "Height": 64,
      "Pattern": 71
    },
    {
      "Layer": 0,
      "X": 304,
      "Y": 304,
      "Width": 16,
      "Height": 16,
      "Pattern": 283
    },
    {
      "Layer": 0,
      "X": 384,
      "Y": 304,
      "Width": 16,
      "Height": 16,
      "Pattern": 283
    },
    {
      "Layer": 0,
      "X": 288,
      "Y": 488,
      "Width": 48,
      "Height": 8,
      "Pattern": 70
    },
    {
      "Layer": 0,
      "X": 280,
      "Y": 488,
      "Width": 8,
      "Height": 8,
      "Pattern": 69
    },
    {
      "Layer": 0,
      "X": 408,
      "Y": 488,
      "Width": 8,
      "Height": 8,
      "Pattern": 69
    },
    {
      "Layer": 0,
      "X": 368,
      "Y": 488,
      "Width": 40,
      "Height": 8,
      "Pattern": 70
    },
    {
      "Layer": 0,
      "X": 304,
      "Y": 464,
      "Width": 16,
      "Height": 16,
      "Pattern": 369
    },
    {
      "Layer": 0,
      "X": 384,
      "Y": 464,
      "Width": 16,
      "Height": 16,
      "Pattern": 369
    },
    {
      "Layer": 0,
      "X": 384,
      "Y": 560,
      "Width": 32,
      "Height": 16,
      "Pattern": 364
    },
    {
      "Layer": 0,
      "X": 400,
      "Y": 544,
      "Width": 16,
      "Height": 16,
      "Pattern": 364
    },
    {
      "Layer": 0,
      "X": 400,
      "Y": 64,
      "Width": 16,
      "Height": 16,
      "Pattern": 364
    },
    {
      "Layer": 0,
      "X": 336,
      "Y": 512,
      "Width": 8,
      "Height": 8,
      "Pattern": 69
    },
    {
      "Layer": 0,
      "X": 360,
      "Y": 512,
      "Width": 8,
      "Height": 8,
      "Pattern": 69
    },
    {
      "Layer": 0,
      "X": 336,
      "Y": 488,
      "Width": 8,
      "Height": 8,
      "Pattern": 69
    },
    {
      "Layer": 0,
      "X": 360,
      "Y": 488,
      "Width": 8,
      "Height": 8,
      "Pattern": 69
    },
    {
      "Layer": 0,
      "X": 272,
      "Y": 240,
      "Width": 8,
      "Height": 8,
      "Pattern": 70
    },
    {
      "Layer": 0,
      "X": 264,
      "Y": 240,
      "Width": 8,
      "Height": 8,
      "Pattern": 69
    },
    {
      "Layer": 0,
      "X": 240,
      "Y": 240,
      "Width": 8,
      "Height": 8,
      "Pattern": 69
    },
    {
      "Layer": 0,
      "X": 96,
      "Y": 600,
      "Width": 8,
      "Height": 24,
      "Pattern": 71
    },
    {
      "Layer": 0,
      "X": 120,
      "Y": 600,
      "Width": 8,
      "Height": 24,
      "Pattern": 71
    },
    {
      "Layer": 0,
      "X": 64,
      "Y": 560,
      "Width": 8,
      "Height": 16,
      "Pattern": 218
    },
    {
      "Layer": 0,
      "X": 64,
      "Y": 568,
      "Width": 8,
      "Height": 8,
      "Pattern": 214
    },
    {
      "Layer": 0,
      "X": 136,
      "Y": 296,
      "Width": 8,
      "Height": 16,
      "Name": "barrier",
      "Pattern": 71,
      "EnabledAtStart": true
    },
    {
      "Layer": 0,
      "X": 344,
      "Y": 288,
      "Width": 16,
      "Height": 8,
      "Name": "battle_1_barrier",
      "Pattern": 70,
      "EnabledAtStart": true
    },
    {
      "Layer": 0,
      "X": 344,
      "Y": 488,
      "Width": 16,
      "Height": 8,
      "Name": "battle_2_barrier",
      "Pattern": 70,
      "EnabledAtStart": true
    },
    {
      "Layer": 1,
      "X": 48,
      "Y": 384,
      "Width": 32,
      "Height": 8,
      "Pattern": 414
    },
    {
      "Layer": 1,
      "X": 200,
      "Y": 592,
      "Width": 64,
      "Height": 8,
      "Pattern": 180
    },
    {
      "Layer": 1,
      "X": 200,
      "Y": 560,
      "Width": 64,
      "Height": 32,
      "Pattern": 2
    },
    {
      "Layer": 1,
      "X": 40,
      "Y": 600,
      "Width": 400,
      "Height": 24,
      "Pattern": 52
    },
    {
      "Layer": 1,
      "X": 40,
      "Y": 16,
      "Width": 400,
      "Height": 24,
      "Pattern": 49
    },
    {
      "Layer": 1,
      "X": 40,
      "Y": 392,
      "Width": 48,
      "Height": 24,
      "Pattern": 52
    },
    {
      "Layer": 1,
      "X": 64,
      "Y": 456,
      "Width": 32,
      "Height": 8,
      "Pattern": 311
    },
    {
      "Layer": 1,
      "X": 96,
      "Y": 592,
      "Width": 32,
      "Height": 8,
      "Pattern": 312
    },
    {
      "Layer": 1,
      "X": 40,
      "Y": 432,
      "Width": 48,
      "Height": 24,
      "Pattern": 49
    },
    {
      "Layer": 1,
      "X": 80,
      "Y": 432,
      "Width": 24,
      "Height": 24,
      "Pattern": 56
    },
    {
      "Layer": 1,
      "X": 64,
      "Y": 384,
      "Width": 32,
      "Height": 8,
      "Pattern": 312
    },
    {
      "Layer": 1,
      "X": 72,
      "Y": 384,
      "Width": 16,
      "Height": 8,
      "Pattern": 349
    },
    {
      "Layer": 1,
      "X": 112,
      "Y": 40,
      "Width": 64,
      "Height": 48,
      "Pattern": 2
    },
    {
      "Layer": 1,
      "X": 112,
      "Y": 40,
      "Width": 64,
      "Height": 8,
      "Pattern": 179
    },
    {
      "Layer": 1,
      "X": 136,
      "Y": 24,
      "Width": 16,
      "Height": 16,
      "Pattern": 251
    },
    {
      "Layer": 1,
      "X": 152,
      "Y": 24,
      "Width": 8,
      "Height": 16,
      "Pattern": 301
    },
    {
      "Layer": 1,
      "X": 128,
      "Y": 24,
      "Width": 8,
      "Height": 16,
      "Pattern": 304
    },
    {
      "Layer": 1,
      "X": 112,
      "Y": 40,
      "Width": 8,
      "Height": 8,
      "Pattern": 69
    },
    {
      "Layer": 1,
      "X": 112,
      "Y": 80,
      "Width": 8,
      "Height": 8,
      "Pattern": 69
    },
    {
      "Layer": 1,
      "X": 168,
      "Y": 40,
      "Width": 8,
      "Height": 8,
      "Pattern": 69
    },
    {
      "Layer": 1,
      "X": 168,
      "Y": 80,
      "Width": 8,
      "Height": 8,
      "Pattern": 69
    },
    {
      "Layer": 1,
      "X": 112,
      "Y": 48,
      "Width": 8,
      "Height": 32,
      "Pattern": 71
    },
    {
      "Layer": 1,
      "X": 168,
      "Y": 48,
      "Width": 8,
      "Height": 32,
      "Pattern": 71
    },
    {
      "Layer": 1,
      "X": 120,
      "Y": 80,
      "Width": 32,
      "Height": 8,
      "Pattern": 363
    },
    {
      "Layer": 1,
      "X": 152,
      "Y": 80,
      "Width": 8,
      "Height": 8,
      "Pattern": 69
    },
    {
      "Layer": 1,
      "X": 160,
      "Y": 80,
      "Width": 8,
      "Height": 8,
      "Pattern": 70
    },
    {
      "Layer": 1,
      "X": 16,
      "Y": 16,
      "Width": 24,
      "Height": 24,
      "Pattern": 45
    },
    {
      "Layer": 1,
      "X": 16,
      "Y": 40,
      "Width": 24,
      "Height": 352,
      "Pattern": 51
    },
    {
      "Layer": 1,
      "X": 16,
      "Y": 392,
      "Width": 24,
      "Height": 24,
      "Pattern": 47
    },
    {
      "Layer": 1,
      "X": 80,
      "Y": 408,
      "Width": 24,
      "Height": 32,
      "Pattern": 51
    },
    {
      "Layer": 1,
      "X": 16,
      "Y": 432,
      "Width": 24,
      "Height": 24,
      "Pattern": 45
    },
    {
      "Layer": 1,
      "X": 16,
      "Y": 456,
      "Width": 24,
      "Height": 144,
      "Pattern": 51
    },
    {
      "Layer": 1,
      "X": 16,
      "Y": 600,
      "Width": 24,
      "Height": 24,
      "Pattern": 47
    },
    {
      "Layer": 1,
      "X": 440,
      "Y": 600,
      "Width": 24,
      "Height": 24,
      "Pattern": 48
    },
    {
      "Layer": 1,
      "X": 440,
      "Y": 40,
      "Width": 24,
      "Height": 560,
      "Pattern": 50
    },
    {
      "Layer": 1,
      "X": 440,
      "Y": 16,
      "Width": 24,
      "Height": 24,
      "Pattern": 46
    },
    {
      "Layer": 1,
      "X": 200,
      "Y": 576,
      "Width": 8,
      "Height": 8,
      "Pattern": 69
    },
    {
      "Layer": 1,
      "X": 200,
      "Y": 584,
      "Width": 8,
      "Height": 8,
      "Pattern": 71
    },
    {
      "Layer": 1,
      "X": 200,
      "Y": 592,
      "Width": 8,
      "Height": 8,
      "Pattern": 69
    },
    {
      "Layer": 1,
      "X": 200,
      "Y": 552,
      "Width": 8,
      "Height": 8,
      "Pattern": 69
    },
    {
      "Layer": 1,
      "X": 208,
      "Y": 552,
      "Width": 48,
      "Height": 8,
      "Pattern": 70
    },
    {
      "Layer": 1,
      "X": 256,
      "Y": 552,
      "Width": 8,
      "Height": 8,
      "Pattern": 69
    },
    {
      "Layer": 1,
      "X": 256,
      "Y": 560,
      "Width": 8,
      "Height": 32,
      "Pattern": 71
    },
    {
      "Layer": 1,
      "X": 256,
      "Y": 592,
      "Width": 8,
      "Height": 8,
      "Pattern": 69
    },
    {
      "Layer": 1,
      "X": 232,
      "Y": 600,
      "Width": 16,
      "Height": 16,
      "Pattern": 252
    },
    {
      "Layer": 1,
      "X": 224,
      "Y": 600,
      "Width": 8,
      "Height": 16,
      "Pattern": 303
    },
    {
      "Layer": 1,
      "X": 248,
      "Y": 600,
      "Width": 8,
      "Height": 16,
      "Pattern": 302
    },
    {
      "Layer": 1,
      "X": 80,
      "Y": 392,
      "Width": 24,
      "Height": 24,
      "Pattern": 54
    },
    {
      "Layer": 1,
      "X": 232,
      "Y": 616,
      "Width": 16,
      "Height": 16,
      "Pattern": 2
    },
    {
      "Layer": 1,
      "X": 232,
      "Y": 624,
      "Width": 16,
      "Height": 8,
      "Pattern": 70
    },
    {
      "Layer": 1,
      "X": 48,
      "Y": 456,
      "Width": 32,
      "Height": 8,
      "Pattern": 413
    },
    {
      "Layer": 2,
      "X": 192,
      "Y": 616,
      "Width": 96,
      "Height": 8,
      "Pattern": 412
    },
    {
      "Layer": 2,
      "X": 96,
      "Y": 16,
      "Width": 96,
      "Height": 8,
      "Pattern": 411
    },
    {
      "Layer": 2,
      "X": 0,
      "Y": 0,
      "Width": 480,
      "Height": 16,
      "Pattern": 170
    },
    {
      "Layer": 2,
      "X": 0,
      "Y": 624,
      "Width": 480,
      "Height": 16,
      "Pattern": 170
    },
    {
      "Layer": 2,
      "X": 0,
      "Y": 16,
      "Width": 16,
      "Height": 608,
      "Pattern": 170
    },
    {
      "Layer": 2,
      "X": 464,
      "Y": 16,
      "Width": 16,
      "Height": 608,
      "Pattern": 170
    },
    {
      "Layer": 2,
      "X": 16,
      "Y": 416,
      "Width": 64,
      "Height": 16,
      "Pattern": 170
    },
    {
      "Layer": 2,
      "X": 224,
      "Y": 616,
      "Width": 32,
      "Height": 8,
      "Pattern": 310
    },
    {
      "Layer": 2,
      "X": 232,
      "Y": 616,
      "Width": 16,
      "Height": 8,
      "Pattern": 349
    },
    {
      "Layer": 2,
      "X": 128,
      "Y": 16,
      "Width": 32,
      "Height": 8,
      "Pattern": 309
    },
    {
      "Layer": 2,
      "X": 304,
      "Y": 288,
      "Width": 16,
      "Height": 16,
      "Pattern": 284
    },
    {
      "Layer": 2,
      "X": 384,
      "Y": 288,
      "Width": 16,
      "Height": 16,
      "Pattern": 284
    },
    {
      "Layer": 2,
      "X": 72,
      "Y": 456,
      "Width": 16,
      "Height": 8,
      "Pattern": 348
    },
    {
      "Layer": 2,
      "X": 136,
      "Y": 16,
      "Width": 16,
      "Height": 8,
      "Pattern": 348
    }
  ],
  "Destination": [
    {
      "Layer": 0,
      "X": 72,
      "Y": 509,
      "Name": "destination_point",
      "Direction": -1,
      "Sprite": "entities\/destination"
    },
    {
      "Layer": 0,
      "X": 88,
      "Y": 509,
      "Name": "destination_point_2",
      "Direction": -1,
      "Sprite": "entities\/destination"
    },
    {
      "Layer": 0,
      "X": 104,
      "Y": 509,
      "Name": "destination_point_3",
      "Direction": -1,
      "Sprite": "entities\/destination"
    },
    {
      "Layer": 0,
      "X": 80,
      "Y": 477,
      "Name": "from_B1_first_stairs",
      "Direction": 3
    },
    {
      "Layer": 0,
      "X": 80,
      "Y": 381,
      "Name": "from_B1_stairs_2",
      "Direction": 1
    },
    {
      "Layer": 0,
      "X": 248,
      "Y": 421,
      "Name": "destination_point_4",
      "Direction": -1,
      "Sprite": "entities\/destination"
    },
    {
      "Layer": 0,
      "X": 112,
      "Y": 269,
      "Name": "destination_point_5",
      "Direction": -1,
      "Sprite": "entities\/destination"
    },
    {
      "Layer": 0,
      "X": 200,
      "Y": 213,
      "Name": "destination_point_6",
      "Direction": -1,
      "Sprite": "entities\/destination"
    },
    {
      "Layer": 0,
      "X": 168,
      "Y": 173,
      "Name": "from_B1_middle_stairs",
      "Direction": 1
    },
    {
      "Layer": 0,
      "X": 112,
      "Y": 589,
      "Name": "from_outside",
      "Direction": 1
    },
    {
      "Layer": 1,
      "X": 144,
      "Y": 37,
      "Name": "from_B1_north_stairs",
      "Direction": 3
    },
    {
      "Layer": 1,
      "X": 240,
      "Y": 613,
      "Name": "from_B1_final_stairs",
      "Direction": 1
    }
  ],
  "Teletransporter": [
    {
      "Layer": 0,
      "X": 72,
      "Y": 368,
      "Width": 16,
      "Height": 16,
      "Name": "to_B1_stairs_2",
      "Transition": "fade",
      "DestinationMap": 21,
      "Destination": "from_1F_stairs_2"
    },
    {
      "Layer": 0,
      "X": 104,
      "Y": 608,
      "Width": 16,
      "Height": 16,
      "Name": "to_outside",
      "Transition": "fade",
      "DestinationMap": 4,
      "Destination": "out_lyriann_cave"
    },
    {
      "Layer": 0,
      "X": 72,
      "Y": 464,
      "Width": 16,
      "Height": 16,
      "Name": "to_B1_first_stairs",
      "Transition": "fade",
      "DestinationMap": 21,
      "Destination": "from_1F_first_stairs"
    },
    {
      "Layer": 0,
      "X": 96,
      "Y": 512,
      "Width": 16,
      "Height": 16,
      "Name": "teletransporter_2",
      "Transition": "fade",
      "DestinationMap": 21,
      "Destination": "_same"
    },
    {
      "Layer": 0,
      "X": 96,
      "Y": 544,
      "Width": 16,
      "Height": 16,
      "Name": "teletransporter_3",
      "Transition": "fade",
      "DestinationMap": 21,
      "Destination": "_same"
    },
    {
      "Layer": 0,
      "X": 64,
      "Y": 512,
      "Width": 32,
      "Height": 48,
      "Name": "teletransporter_4",
      "Transition": "fade",
      "DestinationMap": 21,
      "Destination": "_same"
    },
    {
      "Layer": 0,
      "X": 128,
      "Y": 448,
      "Width": 16,
      "Height": 16,
      "Name": "teletransporter_5",
      "Sprite": "entities\/teletransporter",
      "Sound": "warp",
      "Transition": "fade",
      "DestinationMap": 20,
      "Destination": "destination_point_3"
    },
    {
      "Layer": 0,
      "X": 240,
      "Y": 488,
      "Width": 16,
      "Height": 16,
      "Name": "teletransporter_6",
      "Sprite": "entities\/teletransporter",
      "Sound": "warp",
      "Transition": "fade",
      "DestinationMap": 20,
      "Destination": "destination_point"
    },
    {
      "Layer": 0,
      "X": 264,
      "Y": 320,
      "Width": 16,
      "Height": 16,
      "Name": "teletransporter_7",
      "Sprite": "entities\/teletransporter",
      "Sound": "warp",
      "Transition": "fade",
      "DestinationMap": 20,
      "Destination": "destination_point_4"
    },
    {
      "Layer": 0,
      "X": 200,
      "Y": 432,
      "Width": 16,
      "Height": 16,
      "Name": "teletransporter_8",
      "Sprite": "entities\/teletransporter",
      "Sound": "warp",
      "Transition": "fade",
      "DestinationMap": 20,
      "Destination": "destination_point_2"
    },
    {
      "Layer": 0,
      "X": 208,
      "Y": 200,
      "Width": 16,
      "Height": 16,
      "Name": "teletransporter_9",
      "Sprite": "entities\/teletransporter",
      "Sound": "warp",
      "Transition": "fade",
      "DestinationMap": 20,
      "Destination": "destination_point_5"
    },
    {
      "Layer": 0,
      "X": 88,
      "Y": 256,
      "Width": 16,
      "Height": 16,
      "Name": "teletransporter_10",
      "Sprite": "entities\/teletransporter",
      "Sound": "warp",
      "Transition": "fade",
      "DestinationMap": 20,
      "Destination": "destination_point_6"
    },
    {
      "Layer": 0,
      "X": 160,
      "Y": 160,
      "Width": 16,
      "Height": 16,
      "Name": "to_B1_middle_stairs",
      "Transition": "fade",
      "DestinationMap": 21,
      "Destination": "from_1F_middle_stairs"
    },
    {
      "Layer": 0,
      "X": 288,
      "Y": 560,
      "Width": 16,
      "Height": 16,
      "Name": "teletransporter_11",
      "Transition": "fade",
      "DestinationMap": 21,
      "Destination": "from_1F_hole_2_west"
    },
    {
      "Layer": 0,
      "X": 304,
      "Y": 560,
      "Width": 16,
      "Height": 16,
      "Name": "teletransporter_12",
      "Transition": "fade",
      "DestinationMap": 21,
      "Destination": "from_1F_hole_2_east"
    },
    {
      "Layer": 1,
      "X": 136,
      "Y": 24,
      "Width": 16,
      "Height": 16,
      "Name": "to_B1_north_stairs",
      "Transition": "fade",
      "DestinationMap": 21,
      "Destination": "from_1F_north_stairs"
    },
    {
      "Layer": 1,
      "X": 232,
      "Y": 600,
      "Width": 16,
      "Height": 16,
      "Name": "teletransporter",
      "Transition": "fade",
      "DestinationMap": 21,
      "Destination": "from_1F_final_stairs"
    }
  ],
  "Stairs": [
    {
      "Layer": 0,
      "X": 128,
      "Y": 88,
      "Name": "stairs_1",
      "Direction": 1,
      "Subtype": 4
    },
    {
      "Layer": 0,
      "X": 72,
      "Y": 464,
      "Name": "stairs_2",
      "Direction": 1,
      "Subtype": 1
    },
    {
      "Layer": 0,
      "X": 72,
      "Y": 368,
      "Name": "stairs_3",
      "Direction": 3,
      "Subtype": 1
    },
    {
      "Layer": 0,
      "X": 160,
      "Y": 160,
      "Name": "stairs_4",
      "Direction": 3,
      "Subtype": 3
    },
    {
      "Layer": 1,
      "X": 232,
      "Y": 600,
      "Name": "stairs_5",
      "Direction": 3,
      "Subtype": 1
    },
    {
      "Layer": 1,
      "X": 136,
      "Y": 24,
      "Name": "stairs_6",
      "Direction": 1,
      "Subtype": 1
    }
  ],
  "Pickable": [
    {
      "Layer": 1,
      "X": 232,
      "Y": 573,
      "TreasureName": "heart_container",
      "TreasureVariant": 1,
      "TreasureSaveGameVariable": "b37"
    }
  ],
  "Sensor": [
    {
      "Layer": 0,
      "X": 112,
      "Y": 597,
      "Width": 16,
      "Height": 16,
      "Name": "leave_cavern_sensor"
    }
  ],
  "Door": [],
  "DynamicTile": [
    {
      "Layer": 0,
      "X": 136,
      "Y": 296,
      "Width": 8,
      "Height": 16,
      "Name": "barrier",
      "Pattern": 71,
      "EnabledAtStart": true
    },
    {
      "Layer": 0,
      "X": 344,
      "Y": 288,
      "Width": 16,
      "Height": 8,
      "Name": "battle_1_barrier",
      "Pattern": 70,
      "EnabledAtStart": true
    },
    {
      "Layer": 0,
      "X": 344,
      "Y": 488,
      "Width": 16,
      "Height": 8,
      "Name": "battle_2_barrier",
      "Pattern": 70,
      "EnabledAtStart": true
    }
  ],
  "Npc": [
    {
      "Layer": 0,
      "X": 208,
      "Y": 381,
      "Name": "tom",
      "Direction": 3,
      "Subtype": 1,
      "Sprite": "npc\/tom"
    }
  ],
  "Block": [
    {
      "Layer": 0,
      "X": 184,
      "Y": 512,
      "Width": 16,
      "Height": 16,
      "Subtype": 0
    },
    {
      "Layer": 0,
      "X": 248,
      "Y": 208,
      "Width": 32,
      "Height": 16,
      "Subtype": 1
    },
    {
      "Layer": 0,
      "X": 248,
      "Y": 160,
      "Width": 32,
      "Height": 16,
      "Subtype": 0
    },
    {
      "Layer": 0,
      "X": 248,
      "Y": 176,
      "Width": 32,
      "Height": 16,
      "Subtype": 1
    },
    {
      "Layer": 0,
      "X": 264,
      "Y": 224,
      "Width": 16,
      "Height": 16,
      "Subtype": 0
    },
    {
      "Layer": 0,
      "X": 136,
      "Y": 160,
      "Width": 16,
      "Height": 32,
      "Subtype": 0
    },
    {
      "Layer": 0,
      "X": 120,
      "Y": 128,
      "Width": 32,
      "Height": 16,
      "Subtype": 1
    },
    {
      "Layer": 0,
      "X": 208,
      "Y": 144,
      "Width": 32,
      "Height": 16,
      "Subtype": 0
    },
    {
      "Layer": 0,
      "X": 208,
      "Y": 104,
      "Width": 16,
      "Height": 32,
      "Subtype": 0
    },
    {
      "Layer": 0,
      "X": 248,
      "Y": 144,
      "Width": 32,
      "Height": 16,
      "Subtype": 1
    },
    {
      "Layer": 0,
      "X": 64,
      "Y": 160,
      "Width": 64,
      "Height": 16,
      "Subtype": 0
    },
    {
      "Layer": 0,
      "X": 64,
      "Y": 176,
      "Width": 64,
      "Height": 16,
      "Subtype": 1
    },
    {
      "Layer": 0,
      "X": 192,
      "Y": 224,
      "Width": 32,
      "Height": 16,
      "Subtype": 0
    },
    {
      "Layer": 0,
      "X": 248,
      "Y": 192,
      "Width": 32,
      "Height": 16,
      "Subtype": 0
    }
  ],
  "Chest": [
    {
      "Layer": 0,
      "X": 216,
      "Y": 173,
      "Name": "chest",
      "TreasureVariant": 1,
      "TreasureSaveGameVariable": "b955",
      "Sprite": "entities\/chest"
    }
  ],
  "Jumper": [
    {
      "Layer": 1,
      "X": 192,
      "Y": 560,
      "Width": 8,
      "Height": 16,
      "Name": "jumper",
      "Direction": 4,
      "JumpLength": 40
    }
  ],
  "Wall": [
    {
      "Layer": 0,
      "X": 120,
      "Y": 80,
      "Width": 32,
      "Height": 8,
      "Name": "custom_obstacle",
      "StopsHero": true,
      "StopsEnemies": true,
      "StopsNpcs": true,
      "StopsBlocks": true
    },
    {
      "Layer": 0,
      "X": 344,
      "Y": 264,
      "Width": 16,
      "Height": 8,
      "Name": "custom_obstacle_5",
      "StopsHero": false,
      "StopsEnemies": true,
      "StopsNpcs": true,
      "StopsBlocks": true
    },
    {
      "Layer": 0,
      "X": 288,
      "Y": 312,
      "Width": 128,
      "Height": 8,
      "Name": "custom_obstacle_4",
      "StopsHero": false,
      "StopsEnemies": true,
      "StopsNpcs": true,
      "StopsBlocks": true
    },
    {
      "Layer": 0,
      "X": 128,
      "Y": 480,
      "Width": 72,
      "Height": 8,
      "Name": "custom_obstacle_6",
      "StopsHero": false,
      "StopsEnemies": true,
      "StopsNpcs": false,
      "StopsBlocks": true
    },
    {
      "Layer": 0,
      "X": 288,
      "Y": 464,
      "Width": 128,
      "Height": 8,
      "Name": "custom_obstacle_7",
      "StopsHero": false,
      "StopsEnemies": true,
      "StopsNpcs": true,
      "StopsBlocks": true
    },
    {
      "Layer": 0,
      "X": 168,
      "Y": 64,
      "Width": 8,
      "Height": 32,
      "Name": "custom_obstacle_8",
      "StopsHero": false,
      "StopsEnemies": true,
      "StopsNpcs": true,
      "StopsBlocks": false
    },
    {
      "Layer": 1,
      "X": 144,
      "Y": 80,
      "Width": 8,
      "Height": 32,
      "Name": "custom_obstacle_3",
      "StopsHero": true,
      "StopsEnemies": true,
      "StopsNpcs": true,
      "StopsBlocks": true
    },
    {
      "Layer": 1,
      "X": 120,
      "Y": 80,
      "Width": 8,
      "Height": 32,
      "Name": "custom_obstacle_2",
      "StopsHero": true,
      "StopsEnemies": true,
      "StopsNpcs": true,
      "StopsBlocks": true
    }
  ],
  "Enemy": [
    {
      "Layer": 0,
      "X": 352,
      "Y": 197,
      "Name": "battle_1_enemy_5",
      "Direction": 3,
      "Breed": "tentacle",
      "TreasureName": "random"
    },
    {
      "Layer": 0,
      "X": 160,
      "Y": 357,
      "Name": "enemy_3",
      "Direction": 3,
      "Breed": "tentacle",
      "TreasureName": "random"
    },
    {
      "Layer": 0,
      "X": 336,
      "Y": 160,
      "Name": "enemy",
      "Direction": 3,
      "Breed": "bubble",
      "TreasureName": "random"
    },
    {
      "Layer": 0,
      "X": 352,
      "Y": 88,
      "Name": "enemy_4",
      "Direction": 3,
      "Breed": "bubble",
      "TreasureName": "random"
    },
    {
      "Layer": 0,
      "X": 392,
      "Y": 253,
      "Name": "battle_1_enemy_3",
      "Direction": 3,
      "Breed": "tentacle",
      "TreasureName": "random"
    },
    {
      "Layer": 0,
      "X": 312,
      "Y": 253,
      "Name": "battle_1_enemy_4",
      "Direction": 3,
      "Breed": "tentacle",
      "TreasureName": "random"
    },
    {
      "Layer": 0,
      "X": 392,
      "Y": 117,
      "Name": "battle_1_enemy_2",
      "Direction": 3,
      "Breed": "tentacle",
      "TreasureName": "random"
    },
    {
      "Layer": 0,
      "X": 400,
      "Y": 392,
      "Name": "enemy_2",
      "Direction": 3,
      "Breed": "bubble",
      "TreasureName": "random"
    },
    {
      "Layer": 0,
      "X": 304,
      "Y": 392,
      "Name": "enemy_5",
      "Direction": 3,
      "Breed": "bubble",
      "TreasureName": "random"
    },
    {
      "Layer": 0,
      "X": 360,
      "Y": 413,
      "Name": "battle_2_enemy_2",
      "Direction": 3,
      "Breed": "tentacle",
      "TreasureName": "random"
    },
    {
      "Layer": 0,
      "X": 304,
      "Y": 341,
      "Name": "battle_2_enemy_3",
      "Direction": 3,
      "Breed": "tentacle",
      "TreasureName": "random"
    },
    {
      "Layer": 0,
      "X": 400,
      "Y": 341,
      "Name": "battle_2_enemy_4",
      "Direction": 3,
      "Breed": "tentacle",
      "TreasureName": "random"
    },
    {
      "Layer": 0,
      "X": 400,
      "Y": 453,
      "Name": "battle_2_enemy_5",
      "Direction": 3,
      "Breed": "tentacle",
      "TreasureName": "random"
    },
    {
      "Layer": 0,
      "X": 80,
      "Y": 301,
      "Name": "enemy_6",
      "Direction": 3,
      "Breed": "tentacle",
      "TreasureName": "random"
    }
  ],
  "Destructible": [
    {
      "Layer": 0,
      "X": 96,
      "Y": 341,
      "Sprite": "entities\/pot",
      "DestructionSound": "stone",
      "DamageOnEnemies": 2,
      "TreasureVariant": 1
    },
    {
      "Layer": 0,
      "X": 408,
      "Y": 77,
      "Sprite": "entities\/pot",
      "DestructionSound": "stone",
      "DamageOnEnemies": 2,
      "TreasureName": "heart",
      "TreasureVariant": 1
    },
    {
      "Layer": 0,
      "X": 392,
      "Y": 573,
      "Sprite": "entities\/pot",
      "DestructionSound": "stone",
      "DamageOnEnemies": 2,
      "TreasureName": "heart",
      "TreasureVariant": 1
    },
    {
      "Layer": 0,
      "X": 408,
      "Y": 573,
      "Sprite": "entities\/pot",
      "DestructionSound": "stone",
      "DamageOnEnemies": 2,
      "TreasureName": "heart",
      "TreasureVariant": 1
    },
    {
      "Layer": 0,
      "X": 408,
      "Y": 557,
      "Sprite": "entities\/pot",
      "DestructionSound": "stone",
      "DamageOnEnemies": 2,
      "TreasureName": "heart",
      "TreasureVariant": 1
    }
  ],
  "Switch": [
    {
      "Layer": 0,
      "X": 88,
      "Y": 328,
      "Name": "open_barrier_switch",
      "Subtype": "walkable",
      "Sprite": "entities\/switch",
      "Sound": "switch",
      "NeedsBlock": false,
      "InactivateWhenLeaving": false
    }
  ]
}
