{
  "Id": 43,
  "Description": "Dungeon 3 4F",
  "Properties": {
    "X": 0,
    "Y": 0,
    "Width": 1024,
    "Height": 1024,
    "MinLayer": 0,
    "MaxLayer": 2,
    "World": "dungeon_3",
    "Floor": 3,
    "Tileset": 14,
    "Music": "dark_world_dungeon"
  },
  "Tile": [
    {
      "Layer": 0,
      "X": 824,
      "Y": 840,
      "Width": 80,
      "Height": 112,
      "Pattern": 547
    },
    {
      "Layer": 0,
      "X": 792,
      "Y": 960,
      "Width": 24,
      "Height": 24,
      "Pattern": 59
    },
    {
      "Layer": 0,
      "X": 792,
      "Y": 808,
      "Width": 24,
      "Height": 24,
      "Pattern": 57
    },
    {
      "Layer": 0,
      "X": 792,
      "Y": 832,
      "Width": 24,
      "Height": 128,
      "Pattern": 235
    },
    {
      "Layer": 0,
      "X": 912,
      "Y": 832,
      "Width": 24,
      "Height": 128,
      "Pattern": 233
    },
    {
      "Layer": 0,
      "X": 912,
      "Y": 808,
      "Width": 24,
      "Height": 24,
      "Pattern": 58
    },
    {
      "Layer": 0,
      "X": 912,
      "Y": 960,
      "Width": 24,
      "Height": 24,
      "Pattern": 60
    },
    {
      "Layer": 0,
      "X": 816,
      "Y": 960,
      "Width": 96,
      "Height": 24,
      "Pattern": 234
    },
    {
      "Layer": 0,
      "X": 816,
      "Y": 808,
      "Width": 96,
      "Height": 24,
      "Pattern": 232
    },
    {
      "Layer": 0,
      "X": 816,
      "Y": 832,
      "Width": 8,
      "Height": 8,
      "Pattern": 307
    },
    {
      "Layer": 0,
      "X": 904,
      "Y": 832,
      "Width": 8,
      "Height": 8,
      "Pattern": 308
    },
    {
      "Layer": 0,
      "X": 904,
      "Y": 952,
      "Width": 8,
      "Height": 8,
      "Pattern": 309
    },
    {
      "Layer": 0,
      "X": 816,
      "Y": 952,
      "Width": 8,
      "Height": 8,
      "Pattern": 310
    },
    {
      "Layer": 0,
      "X": 824,
      "Y": 952,
      "Width": 80,
      "Height": 8,
      "Pattern": 312
    },
    {
      "Layer": 0,
      "X": 824,
      "Y": 832,
      "Width": 80,
      "Height": 8,
      "Pattern": 311
    },
    {
      "Layer": 0,
      "X": 816,
      "Y": 840,
      "Width": 8,
      "Height": 112,
      "Pattern": 313
    },
    {
      "Layer": 0,
      "X": 904,
      "Y": 840,
      "Width": 8,
      "Height": 112,
      "Pattern": 314
    },
    {
      "Layer": 0,
      "X": 904,
      "Y": 920,
      "Width": 24,
      "Height": 16,
      "Pattern": 294
    },
    {
      "Layer": 0,
      "X": 904,
      "Y": 936,
      "Width": 24,
      "Height": 8,
      "Pattern": 293
    },
    {
      "Layer": 0,
      "X": 904,
      "Y": 912,
      "Width": 24,
      "Height": 8,
      "Pattern": 292
    },
    {
      "Layer": 0,
      "X": 800,
      "Y": 856,
      "Width": 24,
      "Height": 16,
      "Pattern": 298
    },
    {
      "Layer": 0,
      "X": 800,
      "Y": 848,
      "Width": 24,
      "Height": 8,
      "Pattern": 296
    },
    {
      "Layer": 0,
      "X": 800,
      "Y": 872,
      "Width": 24,
      "Height": 8,
      "Pattern": 297
    },
    {
      "Layer": 0,
      "X": 856,
      "Y": 928,
      "Width": 16,
      "Height": 16,
      "Pattern": 277
    },
    {
      "Layer": 0,
      "X": 856,
      "Y": 864,
      "Width": 16,
      "Height": 16,
      "Pattern": 277
    },
    {
      "Layer": 1,
      "X": 936,
      "Y": 808,
      "Width": 48,
      "Height": 176,
      "Pattern": 539
    },
    {
      "Layer": 1,
      "X": 936,
      "Y": 976,
      "Width": 48,
      "Height": 8,
      "Pattern": 236
    },
    {
      "Layer": 1,
      "X": 976,
      "Y": 976,
      "Width": 8,
      "Height": 8,
      "Pattern": 17
    },
    {
      "Layer": 1,
      "X": 976,
      "Y": 816,
      "Width": 8,
      "Height": 160,
      "Pattern": 238
    },
    {
      "Layer": 1,
      "X": 952,
      "Y": 952,
      "Width": 32,
      "Height": 32,
      "Pattern": 562
    },
    {
      "Layer": 1,
      "X": 48,
      "Y": 272,
      "Width": 416,
      "Height": 400,
      "Pattern": 603
    },
    {
      "Layer": 1,
      "X": 168,
      "Y": 224,
      "Width": 328,
      "Height": 16,
      "Pattern": 170
    },
    {
      "Layer": 1,
      "X": 48,
      "Y": 48,
      "Width": 160,
      "Height": 144,
      "Pattern": 539
    },
    {
      "Layer": 1,
      "X": 288,
      "Y": 48,
      "Width": 384,
      "Height": 144,
      "Pattern": 539
    },
    {
      "Layer": 1,
      "X": 544,
      "Y": 352,
      "Width": 432,
      "Height": 320,
      "Pattern": 539
    },
    {
      "Layer": 1,
      "X": 288,
      "Y": 752,
      "Width": 384,
      "Height": 224,
      "Pattern": 539
    },
    {
      "Layer": 1,
      "X": 744,
      "Y": 808,
      "Width": 48,
      "Height": 176,
      "Pattern": 539
    },
    {
      "Layer": 1,
      "X": 280,
      "Y": 16,
      "Width": 400,
      "Height": 24,
      "Pattern": 49
    },
    {
      "Layer": 1,
      "X": 648,
      "Y": 480,
      "Width": 64,
      "Height": 24,
      "Pattern": 49
    },
    {
      "Layer": 1,
      "X": 536,
      "Y": 680,
      "Width": 176,
      "Height": 24,
      "Pattern": 52
    },
    {
      "Layer": 1,
      "X": 808,
      "Y": 480,
      "Width": 64,
      "Height": 24,
      "Pattern": 49
    },
    {
      "Layer": 1,
      "X": 936,
      "Y": 808,
      "Width": 48,
      "Height": 8,
      "Pattern": 179
    },
    {
      "Layer": 1,
      "X": 744,
      "Y": 808,
      "Width": 48,
      "Height": 8,
      "Pattern": 179
    },
    {
      "Layer": 1,
      "X": 744,
      "Y": 976,
      "Width": 48,
      "Height": 8,
      "Pattern": 236
    },
    {
      "Layer": 1,
      "X": 40,
      "Y": 16,
      "Width": 176,
      "Height": 24,
      "Pattern": 49
    },
    {
      "Layer": 1,
      "X": 16,
      "Y": 16,
      "Width": 24,
      "Height": 24,
      "Pattern": 45
    },
    {
      "Layer": 1,
      "X": 392,
      "Y": 24,
      "Width": 8,
      "Height": 16,
      "Pattern": 73
    },
    {
      "Layer": 1,
      "X": 368,
      "Y": 24,
      "Width": 8,
      "Height": 16,
      "Pattern": 72
    },
    {
      "Layer": 1,
      "X": 152,
      "Y": 24,
      "Width": 16,
      "Height": 16,
      "Pattern": 190
    },
    {
      "Layer": 1,
      "X": 440,
      "Y": 24,
      "Width": 16,
      "Height": 16,
      "Pattern": 190
    },
    {
      "Layer": 1,
      "X": 216,
      "Y": 16,
      "Width": 24,
      "Height": 24,
      "Pattern": 46
    },
    {
      "Layer": 1,
      "X": 256,
      "Y": 16,
      "Width": 24,
      "Height": 24,
      "Pattern": 45
    },
    {
      "Layer": 1,
      "X": 40,
      "Y": 40,
      "Width": 8,
      "Height": 8,
      "Pattern": 14
    },
    {
      "Layer": 1,
      "X": 280,
      "Y": 40,
      "Width": 8,
      "Height": 8,
      "Pattern": 14
    },
    {
      "Layer": 1,
      "X": 208,
      "Y": 40,
      "Width": 8,
      "Height": 8,
      "Pattern": 15
    },
    {
      "Layer": 1,
      "X": 48,
      "Y": 40,
      "Width": 160,
      "Height": 8,
      "Pattern": 179
    },
    {
      "Layer": 1,
      "X": 840,
      "Y": 488,
      "Width": 16,
      "Height": 16,
      "Pattern": 190
    },
    {
      "Layer": 1,
      "X": 984,
      "Y": 984,
      "Width": 24,
      "Height": 24,
      "Pattern": 48
    },
    {
      "Layer": 1,
      "X": 744,
      "Y": 984,
      "Width": 240,
      "Height": 24,
      "Pattern": 52
    },
    {
      "Layer": 1,
      "X": 720,
      "Y": 984,
      "Width": 24,
      "Height": 24,
      "Pattern": 47
    },
    {
      "Layer": 1,
      "X": 984,
      "Y": 808,
      "Width": 24,
      "Height": 176,
      "Pattern": 50
    },
    {
      "Layer": 1,
      "X": 984,
      "Y": 784,
      "Width": 24,
      "Height": 24,
      "Pattern": 46
    },
    {
      "Layer": 1,
      "X": 720,
      "Y": 808,
      "Width": 24,
      "Height": 176,
      "Pattern": 51
    },
    {
      "Layer": 1,
      "X": 720,
      "Y": 784,
      "Width": 24,
      "Height": 24,
      "Pattern": 45
    },
    {
      "Layer": 1,
      "X": 744,
      "Y": 784,
      "Width": 240,
      "Height": 24,
      "Pattern": 49
    },
    {
      "Layer": 1,
      "X": 976,
      "Y": 808,
      "Width": 8,
      "Height": 8,
      "Pattern": 15
    },
    {
      "Layer": 1,
      "X": 744,
      "Y": 808,
      "Width": 8,
      "Height": 8,
      "Pattern": 14
    },
    {
      "Layer": 1,
      "X": 744,
      "Y": 976,
      "Width": 8,
      "Height": 8,
      "Pattern": 16
    },
    {
      "Layer": 1,
      "X": 744,
      "Y": 816,
      "Width": 8,
      "Height": 160,
      "Pattern": 237
    },
    {
      "Layer": 1,
      "X": 928,
      "Y": 912,
      "Width": 8,
      "Height": 32,
      "Pattern": 291
    },
    {
      "Layer": 1,
      "X": 792,
      "Y": 848,
      "Width": 8,
      "Height": 32,
      "Pattern": 295
    },
    {
      "Layer": 1,
      "X": 952,
      "Y": 960,
      "Width": 8,
      "Height": 16,
      "Pattern": 248
    },
    {
      "Layer": 1,
      "X": 960,
      "Y": 952,
      "Width": 16,
      "Height": 8,
      "Pattern": 247
    },
    {
      "Layer": 1,
      "X": 976,
      "Y": 960,
      "Width": 8,
      "Height": 16,
      "Pattern": 250
    },
    {
      "Layer": 1,
      "X": 960,
      "Y": 976,
      "Width": 16,
      "Height": 8,
      "Pattern": 249
    },
    {
      "Layer": 1,
      "X": 976,
      "Y": 976,
      "Width": 8,
      "Height": 8,
      "Pattern": 245
    },
    {
      "Layer": 1,
      "X": 976,
      "Y": 952,
      "Width": 8,
      "Height": 8,
      "Pattern": 244
    },
    {
      "Layer": 1,
      "X": 952,
      "Y": 952,
      "Width": 8,
      "Height": 8,
      "Pattern": 243
    },
    {
      "Layer": 1,
      "X": 952,
      "Y": 976,
      "Width": 8,
      "Height": 8,
      "Pattern": 246
    },
    {
      "Layer": 1,
      "X": 784,
      "Y": 808,
      "Width": 8,
      "Height": 8,
      "Pattern": 69
    },
    {
      "Layer": 1,
      "X": 784,
      "Y": 824,
      "Width": 8,
      "Height": 8,
      "Pattern": 69
    },
    {
      "Layer": 1,
      "X": 784,
      "Y": 960,
      "Width": 8,
      "Height": 8,
      "Pattern": 69
    },
    {
      "Layer": 1,
      "X": 784,
      "Y": 976,
      "Width": 8,
      "Height": 8,
      "Pattern": 69
    },
    {
      "Layer": 1,
      "X": 936,
      "Y": 976,
      "Width": 8,
      "Height": 8,
      "Pattern": 69
    },
    {
      "Layer": 1,
      "X": 936,
      "Y": 960,
      "Width": 8,
      "Height": 8,
      "Pattern": 69
    },
    {
      "Layer": 1,
      "X": 936,
      "Y": 824,
      "Width": 8,
      "Height": 8,
      "Pattern": 69
    },
    {
      "Layer": 1,
      "X": 936,
      "Y": 808,
      "Width": 8,
      "Height": 8,
      "Pattern": 69
    },
    {
      "Layer": 1,
      "X": 784,
      "Y": 816,
      "Width": 8,
      "Height": 8,
      "Pattern": 71
    },
    {
      "Layer": 1,
      "X": 936,
      "Y": 816,
      "Width": 8,
      "Height": 8,
      "Pattern": 71
    },
    {
      "Layer": 1,
      "X": 936,
      "Y": 968,
      "Width": 8,
      "Height": 8,
      "Pattern": 71
    },
    {
      "Layer": 1,
      "X": 784,
      "Y": 968,
      "Width": 8,
      "Height": 8,
      "Pattern": 71
    },
    {
      "Layer": 1,
      "X": 288,
      "Y": 744,
      "Width": 384,
      "Height": 8,
      "Pattern": 179
    },
    {
      "Layer": 1,
      "X": 288,
      "Y": 976,
      "Width": 384,
      "Height": 8,
      "Pattern": 236
    },
    {
      "Layer": 1,
      "X": 680,
      "Y": 984,
      "Width": 24,
      "Height": 24,
      "Pattern": 48
    },
    {
      "Layer": 1,
      "X": 280,
      "Y": 984,
      "Width": 400,
      "Height": 24,
      "Pattern": 52
    },
    {
      "Layer": 1,
      "X": 256,
      "Y": 984,
      "Width": 24,
      "Height": 24,
      "Pattern": 47
    },
    {
      "Layer": 1,
      "X": 680,
      "Y": 744,
      "Width": 24,
      "Height": 240,
      "Pattern": 50
    },
    {
      "Layer": 1,
      "X": 680,
      "Y": 720,
      "Width": 24,
      "Height": 24,
      "Pattern": 46
    },
    {
      "Layer": 1,
      "X": 256,
      "Y": 744,
      "Width": 24,
      "Height": 240,
      "Pattern": 51
    },
    {
      "Layer": 1,
      "X": 256,
      "Y": 720,
      "Width": 24,
      "Height": 24,
      "Pattern": 45
    },
    {
      "Layer": 1,
      "X": 280,
      "Y": 720,
      "Width": 400,
      "Height": 24,
      "Pattern": 49
    },
    {
      "Layer": 1,
      "X": 672,
      "Y": 744,
      "Width": 8,
      "Height": 8,
      "Pattern": 15
    },
    {
      "Layer": 1,
      "X": 280,
      "Y": 744,
      "Width": 8,
      "Height": 8,
      "Pattern": 14
    },
    {
      "Layer": 1,
      "X": 280,
      "Y": 976,
      "Width": 8,
      "Height": 8,
      "Pattern": 16
    },
    {
      "Layer": 1,
      "X": 672,
      "Y": 976,
      "Width": 8,
      "Height": 8,
      "Pattern": 17
    },
    {
      "Layer": 1,
      "X": 280,
      "Y": 752,
      "Width": 8,
      "Height": 224,
      "Pattern": 237
    },
    {
      "Layer": 1,
      "X": 672,
      "Y": 752,
      "Width": 8,
      "Height": 224,
      "Pattern": 238
    },
    {
      "Layer": 1,
      "X": 280,
      "Y": 744,
      "Width": 304,
      "Height": 32,
      "Pattern": 519
    },
    {
      "Layer": 1,
      "X": 280,
      "Y": 776,
      "Width": 32,
      "Height": 208,
      "Pattern": 519
    },
    {
      "Layer": 1,
      "X": 312,
      "Y": 952,
      "Width": 368,
      "Height": 32,
      "Pattern": 519
    },
    {
      "Layer": 1,
      "X": 648,
      "Y": 872,
      "Width": 32,
      "Height": 80,
      "Pattern": 519
    },
    {
      "Layer": 1,
      "X": 616,
      "Y": 728,
      "Width": 16,
      "Height": 16,
      "Pattern": 76
    },
    {
      "Layer": 1,
      "X": 608,
      "Y": 728,
      "Width": 8,
      "Height": 16,
      "Pattern": 72
    },
    {
      "Layer": 1,
      "X": 632,
      "Y": 728,
      "Width": 8,
      "Height": 16,
      "Pattern": 73
    },
    {
      "Layer": 1,
      "X": 680,
      "Y": 840,
      "Width": 16,
      "Height": 16,
      "Pattern": 83
    },
    {
      "Layer": 1,
      "X": 680,
      "Y": 832,
      "Width": 16,
      "Height": 8,
      "Pattern": 79
    },
    {
      "Layer": 1,
      "X": 680,
      "Y": 856,
      "Width": 16,
      "Height": 8,
      "Pattern": 81
    },
    {
      "Layer": 1,
      "X": 728,
      "Y": 832,
      "Width": 16,
      "Height": 8,
      "Pattern": 78
    },
    {
      "Layer": 1,
      "X": 728,
      "Y": 856,
      "Width": 16,
      "Height": 8,
      "Pattern": 80
    },
    {
      "Layer": 1,
      "X": 728,
      "Y": 840,
      "Width": 16,
      "Height": 16,
      "Pattern": 82
    },
    {
      "Layer": 1,
      "X": 704,
      "Y": 832,
      "Width": 16,
      "Height": 8,
      "Pattern": 70
    },
    {
      "Layer": 1,
      "X": 704,
      "Y": 856,
      "Width": 16,
      "Height": 8,
      "Pattern": 70
    },
    {
      "Layer": 1,
      "X": 608,
      "Y": 704,
      "Width": 8,
      "Height": 16,
      "Pattern": 71
    },
    {
      "Layer": 1,
      "X": 632,
      "Y": 704,
      "Width": 8,
      "Height": 16,
      "Pattern": 71
    },
    {
      "Layer": 1,
      "X": 712,
      "Y": 680,
      "Width": 24,
      "Height": 24,
      "Pattern": 48
    },
    {
      "Layer": 1,
      "X": 512,
      "Y": 680,
      "Width": 24,
      "Height": 24,
      "Pattern": 47
    },
    {
      "Layer": 1,
      "X": 512,
      "Y": 344,
      "Width": 24,
      "Height": 336,
      "Pattern": 51
    },
    {
      "Layer": 1,
      "X": 712,
      "Y": 504,
      "Width": 24,
      "Height": 176,
      "Pattern": 50
    },
    {
      "Layer": 1,
      "X": 616,
      "Y": 680,
      "Width": 16,
      "Height": 16,
      "Pattern": 77
    },
    {
      "Layer": 1,
      "X": 608,
      "Y": 680,
      "Width": 8,
      "Height": 16,
      "Pattern": 74
    },
    {
      "Layer": 1,
      "X": 632,
      "Y": 680,
      "Width": 8,
      "Height": 16,
      "Pattern": 75
    },
    {
      "Layer": 1,
      "X": 856,
      "Y": 912,
      "Width": 16,
      "Height": 16,
      "Pattern": 278
    },
    {
      "Layer": 1,
      "X": 856,
      "Y": 848,
      "Width": 16,
      "Height": 16,
      "Pattern": 278
    },
    {
      "Layer": 1,
      "X": 712,
      "Y": 480,
      "Width": 24,
      "Height": 24,
      "Pattern": 46
    },
    {
      "Layer": 1,
      "X": 632,
      "Y": 424,
      "Width": 24,
      "Height": 64,
      "Pattern": 50
    },
    {
      "Layer": 1,
      "X": 648,
      "Y": 408,
      "Width": 224,
      "Height": 24,
      "Pattern": 52
    },
    {
      "Layer": 1,
      "X": 784,
      "Y": 480,
      "Width": 24,
      "Height": 24,
      "Pattern": 45
    },
    {
      "Layer": 1,
      "X": 864,
      "Y": 424,
      "Width": 24,
      "Height": 64,
      "Pattern": 51
    },
    {
      "Layer": 1,
      "X": 864,
      "Y": 480,
      "Width": 24,
      "Height": 24,
      "Pattern": 56
    },
    {
      "Layer": 1,
      "X": 864,
      "Y": 408,
      "Width": 24,
      "Height": 24,
      "Pattern": 54
    },
    {
      "Layer": 1,
      "X": 632,
      "Y": 408,
      "Width": 24,
      "Height": 24,
      "Pattern": 53
    },
    {
      "Layer": 1,
      "X": 632,
      "Y": 480,
      "Width": 24,
      "Height": 24,
      "Pattern": 55
    },
    {
      "Layer": 1,
      "X": 784,
      "Y": 504,
      "Width": 24,
      "Height": 176,
      "Pattern": 51
    },
    {
      "Layer": 1,
      "X": 784,
      "Y": 680,
      "Width": 24,
      "Height": 24,
      "Pattern": 47
    },
    {
      "Layer": 1,
      "X": 808,
      "Y": 680,
      "Width": 176,
      "Height": 24,
      "Pattern": 52
    },
    {
      "Layer": 1,
      "X": 984,
      "Y": 680,
      "Width": 24,
      "Height": 24,
      "Pattern": 48
    },
    {
      "Layer": 1,
      "X": 984,
      "Y": 344,
      "Width": 24,
      "Height": 336,
      "Pattern": 50
    },
    {
      "Layer": 1,
      "X": 984,
      "Y": 320,
      "Width": 24,
      "Height": 24,
      "Pattern": 46
    },
    {
      "Layer": 1,
      "X": 536,
      "Y": 320,
      "Width": 448,
      "Height": 24,
      "Pattern": 49
    },
    {
      "Layer": 1,
      "X": 512,
      "Y": 320,
      "Width": 24,
      "Height": 24,
      "Pattern": 45
    },
    {
      "Layer": 1,
      "X": 832,
      "Y": 488,
      "Width": 8,
      "Height": 16,
      "Pattern": 72
    },
    {
      "Layer": 1,
      "X": 856,
      "Y": 488,
      "Width": 8,
      "Height": 16,
      "Pattern": 73
    },
    {
      "Layer": 1,
      "X": 536,
      "Y": 344,
      "Width": 8,
      "Height": 8,
      "Pattern": 14
    },
    {
      "Layer": 1,
      "X": 808,
      "Y": 504,
      "Width": 8,
      "Height": 8,
      "Pattern": 14
    },
    {
      "Layer": 1,
      "X": 976,
      "Y": 344,
      "Width": 8,
      "Height": 8,
      "Pattern": 15
    },
    {
      "Layer": 1,
      "X": 976,
      "Y": 672,
      "Width": 8,
      "Height": 8,
      "Pattern": 17
    },
    {
      "Layer": 1,
      "X": 704,
      "Y": 672,
      "Width": 8,
      "Height": 8,
      "Pattern": 17
    },
    {
      "Layer": 1,
      "X": 536,
      "Y": 672,
      "Width": 8,
      "Height": 8,
      "Pattern": 16
    },
    {
      "Layer": 1,
      "X": 704,
      "Y": 504,
      "Width": 8,
      "Height": 8,
      "Pattern": 15
    },
    {
      "Layer": 1,
      "X": 976,
      "Y": 352,
      "Width": 8,
      "Height": 320,
      "Pattern": 238
    },
    {
      "Layer": 1,
      "X": 704,
      "Y": 512,
      "Width": 8,
      "Height": 160,
      "Pattern": 238
    },
    {
      "Layer": 1,
      "X": 624,
      "Y": 400,
      "Width": 8,
      "Height": 112,
      "Pattern": 238
    },
    {
      "Layer": 1,
      "X": 888,
      "Y": 400,
      "Width": 8,
      "Height": 112,
      "Pattern": 237
    },
    {
      "Layer": 1,
      "X": 808,
      "Y": 512,
      "Width": 8,
      "Height": 160,
      "Pattern": 237
    },
    {
      "Layer": 1,
      "X": 536,
      "Y": 352,
      "Width": 8,
      "Height": 320,
      "Pattern": 237
    },
    {
      "Layer": 1,
      "X": 808,
      "Y": 672,
      "Width": 8,
      "Height": 8,
      "Pattern": 16
    },
    {
      "Layer": 1,
      "X": 544,
      "Y": 672,
      "Width": 160,
      "Height": 8,
      "Pattern": 236
    },
    {
      "Layer": 1,
      "X": 816,
      "Y": 672,
      "Width": 160,
      "Height": 8,
      "Pattern": 236
    },
    {
      "Layer": 1,
      "X": 544,
      "Y": 344,
      "Width": 432,
      "Height": 8,
      "Pattern": 179
    },
    {
      "Layer": 1,
      "X": 816,
      "Y": 504,
      "Width": 80,
      "Height": 8,
      "Pattern": 179
    },
    {
      "Layer": 1,
      "X": 624,
      "Y": 504,
      "Width": 80,
      "Height": 8,
      "Pattern": 179
    },
    {
      "Layer": 1,
      "X": 624,
      "Y": 400,
      "Width": 272,
      "Height": 8,
      "Pattern": 236
    },
    {
      "Layer": 1,
      "X": 624,
      "Y": 400,
      "Width": 8,
      "Height": 8,
      "Pattern": 241
    },
    {
      "Layer": 1,
      "X": 888,
      "Y": 400,
      "Width": 8,
      "Height": 8,
      "Pattern": 242
    },
    {
      "Layer": 1,
      "X": 888,
      "Y": 504,
      "Width": 8,
      "Height": 8,
      "Pattern": 239
    },
    {
      "Layer": 1,
      "X": 624,
      "Y": 504,
      "Width": 8,
      "Height": 8,
      "Pattern": 240
    },
    {
      "Layer": 1,
      "X": 472,
      "Y": 680,
      "Width": 24,
      "Height": 24,
      "Pattern": 48
    },
    {
      "Layer": 1,
      "X": 472,
      "Y": 264,
      "Width": 24,
      "Height": 416,
      "Pattern": 50
    },
    {
      "Layer": 1,
      "X": 472,
      "Y": 240,
      "Width": 24,
      "Height": 24,
      "Pattern": 46
    },
    {
      "Layer": 1,
      "X": 464,
      "Y": 264,
      "Width": 8,
      "Height": 8,
      "Pattern": 15
    },
    {
      "Layer": 1,
      "X": 464,
      "Y": 672,
      "Width": 8,
      "Height": 8,
      "Pattern": 17
    },
    {
      "Layer": 1,
      "X": 464,
      "Y": 272,
      "Width": 8,
      "Height": 400,
      "Pattern": 238
    },
    {
      "Layer": 1,
      "X": 16,
      "Y": 680,
      "Width": 24,
      "Height": 24,
      "Pattern": 47
    },
    {
      "Layer": 1,
      "X": 40,
      "Y": 680,
      "Width": 432,
      "Height": 24,
      "Pattern": 52
    },
    {
      "Layer": 1,
      "X": 216,
      "Y": 40,
      "Width": 24,
      "Height": 160,
      "Pattern": 50
    },
    {
      "Layer": 1,
      "X": 16,
      "Y": 40,
      "Width": 24,
      "Height": 160,
      "Pattern": 51
    },
    {
      "Layer": 1,
      "X": 216,
      "Y": 200,
      "Width": 24,
      "Height": 24,
      "Pattern": 48
    },
    {
      "Layer": 1,
      "X": 16,
      "Y": 200,
      "Width": 24,
      "Height": 24,
      "Pattern": 47
    },
    {
      "Layer": 1,
      "X": 16,
      "Y": 240,
      "Width": 24,
      "Height": 24,
      "Pattern": 45
    },
    {
      "Layer": 1,
      "X": 40,
      "Y": 240,
      "Width": 432,
      "Height": 24,
      "Pattern": 49
    },
    {
      "Layer": 1,
      "X": 40,
      "Y": 200,
      "Width": 176,
      "Height": 24,
      "Pattern": 52
    },
    {
      "Layer": 1,
      "X": 208,
      "Y": 48,
      "Width": 8,
      "Height": 144,
      "Pattern": 238
    },
    {
      "Layer": 1,
      "X": 40,
      "Y": 48,
      "Width": 8,
      "Height": 144,
      "Pattern": 237
    },
    {
      "Layer": 1,
      "X": 40,
      "Y": 192,
      "Width": 8,
      "Height": 8,
      "Pattern": 16
    },
    {
      "Layer": 1,
      "X": 208,
      "Y": 192,
      "Width": 8,
      "Height": 8,
      "Pattern": 17
    },
    {
      "Layer": 1,
      "X": 48,
      "Y": 192,
      "Width": 160,
      "Height": 8,
      "Pattern": 236
    },
    {
      "Layer": 1,
      "X": 16,
      "Y": 264,
      "Width": 24,
      "Height": 416,
      "Pattern": 51
    },
    {
      "Layer": 1,
      "X": 40,
      "Y": 672,
      "Width": 8,
      "Height": 8,
      "Pattern": 16
    },
    {
      "Layer": 1,
      "X": 40,
      "Y": 264,
      "Width": 8,
      "Height": 8,
      "Pattern": 14
    },
    {
      "Layer": 1,
      "X": 48,
      "Y": 264,
      "Width": 416,
      "Height": 8,
      "Pattern": 179
    },
    {
      "Layer": 1,
      "X": 40,
      "Y": 272,
      "Width": 8,
      "Height": 400,
      "Pattern": 237
    },
    {
      "Layer": 1,
      "X": 48,
      "Y": 672,
      "Width": 416,
      "Height": 8,
      "Pattern": 236
    },
    {
      "Layer": 1,
      "X": 256,
      "Y": 40,
      "Width": 24,
      "Height": 160,
      "Pattern": 51
    },
    {
      "Layer": 1,
      "X": 256,
      "Y": 200,
      "Width": 24,
      "Height": 24,
      "Pattern": 47
    },
    {
      "Layer": 1,
      "X": 672,
      "Y": 40,
      "Width": 8,
      "Height": 8,
      "Pattern": 15
    },
    {
      "Layer": 1,
      "X": 680,
      "Y": 16,
      "Width": 24,
      "Height": 24,
      "Pattern": 46
    },
    {
      "Layer": 1,
      "X": 680,
      "Y": 40,
      "Width": 24,
      "Height": 160,
      "Pattern": 50
    },
    {
      "Layer": 1,
      "X": 456,
      "Y": 24,
      "Width": 8,
      "Height": 16,
      "Pattern": 73
    },
    {
      "Layer": 1,
      "X": 432,
      "Y": 24,
      "Width": 8,
      "Height": 16,
      "Pattern": 72
    },
    {
      "Layer": 1,
      "X": 376,
      "Y": 24,
      "Width": 16,
      "Height": 16,
      "Pattern": 189
    },
    {
      "Layer": 1,
      "X": 280,
      "Y": 200,
      "Width": 400,
      "Height": 24,
      "Pattern": 52
    },
    {
      "Layer": 1,
      "X": 680,
      "Y": 200,
      "Width": 24,
      "Height": 24,
      "Pattern": 48
    },
    {
      "Layer": 1,
      "X": 672,
      "Y": 192,
      "Width": 8,
      "Height": 8,
      "Pattern": 17
    },
    {
      "Layer": 1,
      "X": 280,
      "Y": 192,
      "Width": 8,
      "Height": 8,
      "Pattern": 16
    },
    {
      "Layer": 1,
      "X": 288,
      "Y": 192,
      "Width": 384,
      "Height": 8,
      "Pattern": 236
    },
    {
      "Layer": 1,
      "X": 288,
      "Y": 40,
      "Width": 384,
      "Height": 8,
      "Pattern": 179
    },
    {
      "Layer": 1,
      "X": 672,
      "Y": 48,
      "Width": 8,
      "Height": 144,
      "Pattern": 238
    },
    {
      "Layer": 1,
      "X": 280,
      "Y": 48,
      "Width": 8,
      "Height": 144,
      "Pattern": 237
    },
    {
      "Layer": 1,
      "X": 304,
      "Y": 168,
      "Width": 16,
      "Height": 24,
      "Pattern": 363
    },
    {
      "Layer": 1,
      "X": 400,
      "Y": 168,
      "Width": 16,
      "Height": 24,
      "Pattern": 363
    },
    {
      "Layer": 1,
      "X": 304,
      "Y": 96,
      "Width": 16,
      "Height": 16,
      "Pattern": 325
    },
    {
      "Layer": 1,
      "X": 400,
      "Y": 96,
      "Width": 16,
      "Height": 16,
      "Pattern": 325
    },
    {
      "Layer": 1,
      "X": 304,
      "Y": 112,
      "Width": 16,
      "Height": 56,
      "Pattern": 326
    },
    {
      "Layer": 1,
      "X": 400,
      "Y": 112,
      "Width": 16,
      "Height": 56,
      "Pattern": 326
    },
    {
      "Layer": 1,
      "X": 320,
      "Y": 96,
      "Width": 80,
      "Height": 24,
      "Pattern": 324
    },
    {
      "Layer": 1,
      "X": 320,
      "Y": 168,
      "Width": 80,
      "Height": 24,
      "Pattern": 324
    },
    {
      "Layer": 1,
      "X": 544,
      "Y": 168,
      "Width": 16,
      "Height": 24,
      "Pattern": 363
    },
    {
      "Layer": 1,
      "X": 640,
      "Y": 168,
      "Width": 16,
      "Height": 24,
      "Pattern": 363
    },
    {
      "Layer": 1,
      "X": 544,
      "Y": 96,
      "Width": 16,
      "Height": 16,
      "Pattern": 325
    },
    {
      "Layer": 1,
      "X": 640,
      "Y": 96,
      "Width": 16,
      "Height": 16,
      "Pattern": 325
    },
    {
      "Layer": 1,
      "X": 544,
      "Y": 112,
      "Width": 16,
      "Height": 56,
      "Pattern": 326
    },
    {
      "Layer": 1,
      "X": 640,
      "Y": 112,
      "Width": 16,
      "Height": 56,
      "Pattern": 326
    },
    {
      "Layer": 1,
      "X": 560,
      "Y": 96,
      "Width": 80,
      "Height": 24,
      "Pattern": 324
    },
    {
      "Layer": 1,
      "X": 560,
      "Y": 168,
      "Width": 80,
      "Height": 24,
      "Pattern": 324
    },
    {
      "Layer": 1,
      "X": 304,
      "Y": 64,
      "Width": 16,
      "Height": 16,
      "Pattern": 276
    },
    {
      "Layer": 1,
      "X": 640,
      "Y": 64,
      "Width": 16,
      "Height": 16,
      "Pattern": 276
    },
    {
      "Layer": 1,
      "X": 120,
      "Y": 248,
      "Width": 16,
      "Height": 16,
      "Pattern": 76
    },
    {
      "Layer": 1,
      "X": 112,
      "Y": 248,
      "Width": 8,
      "Height": 16,
      "Pattern": 72
    },
    {
      "Layer": 1,
      "X": 136,
      "Y": 248,
      "Width": 8,
      "Height": 16,
      "Pattern": 73
    },
    {
      "Layer": 1,
      "X": 120,
      "Y": 200,
      "Width": 16,
      "Height": 16,
      "Pattern": 77
    },
    {
      "Layer": 1,
      "X": 136,
      "Y": 200,
      "Width": 8,
      "Height": 16,
      "Pattern": 75
    },
    {
      "Layer": 1,
      "X": 112,
      "Y": 200,
      "Width": 8,
      "Height": 16,
      "Pattern": 74
    },
    {
      "Layer": 1,
      "X": 112,
      "Y": 224,
      "Width": 8,
      "Height": 16,
      "Pattern": 71
    },
    {
      "Layer": 1,
      "X": 136,
      "Y": 224,
      "Width": 8,
      "Height": 16,
      "Pattern": 71
    },
    {
      "Layer": 1,
      "X": 144,
      "Y": 24,
      "Width": 8,
      "Height": 16,
      "Pattern": 72
    },
    {
      "Layer": 1,
      "X": 168,
      "Y": 24,
      "Width": 8,
      "Height": 16,
      "Pattern": 73
    },
    {
      "Layer": 1,
      "X": 312,
      "Y": 776,
      "Width": 16,
      "Height": 16,
      "Pattern": 519
    },
    {
      "Layer": 1,
      "X": 312,
      "Y": 936,
      "Width": 16,
      "Height": 16,
      "Pattern": 519
    },
    {
      "Layer": 1,
      "X": 632,
      "Y": 936,
      "Width": 16,
      "Height": 16,
      "Pattern": 519
    },
    {
      "Layer": 1,
      "X": 472,
      "Y": 288,
      "Width": 16,
      "Height": 32,
      "Pattern": 338
    },
    {
      "Layer": 1,
      "X": 472,
      "Y": 624,
      "Width": 16,
      "Height": 32,
      "Pattern": 338
    },
    {
      "Layer": 1,
      "X": 416,
      "Y": 680,
      "Width": 32,
      "Height": 16,
      "Pattern": 339
    },
    {
      "Layer": 1,
      "X": 64,
      "Y": 680,
      "Width": 32,
      "Height": 16,
      "Pattern": 339
    },
    {
      "Layer": 1,
      "X": 24,
      "Y": 624,
      "Width": 16,
      "Height": 32,
      "Pattern": 340
    },
    {
      "Layer": 1,
      "X": 24,
      "Y": 288,
      "Width": 16,
      "Height": 32,
      "Pattern": 340
    },
    {
      "Layer": 1,
      "X": 64,
      "Y": 248,
      "Width": 32,
      "Height": 16,
      "Pattern": 337
    },
    {
      "Layer": 1,
      "X": 160,
      "Y": 248,
      "Width": 32,
      "Height": 16,
      "Pattern": 337
    },
    {
      "Layer": 1,
      "X": 184,
      "Y": 16,
      "Width": 16,
      "Height": 32,
      "Pattern": 341
    },
    {
      "Layer": 1,
      "X": 56,
      "Y": 16,
      "Width": 16,
      "Height": 32,
      "Pattern": 341
    },
    {
      "Layer": 1,
      "X": 56,
      "Y": 192,
      "Width": 16,
      "Height": 32,
      "Pattern": 342
    },
    {
      "Layer": 1,
      "X": 184,
      "Y": 192,
      "Width": 16,
      "Height": 32,
      "Pattern": 342
    },
    {
      "Layer": 1,
      "X": 120,
      "Y": 216,
      "Width": 16,
      "Height": 32,
      "Pattern": 541
    },
    {
      "Layer": 1,
      "X": 616,
      "Y": 696,
      "Width": 16,
      "Height": 32,
      "Pattern": 541
    },
    {
      "Layer": 1,
      "X": 696,
      "Y": 840,
      "Width": 32,
      "Height": 16,
      "Pattern": 541
    },
    {
      "Layer": 1,
      "X": 544,
      "Y": 640,
      "Width": 16,
      "Height": 32,
      "Pattern": 2
    },
    {
      "Layer": 1,
      "X": 688,
      "Y": 640,
      "Width": 16,
      "Height": 32,
      "Pattern": 2
    },
    {
      "Layer": 1,
      "X": 296,
      "Y": 720,
      "Width": 16,
      "Height": 24,
      "Pattern": 570
    },
    {
      "Layer": 1,
      "X": 360,
      "Y": 720,
      "Width": 16,
      "Height": 24,
      "Pattern": 570
    },
    {
      "Layer": 1,
      "X": 392,
      "Y": 720,
      "Width": 16,
      "Height": 24,
      "Pattern": 570
    },
    {
      "Layer": 1,
      "X": 488,
      "Y": 720,
      "Width": 16,
      "Height": 24,
      "Pattern": 570
    },
    {
      "Layer": 1,
      "X": 584,
      "Y": 720,
      "Width": 16,
      "Height": 24,
      "Pattern": 570
    },
    {
      "Layer": 1,
      "X": 664,
      "Y": 720,
      "Width": 16,
      "Height": 24,
      "Pattern": 570
    },
    {
      "Layer": 1,
      "X": 328,
      "Y": 720,
      "Width": 16,
      "Height": 24,
      "Pattern": 571
    },
    {
      "Layer": 1,
      "X": 376,
      "Y": 720,
      "Width": 16,
      "Height": 24,
      "Pattern": 571
    },
    {
      "Layer": 1,
      "X": 424,
      "Y": 720,
      "Width": 16,
      "Height": 24,
      "Pattern": 571
    },
    {
      "Layer": 1,
      "X": 472,
      "Y": 720,
      "Width": 16,
      "Height": 24,
      "Pattern": 571
    },
    {
      "Layer": 1,
      "X": 552,
      "Y": 720,
      "Width": 16,
      "Height": 24,
      "Pattern": 571
    },
    {
      "Layer": 1,
      "X": 520,
      "Y": 720,
      "Width": 16,
      "Height": 24,
      "Pattern": 570
    },
    {
      "Layer": 1,
      "X": 256,
      "Y": 752,
      "Width": 24,
      "Height": 16,
      "Pattern": 574
    },
    {
      "Layer": 1,
      "X": 256,
      "Y": 968,
      "Width": 24,
      "Height": 16,
      "Pattern": 574
    },
    {
      "Layer": 1,
      "X": 256,
      "Y": 920,
      "Width": 24,
      "Height": 16,
      "Pattern": 574
    },
    {
      "Layer": 1,
      "X": 256,
      "Y": 888,
      "Width": 24,
      "Height": 16,
      "Pattern": 574
    },
    {
      "Layer": 1,
      "X": 256,
      "Y": 792,
      "Width": 24,
      "Height": 16,
      "Pattern": 574
    },
    {
      "Layer": 1,
      "X": 256,
      "Y": 808,
      "Width": 24,
      "Height": 16,
      "Pattern": 574
    },
    {
      "Layer": 1,
      "X": 256,
      "Y": 904,
      "Width": 24,
      "Height": 16,
      "Pattern": 575
    },
    {
      "Layer": 1,
      "X": 256,
      "Y": 840,
      "Width": 24,
      "Height": 16,
      "Pattern": 575
    },
    {
      "Layer": 1,
      "X": 256,
      "Y": 776,
      "Width": 24,
      "Height": 16,
      "Pattern": 575
    },
    {
      "Layer": 1,
      "X": 256,
      "Y": 736,
      "Width": 24,
      "Height": 16,
      "Pattern": 575
    },
    {
      "Layer": 1,
      "X": 256,
      "Y": 952,
      "Width": 24,
      "Height": 16,
      "Pattern": 575
    },
    {
      "Layer": 1,
      "X": 280,
      "Y": 984,
      "Width": 16,
      "Height": 24,
      "Pattern": 576
    },
    {
      "Layer": 1,
      "X": 312,
      "Y": 984,
      "Width": 16,
      "Height": 24,
      "Pattern": 576
    },
    {
      "Layer": 1,
      "X": 360,
      "Y": 984,
      "Width": 16,
      "Height": 24,
      "Pattern": 576
    },
    {
      "Layer": 1,
      "X": 376,
      "Y": 984,
      "Width": 16,
      "Height": 24,
      "Pattern": 576
    },
    {
      "Layer": 1,
      "X": 424,
      "Y": 984,
      "Width": 16,
      "Height": 24,
      "Pattern": 576
    },
    {
      "Layer": 1,
      "X": 472,
      "Y": 984,
      "Width": 16,
      "Height": 24,
      "Pattern": 576
    },
    {
      "Layer": 1,
      "X": 504,
      "Y": 984,
      "Width": 16,
      "Height": 24,
      "Pattern": 576
    },
    {
      "Layer": 1,
      "X": 568,
      "Y": 984,
      "Width": 16,
      "Height": 24,
      "Pattern": 576
    },
    {
      "Layer": 1,
      "X": 600,
      "Y": 984,
      "Width": 16,
      "Height": 24,
      "Pattern": 576
    },
    {
      "Layer": 1,
      "X": 664,
      "Y": 984,
      "Width": 16,
      "Height": 24,
      "Pattern": 576
    },
    {
      "Layer": 1,
      "X": 632,
      "Y": 984,
      "Width": 16,
      "Height": 24,
      "Pattern": 577
    },
    {
      "Layer": 1,
      "X": 584,
      "Y": 984,
      "Width": 16,
      "Height": 24,
      "Pattern": 577
    },
    {
      "Layer": 1,
      "X": 520,
      "Y": 984,
      "Width": 16,
      "Height": 24,
      "Pattern": 577
    },
    {
      "Layer": 1,
      "X": 456,
      "Y": 984,
      "Width": 16,
      "Height": 24,
      "Pattern": 577
    },
    {
      "Layer": 1,
      "X": 392,
      "Y": 984,
      "Width": 16,
      "Height": 24,
      "Pattern": 577
    },
    {
      "Layer": 1,
      "X": 328,
      "Y": 984,
      "Width": 16,
      "Height": 24,
      "Pattern": 577
    },
    {
      "Layer": 1,
      "X": 296,
      "Y": 984,
      "Width": 16,
      "Height": 24,
      "Pattern": 577
    },
    {
      "Layer": 1,
      "X": 680,
      "Y": 872,
      "Width": 24,
      "Height": 16,
      "Pattern": 572
    },
    {
      "Layer": 1,
      "X": 680,
      "Y": 920,
      "Width": 24,
      "Height": 16,
      "Pattern": 572
    },
    {
      "Layer": 1,
      "X": 680,
      "Y": 968,
      "Width": 24,
      "Height": 16,
      "Pattern": 572
    },
    {
      "Layer": 1,
      "X": 680,
      "Y": 792,
      "Width": 24,
      "Height": 16,
      "Pattern": 572
    },
    {
      "Layer": 1,
      "X": 680,
      "Y": 760,
      "Width": 24,
      "Height": 16,
      "Pattern": 572
    },
    {
      "Layer": 1,
      "X": 680,
      "Y": 744,
      "Width": 24,
      "Height": 16,
      "Pattern": 573
    },
    {
      "Layer": 1,
      "X": 680,
      "Y": 808,
      "Width": 24,
      "Height": 16,
      "Pattern": 573
    },
    {
      "Layer": 1,
      "X": 680,
      "Y": 888,
      "Width": 24,
      "Height": 16,
      "Pattern": 573
    },
    {
      "Layer": 1,
      "X": 680,
      "Y": 952,
      "Width": 24,
      "Height": 16,
      "Pattern": 573
    },
    {
      "Layer": 1,
      "X": 40,
      "Y": 16,
      "Width": 16,
      "Height": 24,
      "Pattern": 570
    },
    {
      "Layer": 1,
      "X": 104,
      "Y": 16,
      "Width": 16,
      "Height": 24,
      "Pattern": 570
    },
    {
      "Layer": 1,
      "X": 168,
      "Y": 16,
      "Width": 16,
      "Height": 24,
      "Pattern": 570
    },
    {
      "Layer": 1,
      "X": 88,
      "Y": 240,
      "Width": 16,
      "Height": 24,
      "Pattern": 570
    },
    {
      "Layer": 1,
      "X": 200,
      "Y": 240,
      "Width": 16,
      "Height": 24,
      "Pattern": 570
    },
    {
      "Layer": 1,
      "X": 144,
      "Y": 240,
      "Width": 16,
      "Height": 24,
      "Pattern": 571
    },
    {
      "Layer": 1,
      "X": 128,
      "Y": 16,
      "Width": 16,
      "Height": 24,
      "Pattern": 571
    },
    {
      "Layer": 1,
      "X": 200,
      "Y": 16,
      "Width": 16,
      "Height": 24,
      "Pattern": 571
    },
    {
      "Layer": 1,
      "X": 88,
      "Y": 16,
      "Width": 16,
      "Height": 24,
      "Pattern": 571
    },
    {
      "Layer": 1,
      "X": 16,
      "Y": 40,
      "Width": 24,
      "Height": 16,
      "Pattern": 574
    },
    {
      "Layer": 1,
      "X": 16,
      "Y": 104,
      "Width": 24,
      "Height": 16,
      "Pattern": 574
    },
    {
      "Layer": 1,
      "X": 16,
      "Y": 136,
      "Width": 24,
      "Height": 16,
      "Pattern": 574
    },
    {
      "Layer": 1,
      "X": 16,
      "Y": 344,
      "Width": 24,
      "Height": 16,
      "Pattern": 574
    },
    {
      "Layer": 1,
      "X": 16,
      "Y": 424,
      "Width": 24,
      "Height": 16,
      "Pattern": 574
    },
    {
      "Layer": 1,
      "X": 16,
      "Y": 392,
      "Width": 24,
      "Height": 16,
      "Pattern": 574
    },
    {
      "Layer": 1,
      "X": 16,
      "Y": 504,
      "Width": 24,
      "Height": 16,
      "Pattern": 574
    },
    {
      "Layer": 1,
      "X": 16,
      "Y": 552,
      "Width": 24,
      "Height": 16,
      "Pattern": 574
    },
    {
      "Layer": 1,
      "X": 16,
      "Y": 568,
      "Width": 24,
      "Height": 16,
      "Pattern": 574
    },
    {
      "Layer": 1,
      "X": 16,
      "Y": 648,
      "Width": 24,
      "Height": 16,
      "Pattern": 574
    },
    {
      "Layer": 1,
      "X": 16,
      "Y": 472,
      "Width": 24,
      "Height": 16,
      "Pattern": 574
    },
    {
      "Layer": 1,
      "X": 16,
      "Y": 600,
      "Width": 24,
      "Height": 16,
      "Pattern": 575
    },
    {
      "Layer": 1,
      "X": 16,
      "Y": 488,
      "Width": 24,
      "Height": 16,
      "Pattern": 575
    },
    {
      "Layer": 1,
      "X": 16,
      "Y": 440,
      "Width": 24,
      "Height": 16,
      "Pattern": 575
    },
    {
      "Layer": 1,
      "X": 16,
      "Y": 264,
      "Width": 24,
      "Height": 16,
      "Pattern": 575
    },
    {
      "Layer": 1,
      "X": 472,
      "Y": 320,
      "Width": 24,
      "Height": 16,
      "Pattern": 572
    },
    {
      "Layer": 1,
      "X": 472,
      "Y": 344,
      "Width": 24,
      "Height": 16,
      "Pattern": 572
    },
    {
      "Layer": 1,
      "X": 472,
      "Y": 456,
      "Width": 24,
      "Height": 16,
      "Pattern": 572
    },
    {
      "Layer": 1,
      "X": 472,
      "Y": 488,
      "Width": 24,
      "Height": 16,
      "Pattern": 572
    },
    {
      "Layer": 1,
      "X": 472,
      "Y": 552,
      "Width": 24,
      "Height": 16,
      "Pattern": 572
    },
    {
      "Layer": 1,
      "X": 472,
      "Y": 600,
      "Width": 24,
      "Height": 16,
      "Pattern": 572
    },
    {
      "Layer": 1,
      "X": 472,
      "Y": 648,
      "Width": 24,
      "Height": 16,
      "Pattern": 572
    },
    {
      "Layer": 1,
      "X": 216,
      "Y": 56,
      "Width": 24,
      "Height": 16,
      "Pattern": 572
    },
    {
      "Layer": 1,
      "X": 216,
      "Y": 120,
      "Width": 24,
      "Height": 16,
      "Pattern": 572
    },
    {
      "Layer": 1,
      "X": 216,
      "Y": 168,
      "Width": 24,
      "Height": 16,
      "Pattern": 572
    },
    {
      "Layer": 1,
      "X": 216,
      "Y": 136,
      "Width": 24,
      "Height": 16,
      "Pattern": 573
    },
    {
      "Layer": 1,
      "X": 216,
      "Y": 88,
      "Width": 24,
      "Height": 16,
      "Pattern": 573
    },
    {
      "Layer": 1,
      "X": 472,
      "Y": 408,
      "Width": 24,
      "Height": 16,
      "Pattern": 573
    },
    {
      "Layer": 1,
      "X": 472,
      "Y": 536,
      "Width": 24,
      "Height": 16,
      "Pattern": 573
    },
    {
      "Layer": 1,
      "X": 472,
      "Y": 472,
      "Width": 24,
      "Height": 16,
      "Pattern": 573
    },
    {
      "Layer": 1,
      "X": 472,
      "Y": 584,
      "Width": 24,
      "Height": 16,
      "Pattern": 573
    },
    {
      "Layer": 1,
      "X": 440,
      "Y": 680,
      "Width": 16,
      "Height": 24,
      "Pattern": 576
    },
    {
      "Layer": 1,
      "X": 360,
      "Y": 680,
      "Width": 16,
      "Height": 24,
      "Pattern": 576
    },
    {
      "Layer": 1,
      "X": 328,
      "Y": 680,
      "Width": 16,
      "Height": 24,
      "Pattern": 576
    },
    {
      "Layer": 1,
      "X": 216,
      "Y": 680,
      "Width": 16,
      "Height": 24,
      "Pattern": 576
    },
    {
      "Layer": 1,
      "X": 168,
      "Y": 680,
      "Width": 16,
      "Height": 24,
      "Pattern": 576
    },
    {
      "Layer": 1,
      "X": 104,
      "Y": 680,
      "Width": 16,
      "Height": 24,
      "Pattern": 576
    },
    {
      "Layer": 1,
      "X": 56,
      "Y": 680,
      "Width": 16,
      "Height": 24,
      "Pattern": 576
    },
    {
      "Layer": 1,
      "X": 152,
      "Y": 200,
      "Width": 16,
      "Height": 24,
      "Pattern": 576
    },
    {
      "Layer": 1,
      "X": 88,
      "Y": 200,
      "Width": 16,
      "Height": 24,
      "Pattern": 576
    },
    {
      "Layer": 1,
      "X": 40,
      "Y": 200,
      "Width": 16,
      "Height": 24,
      "Pattern": 577
    },
    {
      "Layer": 1,
      "X": 168,
      "Y": 200,
      "Width": 16,
      "Height": 24,
      "Pattern": 577
    },
    {
      "Layer": 1,
      "X": 40,
      "Y": 680,
      "Width": 16,
      "Height": 24,
      "Pattern": 577
    },
    {
      "Layer": 1,
      "X": 184,
      "Y": 680,
      "Width": 16,
      "Height": 24,
      "Pattern": 577
    },
    {
      "Layer": 1,
      "X": 344,
      "Y": 680,
      "Width": 16,
      "Height": 24,
      "Pattern": 577
    },
    {
      "Layer": 1,
      "X": 280,
      "Y": 680,
      "Width": 16,
      "Height": 24,
      "Pattern": 577
    },
    {
      "Layer": 1,
      "X": 456,
      "Y": 680,
      "Width": 16,
      "Height": 24,
      "Pattern": 577
    },
    {
      "Layer": 1,
      "X": 16,
      "Y": 72,
      "Width": 24,
      "Height": 16,
      "Pattern": 575
    },
    {
      "Layer": 1,
      "X": 16,
      "Y": 152,
      "Width": 24,
      "Height": 16,
      "Pattern": 575
    },
    {
      "Layer": 1,
      "X": 280,
      "Y": 16,
      "Width": 16,
      "Height": 24,
      "Pattern": 570
    },
    {
      "Layer": 1,
      "X": 344,
      "Y": 16,
      "Width": 16,
      "Height": 24,
      "Pattern": 570
    },
    {
      "Layer": 1,
      "X": 456,
      "Y": 16,
      "Width": 16,
      "Height": 24,
      "Pattern": 570
    },
    {
      "Layer": 1,
      "X": 568,
      "Y": 16,
      "Width": 16,
      "Height": 24,
      "Pattern": 570
    },
    {
      "Layer": 1,
      "X": 600,
      "Y": 16,
      "Width": 16,
      "Height": 24,
      "Pattern": 570
    },
    {
      "Layer": 1,
      "X": 648,
      "Y": 16,
      "Width": 16,
      "Height": 24,
      "Pattern": 570
    },
    {
      "Layer": 1,
      "X": 552,
      "Y": 320,
      "Width": 16,
      "Height": 24,
      "Pattern": 570
    },
    {
      "Layer": 1,
      "X": 616,
      "Y": 320,
      "Width": 16,
      "Height": 24,
      "Pattern": 570
    },
    {
      "Layer": 1,
      "X": 744,
      "Y": 320,
      "Width": 16,
      "Height": 24,
      "Pattern": 570
    },
    {
      "Layer": 1,
      "X": 712,
      "Y": 320,
      "Width": 16,
      "Height": 24,
      "Pattern": 570
    },
    {
      "Layer": 1,
      "X": 952,
      "Y": 320,
      "Width": 16,
      "Height": 24,
      "Pattern": 570
    },
    {
      "Layer": 1,
      "X": 904,
      "Y": 320,
      "Width": 16,
      "Height": 24,
      "Pattern": 570
    },
    {
      "Layer": 1,
      "X": 840,
      "Y": 320,
      "Width": 16,
      "Height": 24,
      "Pattern": 570
    },
    {
      "Layer": 1,
      "X": 824,
      "Y": 320,
      "Width": 16,
      "Height": 24,
      "Pattern": 570
    },
    {
      "Layer": 1,
      "X": 296,
      "Y": 16,
      "Width": 16,
      "Height": 24,
      "Pattern": 571
    },
    {
      "Layer": 1,
      "X": 408,
      "Y": 16,
      "Width": 16,
      "Height": 24,
      "Pattern": 571
    },
    {
      "Layer": 1,
      "X": 472,
      "Y": 16,
      "Width": 16,
      "Height": 24,
      "Pattern": 571
    },
    {
      "Layer": 1,
      "X": 632,
      "Y": 16,
      "Width": 16,
      "Height": 24,
      "Pattern": 571
    },
    {
      "Layer": 1,
      "X": 680,
      "Y": 40,
      "Width": 24,
      "Height": 16,
      "Pattern": 572
    },
    {
      "Layer": 1,
      "X": 680,
      "Y": 56,
      "Width": 24,
      "Height": 16,
      "Pattern": 572
    },
    {
      "Layer": 1,
      "X": 680,
      "Y": 120,
      "Width": 24,
      "Height": 16,
      "Pattern": 572
    },
    {
      "Layer": 1,
      "X": 680,
      "Y": 200,
      "Width": 24,
      "Height": 16,
      "Pattern": 572
    },
    {
      "Layer": 1,
      "X": 680,
      "Y": 184,
      "Width": 24,
      "Height": 16,
      "Pattern": 572
    },
    {
      "Layer": 1,
      "X": 680,
      "Y": 168,
      "Width": 24,
      "Height": 16,
      "Pattern": 573
    },
    {
      "Layer": 1,
      "X": 680,
      "Y": 80,
      "Width": 24,
      "Height": 16,
      "Pattern": 573
    },
    {
      "Layer": 1,
      "X": 648,
      "Y": 200,
      "Width": 16,
      "Height": 24,
      "Pattern": 576
    },
    {
      "Layer": 1,
      "X": 584,
      "Y": 200,
      "Width": 16,
      "Height": 24,
      "Pattern": 576
    },
    {
      "Layer": 1,
      "X": 568,
      "Y": 200,
      "Width": 16,
      "Height": 24,
      "Pattern": 576
    },
    {
      "Layer": 1,
      "X": 536,
      "Y": 200,
      "Width": 16,
      "Height": 24,
      "Pattern": 576
    },
    {
      "Layer": 1,
      "X": 456,
      "Y": 200,
      "Width": 16,
      "Height": 24,
      "Pattern": 576
    },
    {
      "Layer": 1,
      "X": 392,
      "Y": 200,
      "Width": 16,
      "Height": 24,
      "Pattern": 576
    },
    {
      "Layer": 1,
      "X": 344,
      "Y": 200,
      "Width": 16,
      "Height": 24,
      "Pattern": 576
    },
    {
      "Layer": 1,
      "X": 280,
      "Y": 200,
      "Width": 16,
      "Height": 24,
      "Pattern": 576
    },
    {
      "Layer": 1,
      "X": 376,
      "Y": 200,
      "Width": 16,
      "Height": 24,
      "Pattern": 577
    },
    {
      "Layer": 1,
      "X": 312,
      "Y": 200,
      "Width": 16,
      "Height": 24,
      "Pattern": 577
    },
    {
      "Layer": 1,
      "X": 552,
      "Y": 200,
      "Width": 16,
      "Height": 24,
      "Pattern": 577
    },
    {
      "Layer": 1,
      "X": 664,
      "Y": 200,
      "Width": 16,
      "Height": 24,
      "Pattern": 577
    },
    {
      "Layer": 1,
      "X": 488,
      "Y": 200,
      "Width": 16,
      "Height": 24,
      "Pattern": 577
    },
    {
      "Layer": 1,
      "X": 256,
      "Y": 104,
      "Width": 24,
      "Height": 16,
      "Pattern": 574
    },
    {
      "Layer": 1,
      "X": 256,
      "Y": 72,
      "Width": 24,
      "Height": 16,
      "Pattern": 574
    },
    {
      "Layer": 1,
      "X": 256,
      "Y": 56,
      "Width": 24,
      "Height": 16,
      "Pattern": 575
    },
    {
      "Layer": 1,
      "X": 256,
      "Y": 168,
      "Width": 24,
      "Height": 16,
      "Pattern": 575
    },
    {
      "Layer": 1,
      "X": 648,
      "Y": 480,
      "Width": 16,
      "Height": 24,
      "Pattern": 570
    },
    {
      "Layer": 1,
      "X": 696,
      "Y": 480,
      "Width": 16,
      "Height": 24,
      "Pattern": 570
    },
    {
      "Layer": 1,
      "X": 808,
      "Y": 480,
      "Width": 16,
      "Height": 24,
      "Pattern": 570
    },
    {
      "Layer": 1,
      "X": 968,
      "Y": 784,
      "Width": 16,
      "Height": 24,
      "Pattern": 570
    },
    {
      "Layer": 1,
      "X": 888,
      "Y": 784,
      "Width": 16,
      "Height": 24,
      "Pattern": 570
    },
    {
      "Layer": 1,
      "X": 872,
      "Y": 784,
      "Width": 16,
      "Height": 24,
      "Pattern": 570
    },
    {
      "Layer": 1,
      "X": 808,
      "Y": 784,
      "Width": 16,
      "Height": 24,
      "Pattern": 570
    },
    {
      "Layer": 1,
      "X": 776,
      "Y": 784,
      "Width": 16,
      "Height": 24,
      "Pattern": 570
    },
    {
      "Layer": 1,
      "X": 744,
      "Y": 784,
      "Width": 16,
      "Height": 24,
      "Pattern": 571
    },
    {
      "Layer": 1,
      "X": 920,
      "Y": 784,
      "Width": 16,
      "Height": 24,
      "Pattern": 571
    },
    {
      "Layer": 1,
      "X": 792,
      "Y": 784,
      "Width": 16,
      "Height": 24,
      "Pattern": 571
    },
    {
      "Layer": 1,
      "X": 760,
      "Y": 984,
      "Width": 16,
      "Height": 24,
      "Pattern": 576
    },
    {
      "Layer": 1,
      "X": 840,
      "Y": 984,
      "Width": 16,
      "Height": 24,
      "Pattern": 576
    },
    {
      "Layer": 1,
      "X": 872,
      "Y": 984,
      "Width": 16,
      "Height": 24,
      "Pattern": 576
    },
    {
      "Layer": 1,
      "X": 968,
      "Y": 984,
      "Width": 16,
      "Height": 24,
      "Pattern": 576
    },
    {
      "Layer": 1,
      "X": 920,
      "Y": 984,
      "Width": 16,
      "Height": 24,
      "Pattern": 576
    },
    {
      "Layer": 1,
      "X": 776,
      "Y": 984,
      "Width": 16,
      "Height": 24,
      "Pattern": 577
    },
    {
      "Layer": 1,
      "X": 856,
      "Y": 984,
      "Width": 16,
      "Height": 24,
      "Pattern": 577
    },
    {
      "Layer": 1,
      "X": 904,
      "Y": 984,
      "Width": 16,
      "Height": 24,
      "Pattern": 577
    },
    {
      "Layer": 1,
      "X": 720,
      "Y": 808,
      "Width": 24,
      "Height": 16,
      "Pattern": 574
    },
    {
      "Layer": 1,
      "X": 720,
      "Y": 888,
      "Width": 24,
      "Height": 16,
      "Pattern": 574
    },
    {
      "Layer": 1,
      "X": 720,
      "Y": 920,
      "Width": 24,
      "Height": 16,
      "Pattern": 574
    },
    {
      "Layer": 1,
      "X": 720,
      "Y": 936,
      "Width": 24,
      "Height": 16,
      "Pattern": 575
    },
    {
      "Layer": 1,
      "X": 784,
      "Y": 600,
      "Width": 24,
      "Height": 16,
      "Pattern": 575
    },
    {
      "Layer": 1,
      "X": 984,
      "Y": 824,
      "Width": 24,
      "Height": 16,
      "Pattern": 572
    },
    {
      "Layer": 1,
      "X": 984,
      "Y": 856,
      "Width": 24,
      "Height": 16,
      "Pattern": 572
    },
    {
      "Layer": 1,
      "X": 984,
      "Y": 936,
      "Width": 24,
      "Height": 16,
      "Pattern": 572
    },
    {
      "Layer": 1,
      "X": 984,
      "Y": 952,
      "Width": 24,
      "Height": 16,
      "Pattern": 573
    },
    {
      "Layer": 1,
      "X": 984,
      "Y": 888,
      "Width": 24,
      "Height": 16,
      "Pattern": 573
    },
    {
      "Layer": 1,
      "X": 712,
      "Y": 632,
      "Width": 24,
      "Height": 16,
      "Pattern": 572
    },
    {
      "Layer": 1,
      "X": 712,
      "Y": 552,
      "Width": 24,
      "Height": 16,
      "Pattern": 572
    },
    {
      "Layer": 1,
      "X": 984,
      "Y": 552,
      "Width": 24,
      "Height": 16,
      "Pattern": 572
    },
    {
      "Layer": 1,
      "X": 984,
      "Y": 584,
      "Width": 24,
      "Height": 16,
      "Pattern": 572
    },
    {
      "Layer": 1,
      "X": 984,
      "Y": 664,
      "Width": 24,
      "Height": 16,
      "Pattern": 572
    },
    {
      "Layer": 1,
      "X": 984,
      "Y": 472,
      "Width": 24,
      "Height": 16,
      "Pattern": 572
    },
    {
      "Layer": 1,
      "X": 984,
      "Y": 408,
      "Width": 24,
      "Height": 16,
      "Pattern": 572
    },
    {
      "Layer": 1,
      "X": 984,
      "Y": 392,
      "Width": 24,
      "Height": 16,
      "Pattern": 572
    },
    {
      "Layer": 1,
      "X": 984,
      "Y": 344,
      "Width": 24,
      "Height": 16,
      "Pattern": 572
    },
    {
      "Layer": 1,
      "X": 632,
      "Y": 440,
      "Width": 24,
      "Height": 16,
      "Pattern": 572
    },
    {
      "Layer": 1,
      "X": 712,
      "Y": 600,
      "Width": 24,
      "Height": 16,
      "Pattern": 573
    },
    {
      "Layer": 1,
      "X": 712,
      "Y": 504,
      "Width": 24,
      "Height": 16,
      "Pattern": 573
    },
    {
      "Layer": 1,
      "X": 984,
      "Y": 648,
      "Width": 24,
      "Height": 16,
      "Pattern": 573
    },
    {
      "Layer": 1,
      "X": 984,
      "Y": 536,
      "Width": 24,
      "Height": 16,
      "Pattern": 573
    },
    {
      "Layer": 1,
      "X": 984,
      "Y": 568,
      "Width": 24,
      "Height": 16,
      "Pattern": 573
    },
    {
      "Layer": 1,
      "X": 984,
      "Y": 440,
      "Width": 24,
      "Height": 16,
      "Pattern": 573
    },
    {
      "Layer": 1,
      "X": 984,
      "Y": 360,
      "Width": 24,
      "Height": 16,
      "Pattern": 573
    },
    {
      "Layer": 1,
      "X": 632,
      "Y": 456,
      "Width": 24,
      "Height": 16,
      "Pattern": 573
    },
    {
      "Layer": 1,
      "X": 864,
      "Y": 424,
      "Width": 24,
      "Height": 16,
      "Pattern": 574
    },
    {
      "Layer": 1,
      "X": 784,
      "Y": 504,
      "Width": 24,
      "Height": 16,
      "Pattern": 574
    },
    {
      "Layer": 1,
      "X": 784,
      "Y": 584,
      "Width": 24,
      "Height": 16,
      "Pattern": 574
    },
    {
      "Layer": 1,
      "X": 784,
      "Y": 664,
      "Width": 24,
      "Height": 16,
      "Pattern": 574
    },
    {
      "Layer": 1,
      "X": 784,
      "Y": 520,
      "Width": 24,
      "Height": 16,
      "Pattern": 574
    },
    {
      "Layer": 1,
      "X": 864,
      "Y": 456,
      "Width": 24,
      "Height": 16,
      "Pattern": 574
    },
    {
      "Layer": 1,
      "X": 512,
      "Y": 632,
      "Width": 24,
      "Height": 16,
      "Pattern": 574
    },
    {
      "Layer": 1,
      "X": 512,
      "Y": 568,
      "Width": 24,
      "Height": 16,
      "Pattern": 574
    },
    {
      "Layer": 1,
      "X": 512,
      "Y": 472,
      "Width": 24,
      "Height": 16,
      "Pattern": 574
    },
    {
      "Layer": 1,
      "X": 512,
      "Y": 440,
      "Width": 24,
      "Height": 16,
      "Pattern": 574
    },
    {
      "Layer": 1,
      "X": 512,
      "Y": 344,
      "Width": 24,
      "Height": 16,
      "Pattern": 574
    },
    {
      "Layer": 1,
      "X": 512,
      "Y": 360,
      "Width": 24,
      "Height": 16,
      "Pattern": 574
    },
    {
      "Layer": 1,
      "X": 512,
      "Y": 616,
      "Width": 24,
      "Height": 16,
      "Pattern": 575
    },
    {
      "Layer": 1,
      "X": 512,
      "Y": 504,
      "Width": 24,
      "Height": 16,
      "Pattern": 575
    },
    {
      "Layer": 1,
      "X": 512,
      "Y": 376,
      "Width": 24,
      "Height": 16,
      "Pattern": 575
    },
    {
      "Layer": 1,
      "X": 864,
      "Y": 440,
      "Width": 24,
      "Height": 16,
      "Pattern": 575
    },
    {
      "Layer": 1,
      "X": 536,
      "Y": 680,
      "Width": 16,
      "Height": 24,
      "Pattern": 576
    },
    {
      "Layer": 1,
      "X": 632,
      "Y": 680,
      "Width": 16,
      "Height": 24,
      "Pattern": 576
    },
    {
      "Layer": 1,
      "X": 584,
      "Y": 680,
      "Width": 16,
      "Height": 24,
      "Pattern": 576
    },
    {
      "Layer": 1,
      "X": 696,
      "Y": 680,
      "Width": 16,
      "Height": 24,
      "Pattern": 576
    },
    {
      "Layer": 1,
      "X": 840,
      "Y": 680,
      "Width": 16,
      "Height": 24,
      "Pattern": 576
    },
    {
      "Layer": 1,
      "X": 856,
      "Y": 680,
      "Width": 16,
      "Height": 24,
      "Pattern": 576
    },
    {
      "Layer": 1,
      "X": 936,
      "Y": 680,
      "Width": 16,
      "Height": 24,
      "Pattern": 576
    },
    {
      "Layer": 1,
      "X": 680,
      "Y": 408,
      "Width": 16,
      "Height": 24,
      "Pattern": 576
    },
    {
      "Layer": 1,
      "X": 744,
      "Y": 408,
      "Width": 16,
      "Height": 24,
      "Pattern": 576
    },
    {
      "Layer": 1,
      "X": 776,
      "Y": 408,
      "Width": 16,
      "Height": 24,
      "Pattern": 576
    },
    {
      "Layer": 1,
      "X": 664,
      "Y": 408,
      "Width": 16,
      "Height": 24,
      "Pattern": 577
    },
    {
      "Layer": 1,
      "X": 808,
      "Y": 408,
      "Width": 16,
      "Height": 24,
      "Pattern": 577
    },
    {
      "Layer": 1,
      "X": 760,
      "Y": 408,
      "Width": 16,
      "Height": 24,
      "Pattern": 577
    },
    {
      "Layer": 1,
      "X": 952,
      "Y": 680,
      "Width": 16,
      "Height": 24,
      "Pattern": 577
    },
    {
      "Layer": 1,
      "X": 824,
      "Y": 680,
      "Width": 16,
      "Height": 24,
      "Pattern": 577
    },
    {
      "Layer": 1,
      "X": 664,
      "Y": 680,
      "Width": 16,
      "Height": 24,
      "Pattern": 577
    },
    {
      "Layer": 1,
      "X": 568,
      "Y": 680,
      "Width": 16,
      "Height": 24,
      "Pattern": 577
    },
    {
      "Layer": 1,
      "X": 584,
      "Y": 320,
      "Width": 16,
      "Height": 24,
      "Pattern": 571
    },
    {
      "Layer": 1,
      "X": 728,
      "Y": 320,
      "Width": 16,
      "Height": 24,
      "Pattern": 571
    },
    {
      "Layer": 1,
      "X": 808,
      "Y": 320,
      "Width": 16,
      "Height": 24,
      "Pattern": 571
    },
    {
      "Layer": 1,
      "X": 920,
      "Y": 320,
      "Width": 16,
      "Height": 24,
      "Pattern": 571
    },
    {
      "Layer": 1,
      "X": 240,
      "Y": 680,
      "Width": 8,
      "Height": 16,
      "Pattern": 74
    },
    {
      "Layer": 1,
      "X": 264,
      "Y": 680,
      "Width": 8,
      "Height": 16,
      "Pattern": 75
    },
    {
      "Layer": 1,
      "X": 248,
      "Y": 680,
      "Width": 16,
      "Height": 16,
      "Pattern": 193
    },
    {
      "Layer": 1,
      "X": 816,
      "Y": 640,
      "Width": 16,
      "Height": 32,
      "Pattern": 2
    },
    {
      "Layer": 1,
      "X": 960,
      "Y": 640,
      "Width": 16,
      "Height": 32,
      "Pattern": 2
    },
    {
      "Layer": 1,
      "X": 960,
      "Y": 352,
      "Width": 16,
      "Height": 32,
      "Pattern": 2
    },
    {
      "Layer": 1,
      "X": 544,
      "Y": 352,
      "Width": 16,
      "Height": 32,
      "Pattern": 2
    },
    {
      "Layer": 1,
      "X": 560,
      "Y": 352,
      "Width": 16,
      "Height": 16,
      "Pattern": 2
    },
    {
      "Layer": 1,
      "X": 944,
      "Y": 352,
      "Width": 16,
      "Height": 16,
      "Pattern": 2
    },
    {
      "Layer": 1,
      "X": 360,
      "Y": 240,
      "Width": 16,
      "Height": 24,
      "Pattern": 570
    },
    {
      "Layer": 1,
      "X": 392,
      "Y": 240,
      "Width": 16,
      "Height": 24,
      "Pattern": 570
    },
    {
      "Layer": 1,
      "X": 440,
      "Y": 240,
      "Width": 16,
      "Height": 24,
      "Pattern": 570
    },
    {
      "Layer": 1,
      "X": 344,
      "Y": 240,
      "Width": 16,
      "Height": 24,
      "Pattern": 571
    },
    {
      "Layer": 1,
      "X": 296,
      "Y": 240,
      "Width": 16,
      "Height": 24,
      "Pattern": 570
    },
    {
      "Layer": 1,
      "X": 264,
      "Y": 240,
      "Width": 16,
      "Height": 24,
      "Pattern": 571
    },
    {
      "Layer": 1,
      "X": 472,
      "Y": 360,
      "Width": 24,
      "Height": 16,
      "Pattern": 573
    },
    {
      "Layer": 1,
      "X": 48,
      "Y": 656,
      "Width": 32,
      "Height": 16,
      "Pattern": 2
    },
    {
      "Layer": 1,
      "X": 432,
      "Y": 656,
      "Width": 32,
      "Height": 16,
      "Pattern": 2
    },
    {
      "Layer": 1,
      "X": 16,
      "Y": 376,
      "Width": 24,
      "Height": 16,
      "Pattern": 575
    },
    {
      "Layer": 1,
      "X": 48,
      "Y": 400,
      "Width": 416,
      "Height": 88,
      "Pattern": 399
    },
    {
      "Layer": 1,
      "X": 416,
      "Y": 248,
      "Width": 32,
      "Height": 16,
      "Pattern": 337
    },
    {
      "Layer": 1,
      "X": 48,
      "Y": 488,
      "Width": 416,
      "Height": 8,
      "Pattern": 401
    },
    {
      "Layer": 1,
      "X": 48,
      "Y": 392,
      "Width": 416,
      "Height": 8,
      "Pattern": 401
    },
    {
      "Layer": 1,
      "X": 48,
      "Y": 272,
      "Width": 32,
      "Height": 16,
      "Pattern": 2
    },
    {
      "Layer": 1,
      "X": 432,
      "Y": 272,
      "Width": 32,
      "Height": 16,
      "Pattern": 2
    },
    {
      "Layer": 1,
      "X": 848,
      "Y": 544,
      "Width": 96,
      "Height": 80,
      "Pattern": 519
    },
    {
      "Layer": 1,
      "X": 920,
      "Y": 416,
      "Width": 32,
      "Height": 80,
      "Pattern": 519
    },
    {
      "Layer": 1,
      "X": 576,
      "Y": 544,
      "Width": 96,
      "Height": 80,
      "Pattern": 519
    },
    {
      "Layer": 1,
      "X": 568,
      "Y": 416,
      "Width": 32,
      "Height": 80,
      "Pattern": 519
    },
    {
      "Layer": 1,
      "X": 704,
      "Y": 352,
      "Width": 112,
      "Height": 16,
      "Pattern": 519
    },
    {
      "Layer": 1,
      "X": 560,
      "Y": 120,
      "Width": 80,
      "Height": 48,
      "Pattern": 562
    },
    {
      "Layer": 1,
      "X": 320,
      "Y": 120,
      "Width": 80,
      "Height": 48,
      "Pattern": 562
    },
    {
      "Name": "miniboss_prickles",
      "Layer": 1,
      "X": 584,
      "Y": 744,
      "Pattern": 519,
      "Width": 96,
      "Height": 32,
      "EnabledAtStart": false
    },
    {
      "Name": "miniboss_prickles_3",
      "Layer": 1,
      "X": 648,
      "Y": 776,
      "Pattern": 519,
      "Width": 32,
      "Height": 96,
      "EnabledAtStart": false
    },
    {
      "Name": "miniboss_prickles_2",
      "Layer": 1,
      "X": 632,
      "Y": 776,
      "Pattern": 519,
      "Width": 16,
      "Height": 16,
      "EnabledAtStart": false
    },
    {
      "Layer": 2,
      "X": 200,
      "Y": 696,
      "Width": 96,
      "Height": 8,
      "Pattern": 438
    },
    {
      "Layer": 2,
      "X": 344,
      "Y": 16,
      "Width": 160,
      "Height": 8,
      "Pattern": 437
    },
    {
      "Layer": 2,
      "X": 72,
      "Y": 216,
      "Width": 96,
      "Height": 8,
      "Pattern": 438
    },
    {
      "Layer": 2,
      "X": 72,
      "Y": 240,
      "Width": 96,
      "Height": 8,
      "Pattern": 437
    },
    {
      "Layer": 2,
      "X": 120,
      "Y": 16,
      "Width": 64,
      "Height": 8,
      "Pattern": 437
    },
    {
      "Layer": 2,
      "X": 792,
      "Y": 480,
      "Width": 64,
      "Height": 8,
      "Pattern": 437
    },
    {
      "Layer": 2,
      "X": 720,
      "Y": 792,
      "Width": 8,
      "Height": 96,
      "Pattern": 441
    },
    {
      "Layer": 2,
      "X": 696,
      "Y": 792,
      "Width": 8,
      "Height": 96,
      "Pattern": 442
    },
    {
      "Layer": 2,
      "X": 568,
      "Y": 696,
      "Width": 96,
      "Height": 8,
      "Pattern": 438
    },
    {
      "Layer": 2,
      "X": 568,
      "Y": 720,
      "Width": 96,
      "Height": 8,
      "Pattern": 437
    },
    {
      "Layer": 2,
      "X": 368,
      "Y": 16,
      "Width": 32,
      "Height": 8,
      "Pattern": 429
    },
    {
      "Layer": 2,
      "X": 608,
      "Y": 720,
      "Width": 32,
      "Height": 8,
      "Pattern": 154
    },
    {
      "Layer": 2,
      "X": 696,
      "Y": 832,
      "Width": 8,
      "Height": 32,
      "Pattern": 353
    },
    {
      "Layer": 2,
      "X": 720,
      "Y": 832,
      "Width": 8,
      "Height": 32,
      "Pattern": 352
    },
    {
      "Layer": 2,
      "X": 608,
      "Y": 696,
      "Width": 32,
      "Height": 8,
      "Pattern": 155
    },
    {
      "Layer": 2,
      "X": 832,
      "Y": 480,
      "Width": 32,
      "Height": 8,
      "Pattern": 429
    },
    {
      "Layer": 2,
      "X": 840,
      "Y": 480,
      "Width": 16,
      "Height": 8,
      "Pattern": 435
    },
    {
      "Layer": 2,
      "X": 656,
      "Y": 432,
      "Width": 208,
      "Height": 48,
      "Pattern": 170
    },
    {
      "Layer": 2,
      "X": 736,
      "Y": 480,
      "Width": 48,
      "Height": 224,
      "Pattern": 170
    },
    {
      "Layer": 2,
      "X": 704,
      "Y": 704,
      "Width": 304,
      "Height": 80,
      "Pattern": 170
    },
    {
      "Layer": 2,
      "X": 704,
      "Y": 784,
      "Width": 16,
      "Height": 224,
      "Pattern": 170
    },
    {
      "Layer": 2,
      "X": 16,
      "Y": 704,
      "Width": 688,
      "Height": 16,
      "Pattern": 170
    },
    {
      "Layer": 2,
      "X": 0,
      "Y": 0,
      "Width": 1024,
      "Height": 16,
      "Pattern": 170
    },
    {
      "Layer": 2,
      "X": 0,
      "Y": 16,
      "Width": 16,
      "Height": 992,
      "Pattern": 170
    },
    {
      "Layer": 2,
      "X": 1008,
      "Y": 16,
      "Width": 16,
      "Height": 992,
      "Pattern": 170
    },
    {
      "Layer": 2,
      "X": 0,
      "Y": 1008,
      "Width": 1024,
      "Height": 16,
      "Pattern": 170
    },
    {
      "Layer": 2,
      "X": 16,
      "Y": 720,
      "Width": 240,
      "Height": 288,
      "Pattern": 170
    },
    {
      "Layer": 2,
      "X": 432,
      "Y": 16,
      "Width": 32,
      "Height": 8,
      "Pattern": 429
    },
    {
      "Layer": 2,
      "X": 376,
      "Y": 16,
      "Width": 16,
      "Height": 8,
      "Pattern": 433
    },
    {
      "Layer": 2,
      "X": 704,
      "Y": 16,
      "Width": 304,
      "Height": 304,
      "Pattern": 170
    },
    {
      "Layer": 2,
      "X": 496,
      "Y": 240,
      "Width": 208,
      "Height": 80,
      "Pattern": 170
    },
    {
      "Layer": 2,
      "X": 496,
      "Y": 320,
      "Width": 16,
      "Height": 384,
      "Pattern": 170
    },
    {
      "Layer": 2,
      "X": 16,
      "Y": 224,
      "Width": 152,
      "Height": 16,
      "Pattern": 170
    },
    {
      "Layer": 2,
      "X": 112,
      "Y": 216,
      "Width": 32,
      "Height": 8,
      "Pattern": 155
    },
    {
      "Layer": 2,
      "X": 112,
      "Y": 240,
      "Width": 32,
      "Height": 8,
      "Pattern": 154
    },
    {
      "Layer": 2,
      "X": 440,
      "Y": 16,
      "Width": 16,
      "Height": 8,
      "Pattern": 435
    },
    {
      "Layer": 2,
      "X": 240,
      "Y": 16,
      "Width": 16,
      "Height": 208,
      "Pattern": 170
    },
    {
      "Layer": 2,
      "X": 144,
      "Y": 16,
      "Width": 32,
      "Height": 8,
      "Pattern": 429
    },
    {
      "Layer": 2,
      "X": 152,
      "Y": 16,
      "Width": 16,
      "Height": 8,
      "Pattern": 435
    },
    {
      "Layer": 2,
      "X": 240,
      "Y": 696,
      "Width": 32,
      "Height": 8,
      "Pattern": 430
    },
    {
      "Layer": 2,
      "X": 248,
      "Y": 696,
      "Width": 16,
      "Height": 8,
      "Pattern": 434
    },
    {
      "Layer": 2,
      "X": 496,
      "Y": 224,
      "Width": 208,
      "Height": 16,
      "Pattern": 170
    },
    {
      "Name": "final_room_door_closed",
      "Layer": 2,
      "X": 240,
      "Y": 696,
      "Pattern": 155,
      "Width": 32,
      "Height": 8,
      "EnabledAtStart": true
    }
  ],
  "Destination": [
    {
      "Name": "from_3F_e",
      "Layer": 1,
      "X": 848,
      "Y": 501,
      "Direction": 3
    },
    {
      "Name": "from_3F_nc",
      "Layer": 1,
      "X": 448,
      "Y": 37,
      "Direction": 3
    },
    {
      "Name": "from_5F",
      "Layer": 1,
      "X": 384,
      "Y": 37,
      "Direction": 3
    },
    {
      "Name": "from_3F_nw",
      "Layer": 1,
      "X": 160,
      "Y": 37,
      "Direction": 3
    },
    {
      "Name": "from_5F_hole",
      "Layer": 1,
      "X": 360,
      "Y": 165,
      "Direction": -1
    },
    {
      "Name": "from_5f_c",
      "Layer": 1,
      "X": 256,
      "Y": 693,
      "Direction": 1
    },
    {
      "Name": "tmp",
      "Layer": 1,
      "X": 128,
      "Y": 277,
      "Direction": 3
    },
    {
      "Name": "miniboss_shortcut",
      "Layer": 1,
      "X": 624,
      "Y": 749,
      "Direction": 3
    }
  ],
  "Teletransporter": [
    {
      "Name": "teletransporter",
      "Layer": 1,
      "X": 952,
      "Y": 952,
      "Width": 32,
      "Height": 32,
      "DestinationMap": 42,
      "Destination": "from_4F_hole_se"
    },
    {
      "Name": "teletransporter_2",
      "Layer": 1,
      "X": 320,
      "Y": 120,
      "Width": 80,
      "Height": 48,
      "DestinationMap": 42,
      "Destination": "_same"
    },
    {
      "Name": "teletransporter_3",
      "Layer": 1,
      "X": 152,
      "Y": 24,
      "Width": 16,
      "Height": 16,
      "DestinationMap": 42,
      "Destination": "from_4F_nw"
    },
    {
      "Name": "teletransporter_4",
      "Layer": 1,
      "X": 440,
      "Y": 24,
      "Width": 16,
      "Height": 16,
      "DestinationMap": 42,
      "Destination": "from_4F_n"
    },
    {
      "Name": "teletransporter_5",
      "Layer": 1,
      "X": 840,
      "Y": 488,
      "Width": 16,
      "Height": 16,
      "DestinationMap": 42,
      "Destination": "from_4F_e"
    },
    {
      "Name": "teletransporter_6",
      "Layer": 1,
      "X": 376,
      "Y": 24,
      "Width": 16,
      "Height": 16,
      "DestinationMap": 54,
      "Destination": "from_4F"
    },
    {
      "Name": "teletransporter_7",
      "Layer": 1,
      "X": 248,
      "Y": 680,
      "Width": 16,
      "Height": 16,
      "DestinationMap": 85,
      "Destination": "from_4f"
    }
  ],
  "Stairs": [
    {
      "Name": "stairs",
      "Layer": 0,
      "X": 912,
      "Y": 920,
      "Direction": 0,
      "Subtype": 4
    },
    {
      "Name": "stairs_2",
      "Layer": 0,
      "X": 800,
      "Y": 856,
      "Direction": 2,
      "Subtype": 4
    },
    {
      "Name": "stairs_3",
      "Layer": 1,
      "X": 152,
      "Y": 24,
      "Direction": 1,
      "Subtype": 1
    },
    {
      "Name": "stairs_4",
      "Layer": 1,
      "X": 440,
      "Y": 24,
      "Direction": 1,
      "Subtype": 1
    },
    {
      "Name": "stairs_5",
      "Layer": 1,
      "X": 840,
      "Y": 488,
      "Direction": 1,
      "Subtype": 1
    },
    {
      "Name": "stairs_6",
      "Layer": 1,
      "X": 376,
      "Y": 24,
      "Direction": 1,
      "Subtype": 0
    },
    {
      "Name": "stairs_7",
      "Layer": 1,
      "X": 248,
      "Y": 680,
      "Direction": 3,
      "Subtype": 0
    }
  ],
  "Pickable": [
    {
      "Layer": 1,
      "X": 80,
      "Y": 125,
      "TreasureName": "fairy"
    },
    {
      "Layer": 1,
      "X": 176,
      "Y": 125,
      "TreasureName": "fairy"
    }
  ],
  "Sensor": [
    {
      "Name": "start_miniboss_sensor",
      "Layer": 1,
      "X": 624,
      "Y": 757,
      "Width": 16,
      "Height": 16
    },
    {
      "Name": "start_miniboss_sensor_2",
      "Layer": 1,
      "X": 616,
      "Y": 797,
      "Width": 32,
      "Height": 32
    },
    {
      "Name": "start_boss_sensor",
      "Layer": 1,
      "X": 120,
      "Y": 277,
      "Width": 32,
      "Height": 16
    }
  ],
  "Door": [
    {
      "Name": "miniboss_door",
      "Layer": 1,
      "X": 616,
      "Y": 728,
      "Direction": 1,
      "Sprite": "entities\/door_normal"
    },
    {
      "Name": "miniboss_door_2",
      "Layer": 1,
      "X": 616,
      "Y": 680,
      "Direction": 3,
      "Sprite": "entities\/door_normal"
    },
    {
      "Name": "miniboss_door_3",
      "Layer": 1,
      "X": 680,
      "Y": 840,
      "Direction": 0,
      "Sprite": "entities\/door_normal"
    },
    {
      "Name": "miniboss_door_4",
      "Layer": 1,
      "X": 728,
      "Y": 840,
      "Direction": 2,
      "Sprite": "entities\/door_normal"
    },
    {
      "Name": "door",
      "Layer": 1,
      "X": 120,
      "Y": 248,
      "Direction": 1,
      "Sprite": "entities\/door_boss_key",
      "SaveGameVariable": "b906",
      "OpeningMethod": "interaction_if_savegame_variable",
      "OpeningCondition": "dungeon_3_boss_key",
      "CannotOpenDialog": "_boss_key_required"
    },
    {
      "Name": "door_2",
      "Layer": 1,
      "X": 120,
      "Y": 200,
      "Direction": 3,
      "Sprite": "entities\/door_boss_key",
      "SaveGameVariable": "b906",
      "OpeningMethod": "interaction_if_savegame_variable",
      "OpeningCondition": "dungeon_3_boss_key",
      "CannotOpenDialog": "_boss_key_required"
    },
    {
      "Name": "final_room_door",
      "Layer": 1,
      "X": 248,
      "Y": 680,
      "Direction": 3,
      "Sprite": "entities\/door_normal"
    },
    {
      "Name": "boss_door_2",
      "Layer": 1,
      "X": 120,
      "Y": 248,
      "Direction": 1,
      "Sprite": "entities\/door_normal"
    },
    {
      "Name": "boss_door_3",
      "Layer": 1,
      "X": 120,
      "Y": 200,
      "Direction": 3,
      "Sprite": "entities\/door_normal"
    },
    {
      "Name": "door_4",
      "Layer": 1,
      "X": 616,
      "Y": 680,
      "Direction": 3,
      "Sprite": "entities\/door_big_key",
      "SaveGameVariable": "b925",
      "OpeningMethod": "interaction_if_savegame_variable",
      "OpeningCondition": "dungeon_3_big_key",
      "CannotOpenDialog": "_big_key_required"
    },
    {
      "Name": "door_3",
      "Layer": 1,
      "X": 616,
      "Y": 728,
      "Direction": 1,
      "Sprite": "entities\/door_big_key",
      "SaveGameVariable": "b925",
      "OpeningMethod": "interaction_if_savegame_variable",
      "OpeningCondition": "dungeon_3_big_key",
      "CannotOpenDialog": "_big_key_required"
    }
  ],
  "DynamicTile": [
    {
      "Name": "miniboss_prickles",
      "Layer": 1,
      "X": 584,
      "Y": 744,
      "Pattern": 519,
      "Width": 96,
      "Height": 32,
      "EnabledAtStart": false
    },
    {
      "Name": "miniboss_prickles_3",
      "Layer": 1,
      "X": 648,
      "Y": 776,
      "Pattern": 519,
      "Width": 32,
      "Height": 96,
      "EnabledAtStart": false
    },
    {
      "Name": "miniboss_prickles_2",
      "Layer": 1,
      "X": 632,
      "Y": 776,
      "Pattern": 519,
      "Width": 16,
      "Height": 16,
      "EnabledAtStart": false
    },
    {
      "Name": "final_room_door_closed",
      "Layer": 2,
      "X": 240,
      "Y": 696,
      "Pattern": 155,
      "Width": 32,
      "Height": 8,
      "EnabledAtStart": true
    }
  ],
  "Npc": [],
  "Block": [],
  "Chest": [],
  "Jumper": [
    {
      "Name": "jumper_3",
      "Layer": 1,
      "X": 928,
      "Y": 944,
      "Width": 8,
      "Height": 16,
      "Direction": 4,
      "JumpLength": 40
    },
    {
      "Name": "jumper_4",
      "Layer": 1,
      "X": 928,
      "Y": 832,
      "Width": 8,
      "Height": 80,
      "Direction": 4,
      "JumpLength": 40
    },
    {
      "Name": "jumper_2",
      "Layer": 1,
      "X": 792,
      "Y": 880,
      "Width": 8,
      "Height": 80,
      "Direction": 0,
      "JumpLength": 40
    },
    {
      "Name": "jumper",
      "Layer": 1,
      "X": 792,
      "Y": 832,
      "Width": 8,
      "Height": 16,
      "Direction": 0,
      "JumpLength": 40
    }
  ],
  "Wall": [
    {
      "Layer": 1,
      "X": 616,
      "Y": 680,
      "Width": 16,
      "Height": 16,
      "StopsEnemies": true
    },
    {
      "Name": "custom_obstacle_5",
      "Layer": 1,
      "X": 176,
      "Y": 584,
      "Width": 160,
      "Height": 8,
      "StopsEnemies": true
    },
    {
      "Name": "custom_obstacle_8",
      "Layer": 1,
      "X": 328,
      "Y": 512,
      "Width": 8,
      "Height": 72,
      "StopsEnemies": true
    },
    {
      "Name": "custom_obstacle_7",
      "Layer": 1,
      "X": 176,
      "Y": 512,
      "Width": 8,
      "Height": 72,
      "StopsEnemies": true
    },
    {
      "Name": "custom_obstacle_6",
      "Layer": 1,
      "X": 176,
      "Y": 504,
      "Width": 160,
      "Height": 8,
      "StopsEnemies": true
    },
    {
      "Name": "custom_obstacle",
      "Layer": 1,
      "X": 792,
      "Y": 848,
      "Width": 32,
      "Height": 8,
      "StopsHero": true,
      "StopsNpcs": true,
      "StopsEnemies": true,
      "StopsBlocks": true
    },
    {
      "Name": "custom_obstacle_2",
      "Layer": 1,
      "X": 792,
      "Y": 872,
      "Width": 32,
      "Height": 8,
      "StopsHero": true,
      "StopsNpcs": true,
      "StopsEnemies": true,
      "StopsBlocks": true
    },
    {
      "Name": "custom_obstacle_3",
      "Layer": 1,
      "X": 904,
      "Y": 912,
      "Width": 32,
      "Height": 8,
      "StopsHero": true,
      "StopsNpcs": true,
      "StopsEnemies": true,
      "StopsBlocks": true
    },
    {
      "Name": "custom_obstacle_4",
      "Layer": 1,
      "X": 904,
      "Y": 936,
      "Width": 32,
      "Height": 8,
      "StopsHero": true,
      "StopsNpcs": true,
      "StopsEnemies": true,
      "StopsBlocks": true
    }
  ],
  "Enemy": [
    {
      "Name": "boss",
      "Layer": 1,
      "X": 252,
      "Y": 533,
      "Direction": 3,
      "Breed": "master_arbror",
      "SaveGameVariable": "b902",
      "TreasureName": "heart_container",
      "TreasureSaveGameVariable": "b903"
    },
    {
      "Name": "miniboss",
      "Layer": 1,
      "X": 480,
      "Y": 872,
      "Direction": 3,
      "Breed": "mowatulla",
      "SaveGameVariable": "b901",
      "TreasureName": "fairy"
    },
    {
      "Name": "enemy",
      "Layer": 1,
      "X": 864,
      "Y": 656,
      "Direction": 3,
      "Breed": "bubble",
      "TreasureName": "random"
    },
    {
      "Name": "enemy_2",
      "Layer": 1,
      "X": 648,
      "Y": 528,
      "Direction": 3,
      "Breed": "bubble",
      "TreasureName": "random"
    },
    {
      "Name": "enemy_3",
      "Layer": 1,
      "X": 480,
      "Y": 173,
      "Direction": 3,
      "Breed": "bee_guard",
      "TreasureName": "random"
    },
    {
      "Name": "enemy_4",
      "Layer": 1,
      "X": 616,
      "Y": 85,
      "Direction": 3,
      "Breed": "bee_guard",
      "TreasureName": "random"
    },
    {
      "Name": "enemy_5",
      "Layer": 1,
      "X": 616,
      "Y": 389,
      "Direction": 3,
      "Breed": "bee_guard",
      "TreasureName": "random"
    },
    {
      "Name": "enemy_6",
      "Layer": 1,
      "X": 944,
      "Y": 533,
      "Direction": 3,
      "Breed": "mandible",
      "TreasureName": "random"
    }
  ],
  "Destructible": [
    {
      "Layer": 1,
      "X": 696,
      "Y": 653,
      "TreasureName": "random",
      "Sprite": "entities\/pot",
      "DestructionSound": "stone",
      "DamageOnEnemies": 2
    },
    {
      "Layer": 1,
      "X": 552,
      "Y": 669,
      "TreasureName": "random",
      "Sprite": "entities\/pot",
      "DestructionSound": "stone",
      "DamageOnEnemies": 2
    },
    {
      "Layer": 1,
      "X": 696,
      "Y": 669,
      "TreasureName": "heart",
      "Sprite": "entities\/pot",
      "DestructionSound": "stone",
      "DamageOnEnemies": 2
    },
    {
      "Layer": 1,
      "X": 552,
      "Y": 653,
      "TreasureName": "arrow",
      "TreasureVariant": 2,
      "Sprite": "entities\/pot",
      "DestructionSound": "stone",
      "DamageOnEnemies": 2
    },
    {
      "Layer": 1,
      "X": 824,
      "Y": 653,
      "TreasureName": "random",
      "Sprite": "entities\/pot",
      "DestructionSound": "stone",
      "DamageOnEnemies": 2
    },
    {
      "Layer": 1,
      "X": 824,
      "Y": 669,
      "TreasureName": "random",
      "Sprite": "entities\/pot",
      "DestructionSound": "stone",
      "DamageOnEnemies": 2
    },
    {
      "Layer": 1,
      "X": 968,
      "Y": 653,
      "TreasureName": "random",
      "Sprite": "entities\/pot",
      "DestructionSound": "stone",
      "DamageOnEnemies": 2
    },
    {
      "Layer": 1,
      "X": 968,
      "Y": 669,
      "TreasureName": "random",
      "Sprite": "entities\/pot",
      "DestructionSound": "stone",
      "DamageOnEnemies": 2
    },
    {
      "Layer": 1,
      "X": 552,
      "Y": 365,
      "TreasureName": "random",
      "Sprite": "entities\/pot",
      "DestructionSound": "stone",
      "DamageOnEnemies": 2
    },
    {
      "Layer": 1,
      "X": 552,
      "Y": 381,
      "TreasureName": "random",
      "Sprite": "entities\/pot",
      "DestructionSound": "stone",
      "DamageOnEnemies": 2
    },
    {
      "Layer": 1,
      "X": 968,
      "Y": 365,
      "TreasureName": "random",
      "Sprite": "entities\/pot",
      "DestructionSound": "stone",
      "DamageOnEnemies": 2
    },
    {
      "Layer": 1,
      "X": 968,
      "Y": 381,
      "TreasureName": "random",
      "Sprite": "entities\/pot",
      "DestructionSound": "stone",
      "DamageOnEnemies": 2
    },
    {
      "Layer": 1,
      "X": 568,
      "Y": 365,
      "TreasureName": "random",
      "Sprite": "entities\/pot",
      "DestructionSound": "stone",
      "DamageOnEnemies": 2
    },
    {
      "Layer": 1,
      "X": 952,
      "Y": 365,
      "TreasureName": "random",
      "Sprite": "entities\/pot",
      "DestructionSound": "stone",
      "DamageOnEnemies": 2
    },
    {
      "Layer": 1,
      "X": 56,
      "Y": 669,
      "TreasureName": "heart",
      "Sprite": "entities\/pot",
      "DestructionSound": "stone",
      "DamageOnEnemies": 2
    },
    {
      "Layer": 1,
      "X": 456,
      "Y": 669,
      "TreasureName": "heart",
      "Sprite": "entities\/pot",
      "DestructionSound": "stone",
      "DamageOnEnemies": 2
    },
    {
      "Layer": 1,
      "X": 72,
      "Y": 669,
      "TreasureName": "heart",
      "Sprite": "entities\/pot",
      "DestructionSound": "stone",
      "DamageOnEnemies": 2
    },
    {
      "Layer": 1,
      "X": 440,
      "Y": 669,
      "TreasureName": "heart",
      "Sprite": "entities\/pot",
      "DestructionSound": "stone",
      "DamageOnEnemies": 2
    },
    {
      "Layer": 1,
      "X": 56,
      "Y": 285,
      "TreasureName": "heart",
      "Sprite": "entities\/pot",
      "DestructionSound": "stone",
      "DamageOnEnemies": 2
    },
    {
      "Layer": 1,
      "X": 456,
      "Y": 285,
      "TreasureName": "heart",
      "Sprite": "entities\/pot",
      "DestructionSound": "stone",
      "DamageOnEnemies": 2
    },
    {
      "Layer": 1,
      "X": 72,
      "Y": 285,
      "TreasureName": "heart",
      "Sprite": "entities\/pot",
      "DestructionSound": "stone",
      "DamageOnEnemies": 2
    },
    {
      "Layer": 1,
      "X": 440,
      "Y": 285,
      "TreasureName": "heart",
      "Sprite": "entities\/pot",
      "DestructionSound": "stone",
      "DamageOnEnemies": 2
    }
  ],
  "Switch": []
}
