{
  "Id": 73,
  "Description": "Lake shop",
  "Properties": {
    "X": 1992,
    "Y": 3328,
    "Width": 320,
    "Height": 320,
    "World": "inside_world",
    "MinLayer": 0,
    "MaxLayer": 2,
    "Tileset": 0,
    "Music": "fortune_teller"
  },
  "Tile": [
    {
      "Layer": 1,
      "X": 80,
      "Y": 160,
      "Width": 192,
      "Height": 112,
      "Pattern": 3
    },
    {
      "Layer": 1,
      "X": 240,
      "Y": 176,
      "Width": 32,
      "Height": 64,
      "Pattern": 212
    },
    {
      "Layer": 1,
      "X": 40,
      "Y": 16,
      "Width": 240,
      "Height": 24,
      "Pattern": 49
    },
    {
      "Layer": 1,
      "X": 96,
      "Y": 16,
      "Width": 16,
      "Height": 16,
      "Pattern": 38
    },
    {
      "Layer": 1,
      "X": 208,
      "Y": 16,
      "Width": 16,
      "Height": 16,
      "Pattern": 38
    },
    {
      "Layer": 1,
      "X": 16,
      "Y": 16,
      "Width": 24,
      "Height": 24,
      "Pattern": 45
    },
    {
      "Layer": 1,
      "X": 280,
      "Y": 16,
      "Width": 24,
      "Height": 24,
      "Pattern": 46
    },
    {
      "Layer": 1,
      "X": 16,
      "Y": 88,
      "Width": 24,
      "Height": 24,
      "Pattern": 47
    },
    {
      "Layer": 1,
      "X": 16,
      "Y": 40,
      "Width": 24,
      "Height": 48,
      "Pattern": 51
    },
    {
      "Layer": 1,
      "X": 40,
      "Y": 88,
      "Width": 240,
      "Height": 24,
      "Pattern": 52
    },
    {
      "Layer": 1,
      "X": 280,
      "Y": 40,
      "Width": 24,
      "Height": 48,
      "Pattern": 50
    },
    {
      "Layer": 1,
      "X": 280,
      "Y": 88,
      "Width": 24,
      "Height": 24,
      "Pattern": 48
    },
    {
      "Layer": 1,
      "X": 40,
      "Y": 40,
      "Width": 8,
      "Height": 8,
      "Pattern": 14
    },
    {
      "Layer": 1,
      "X": 272,
      "Y": 80,
      "Width": 8,
      "Height": 8,
      "Pattern": 17
    },
    {
      "Layer": 1,
      "X": 40,
      "Y": 80,
      "Width": 8,
      "Height": 8,
      "Pattern": 16
    },
    {
      "Layer": 1,
      "X": 272,
      "Y": 40,
      "Width": 8,
      "Height": 8,
      "Pattern": 15
    },
    {
      "Layer": 1,
      "X": 48,
      "Y": 80,
      "Width": 224,
      "Height": 8,
      "Pattern": 21
    },
    {
      "Layer": 1,
      "X": 48,
      "Y": 40,
      "Width": 224,
      "Height": 8,
      "Pattern": 18
    },
    {
      "Layer": 1,
      "X": 272,
      "Y": 48,
      "Width": 8,
      "Height": 32,
      "Pattern": 19
    },
    {
      "Layer": 1,
      "X": 40,
      "Y": 48,
      "Width": 8,
      "Height": 32,
      "Pattern": 20
    },
    {
      "Layer": 1,
      "X": 48,
      "Y": 128,
      "Width": 24,
      "Height": 24,
      "Pattern": 45
    },
    {
      "Layer": 1,
      "X": 280,
      "Y": 128,
      "Width": 24,
      "Height": 24,
      "Pattern": 46
    },
    {
      "Layer": 1,
      "X": 48,
      "Y": 280,
      "Width": 24,
      "Height": 24,
      "Pattern": 47
    },
    {
      "Layer": 1,
      "X": 48,
      "Y": 152,
      "Width": 24,
      "Height": 128,
      "Pattern": 51
    },
    {
      "Layer": 1,
      "X": 72,
      "Y": 280,
      "Width": 208,
      "Height": 24,
      "Pattern": 52
    },
    {
      "Layer": 1,
      "X": 72,
      "Y": 128,
      "Width": 208,
      "Height": 24,
      "Pattern": 49
    },
    {
      "Layer": 1,
      "X": 280,
      "Y": 152,
      "Width": 24,
      "Height": 128,
      "Pattern": 50
    },
    {
      "Layer": 1,
      "X": 280,
      "Y": 280,
      "Width": 24,
      "Height": 24,
      "Pattern": 48
    },
    {
      "Layer": 1,
      "X": 72,
      "Y": 152,
      "Width": 8,
      "Height": 8,
      "Pattern": 14
    },
    {
      "Layer": 1,
      "X": 272,
      "Y": 272,
      "Width": 8,
      "Height": 8,
      "Pattern": 17
    },
    {
      "Layer": 1,
      "X": 72,
      "Y": 272,
      "Width": 8,
      "Height": 8,
      "Pattern": 16
    },
    {
      "Layer": 1,
      "X": 272,
      "Y": 152,
      "Width": 8,
      "Height": 8,
      "Pattern": 15
    },
    {
      "Layer": 1,
      "X": 80,
      "Y": 272,
      "Width": 192,
      "Height": 8,
      "Pattern": 21
    },
    {
      "Layer": 1,
      "X": 80,
      "Y": 152,
      "Width": 192,
      "Height": 8,
      "Pattern": 18
    },
    {
      "Layer": 1,
      "X": 272,
      "Y": 160,
      "Width": 8,
      "Height": 112,
      "Pattern": 19
    },
    {
      "Layer": 1,
      "X": 72,
      "Y": 160,
      "Width": 8,
      "Height": 112,
      "Pattern": 20
    },
    {
      "Layer": 1,
      "X": 152,
      "Y": 24,
      "Width": 16,
      "Height": 16,
      "Pattern": 88
    },
    {
      "Layer": 1,
      "X": 144,
      "Y": 24,
      "Width": 8,
      "Height": 16,
      "Pattern": 84
    },
    {
      "Layer": 1,
      "X": 168,
      "Y": 24,
      "Width": 8,
      "Height": 16,
      "Pattern": 86
    },
    {
      "Layer": 1,
      "X": 152,
      "Y": -8,
      "Width": 16,
      "Height": 32,
      "Pattern": 3
    },
    {
      "Layer": 1,
      "X": 48,
      "Y": 48,
      "Width": 224,
      "Height": 32,
      "Pattern": 3
    },
    {
      "Layer": 1,
      "X": 144,
      "Y": 0,
      "Width": 8,
      "Height": 16,
      "Pattern": 71
    },
    {
      "Layer": 1,
      "X": 168,
      "Y": 0,
      "Width": 8,
      "Height": 16,
      "Pattern": 71
    },
    {
      "Layer": 1,
      "X": 152,
      "Y": -8,
      "Width": 16,
      "Height": 8,
      "Pattern": 70
    },
    {
      "Layer": 1,
      "X": 152,
      "Y": 280,
      "Width": 16,
      "Height": 16,
      "Pattern": 77
    },
    {
      "Layer": 1,
      "X": 144,
      "Y": 280,
      "Width": 8,
      "Height": 16,
      "Pattern": 74
    },
    {
      "Layer": 1,
      "X": 168,
      "Y": 280,
      "Width": 8,
      "Height": 16,
      "Pattern": 75
    },
    {
      "Layer": 1,
      "X": 200,
      "Y": 88,
      "Width": 16,
      "Height": 16,
      "Pattern": 77
    },
    {
      "Layer": 1,
      "X": 200,
      "Y": 136,
      "Width": 16,
      "Height": 16,
      "Pattern": 76
    },
    {
      "Layer": 1,
      "X": 192,
      "Y": 136,
      "Width": 8,
      "Height": 16,
      "Pattern": 72
    },
    {
      "Layer": 1,
      "X": 216,
      "Y": 136,
      "Width": 8,
      "Height": 16,
      "Pattern": 73
    },
    {
      "Layer": 1,
      "X": 192,
      "Y": 88,
      "Width": 8,
      "Height": 16,
      "Pattern": 74
    },
    {
      "Layer": 1,
      "X": 216,
      "Y": 88,
      "Width": 8,
      "Height": 16,
      "Pattern": 75
    },
    {
      "Layer": 1,
      "X": 200,
      "Y": 104,
      "Width": 16,
      "Height": 32,
      "Pattern": 3
    },
    {
      "Layer": 1,
      "X": 192,
      "Y": 112,
      "Width": 8,
      "Height": 16,
      "Pattern": 71
    },
    {
      "Layer": 1,
      "X": 216,
      "Y": 112,
      "Width": 8,
      "Height": 16,
      "Pattern": 71
    },
    {
      "Layer": 1,
      "X": 152,
      "Y": 296,
      "Width": 16,
      "Height": 32,
      "Pattern": 3
    },
    {
      "Layer": 1,
      "X": 144,
      "Y": 304,
      "Width": 8,
      "Height": 16,
      "Pattern": 71
    },
    {
      "Layer": 1,
      "X": 168,
      "Y": 304,
      "Width": 8,
      "Height": 16,
      "Pattern": 71
    },
    {
      "Layer": 1,
      "X": 152,
      "Y": 320,
      "Width": 16,
      "Height": 8,
      "Pattern": 70
    },
    {
      "Layer": 1,
      "X": 248,
      "Y": 24,
      "Width": 32,
      "Height": 16,
      "Pattern": 108
    },
    {
      "Layer": 1,
      "X": 48,
      "Y": 48,
      "Width": 48,
      "Height": 32,
      "Pattern": 13
    },
    {
      "Layer": 1,
      "X": 56,
      "Y": 16,
      "Width": 16,
      "Height": 32,
      "Pattern": 109
    },
    {
      "Layer": 1,
      "X": 72,
      "Y": 16,
      "Width": 16,
      "Height": 32,
      "Pattern": 111
    },
    {
      "Layer": 1,
      "X": 88,
      "Y": 16,
      "Width": 16,
      "Height": 32,
      "Pattern": 110
    },
    {
      "Layer": 1,
      "X": 96,
      "Y": 48,
      "Width": 48,
      "Height": 24,
      "Pattern": 137
    },
    {
      "Layer": 1,
      "X": 112,
      "Y": 72,
      "Width": 16,
      "Height": 16,
      "Pattern": 12
    },
    {
      "Layer": 1,
      "X": 216,
      "Y": 16,
      "Width": 16,
      "Height": 32,
      "Pattern": 109
    },
    {
      "Layer": 1,
      "X": 232,
      "Y": 16,
      "Width": 16,
      "Height": 32,
      "Pattern": 111
    },
    {
      "Layer": 1,
      "X": 248,
      "Y": 16,
      "Width": 16,
      "Height": 32,
      "Pattern": 110
    },
    {
      "Layer": 1,
      "X": 224,
      "Y": 40,
      "Width": 48,
      "Height": 24,
      "Pattern": 138
    },
    {
      "Layer": 1,
      "X": 248,
      "Y": 56,
      "Width": 32,
      "Height": 24,
      "Pattern": 138
    },
    {
      "Layer": 1,
      "X": 160,
      "Y": 72,
      "Width": 32,
      "Height": 16,
      "Pattern": 13
    },
    {
      "Layer": 1,
      "X": 48,
      "Y": 248,
      "Width": 16,
      "Height": 16,
      "Pattern": 40
    },
    {
      "Layer": 1,
      "X": 48,
      "Y": 168,
      "Width": 16,
      "Height": 16,
      "Pattern": 40
    },
    {
      "Layer": 1,
      "X": 288,
      "Y": 168,
      "Width": 16,
      "Height": 16,
      "Pattern": 39
    },
    {
      "Layer": 1,
      "X": 288,
      "Y": 248,
      "Width": 16,
      "Height": 16,
      "Pattern": 39
    },
    {
      "Layer": 1,
      "X": 104,
      "Y": 240,
      "Width": 8,
      "Height": 8,
      "Pattern": 213
    },
    {
      "Layer": 1,
      "X": 112,
      "Y": 240,
      "Width": 160,
      "Height": 8,
      "Pattern": 215
    },
    {
      "Layer": 1,
      "X": 272,
      "Y": 240,
      "Width": 8,
      "Height": 8,
      "Pattern": 214
    },
    {
      "Layer": 1,
      "X": 272,
      "Y": 176,
      "Width": 8,
      "Height": 64,
      "Pattern": 210
    },
    {
      "Layer": 1,
      "X": 272,
      "Y": 168,
      "Width": 8,
      "Height": 8,
      "Pattern": 209
    },
    {
      "Layer": 1,
      "X": 240,
      "Y": 168,
      "Width": 32,
      "Height": 8,
      "Pattern": 208
    },
    {
      "Layer": 1,
      "X": 240,
      "Y": 168,
      "Width": 8,
      "Height": 8,
      "Pattern": 207
    },
    {
      "Layer": 1,
      "X": 104,
      "Y": 216,
      "Width": 8,
      "Height": 24,
      "Pattern": 211
    },
    {
      "Layer": 1,
      "X": 104,
      "Y": 208,
      "Width": 8,
      "Height": 8,
      "Pattern": 207
    },
    {
      "Layer": 1,
      "X": 112,
      "Y": 208,
      "Width": 128,
      "Height": 8,
      "Pattern": 208
    },
    {
      "Layer": 1,
      "X": 240,
      "Y": 176,
      "Width": 8,
      "Height": 32,
      "Pattern": 211
    },
    {
      "Layer": 1,
      "X": 112,
      "Y": 216,
      "Width": 128,
      "Height": 24,
      "Pattern": 212
    },
    {
      "Layer": 1,
      "X": 136,
      "Y": 16,
      "Width": 48,
      "Height": 24,
      "Name": "door_closed",
      "Pattern": 49,
      "EnabledAtStart": true
    },
    {
      "Layer": 2,
      "X": 160,
      "Y": 128,
      "Width": 96,
      "Height": 8,
      "Pattern": 262
    },
    {
      "Layer": 2,
      "X": 160,
      "Y": 104,
      "Width": 96,
      "Height": 8,
      "Pattern": 263
    },
    {
      "Layer": 2,
      "X": 112,
      "Y": 296,
      "Width": 96,
      "Height": 8,
      "Pattern": 263
    },
    {
      "Layer": 2,
      "X": 0,
      "Y": 0,
      "Width": 320,
      "Height": 16,
      "Pattern": 170
    },
    {
      "Layer": 2,
      "X": 0,
      "Y": 16,
      "Width": 16,
      "Height": 288,
      "Pattern": 170
    },
    {
      "Layer": 2,
      "X": 0,
      "Y": 304,
      "Width": 320,
      "Height": 16,
      "Pattern": 170
    },
    {
      "Layer": 2,
      "X": 304,
      "Y": 16,
      "Width": 16,
      "Height": 288,
      "Pattern": 170
    },
    {
      "Layer": 2,
      "X": 16,
      "Y": 112,
      "Width": 288,
      "Height": 16,
      "Pattern": 170
    },
    {
      "Layer": 2,
      "X": 16,
      "Y": 128,
      "Width": 32,
      "Height": 176,
      "Pattern": 170
    },
    {
      "Layer": 2,
      "X": 144,
      "Y": 296,
      "Width": 32,
      "Height": 8,
      "Pattern": 153
    },
    {
      "Layer": 2,
      "X": 192,
      "Y": 128,
      "Width": 32,
      "Height": 8,
      "Pattern": 152
    },
    {
      "Layer": 2,
      "X": 192,
      "Y": 104,
      "Width": 32,
      "Height": 8,
      "Pattern": 153
    },
    {
      "Layer": 2,
      "X": 112,
      "Y": 16,
      "Width": 96,
      "Height": 8,
      "Name": "door_open_2",
      "Pattern": 262,
      "EnabledAtStart": true
    },
    {
      "Layer": 2,
      "X": 144,
      "Y": 16,
      "Width": 32,
      "Height": 8,
      "Name": "door_open",
      "Pattern": 174,
      "EnabledAtStart": true
    }
  ],
  "Destination": [
    {
      "Layer": 1,
      "X": 160,
      "Y": 293,
      "Name": "from_outside_s",
      "Direction": 1
    },
    {
      "Layer": 1,
      "X": 160,
      "Y": 37,
      "Name": "from_outside_n",
      "Direction": 3
    }
  ],
  "Teletransporter": [
    {
      "Layer": 1,
      "X": 152,
      "Y": 0,
      "Width": 16,
      "Height": 16,
      "Name": "teletransporter",
      "Transition": "fade",
      "DestinationMap": 5,
      "Destination": "from_lake_shop_n"
    },
    {
      "Layer": 1,
      "X": 152,
      "Y": 304,
      "Width": 16,
      "Height": 16,
      "Name": "teletransporter_2",
      "Transition": "fade",
      "DestinationMap": 5,
      "Destination": "from_lake_shop_s"
    }
  ],
  "Stairs": [],
  "Pickable": [],
  "Sensor": [],
  "Door": [
    {
      "Layer": 1,
      "X": 160,
      "Y": 24,
      "Name": "door",
      "Direction": 1,
      "Sprite": "entities\/door_weak_wall",
      "SaveGameVariable": "b158",
      "OpeningMethod": "explosion"
    }
  ],
  "DynamicTile": [
    {
      "Layer": 1,
      "X": 136,
      "Y": 16,
      "Width": 48,
      "Height": 24,
      "Name": "door_closed",
      "Pattern": 49,
      "EnabledAtStart": true
    },
    {
      "Layer": 2,
      "X": 112,
      "Y": 16,
      "Width": 96,
      "Height": 8,
      "Name": "door_open_2",
      "Pattern": 262,
      "EnabledAtStart": true
    },
    {
      "Layer": 2,
      "X": 144,
      "Y": 16,
      "Width": 32,
      "Height": 8,
      "Name": "door_open",
      "Pattern": 174,
      "EnabledAtStart": true
    }
  ],
  "Npc": [
    {
      "Layer": 1,
      "X": 160,
      "Y": 205,
      "Name": "npc",
      "Direction": 3,
      "Subtype": 1,
      "Sprite": "npc\/static_villager6",
      "Behavior": "dialog#lake_shop.seller"
    },
    {
      "Layer": 1,
      "X": 160,
      "Y": 245,
      "Name": "npc_2",
      "Direction": 3,
      "Subtype": 0,
      "Behavior": "dialog#lake_shop.seller"
    }
  ],
  "Block": [],
  "Chest": [],
  "Jumper": [],
  "Wall": [],
  "Enemy": [],
  "Destructible": [],
  "Switch": []
}
