{
  "Id": 92,
  "Description": "West mountains cave 2F",
  "Properties": {
    "X": 512,
    "Y": 152,
    "Width": 960,
    "Height": 432,
    "World": "inside_world",
    "Floor": 1,
    "MinLayer": 0,
    "MaxLayer": 2,
    "Tileset": 3,
    "Music": "cave"
  },
  "Tile": [
    {
      "Layer": 0,
      "X": 496,
      "Y": 320,
      "Width": 48,
      "Height": 16,
      "Pattern": 345
    },
    {
      "Layer": 0,
      "X": 496,
      "Y": 64,
      "Width": 96,
      "Height": 256,
      "Pattern": 3
    },
    {
      "Layer": 0,
      "X": 544,
      "Y": 40,
      "Width": 48,
      "Height": 24,
      "Pattern": 224
    },
    {
      "Layer": 0,
      "X": 560,
      "Y": 304,
      "Width": 192,
      "Height": 64,
      "Pattern": 3
    },
    {
      "Layer": 0,
      "X": 752,
      "Y": 240,
      "Width": 144,
      "Height": 128,
      "Pattern": 3
    },
    {
      "Layer": 0,
      "X": 496,
      "Y": 336,
      "Width": 64,
      "Height": 32,
      "Pattern": 345
    },
    {
      "Layer": 0,
      "X": 496,
      "Y": 144,
      "Width": 48,
      "Height": 8,
      "Pattern": 216
    },
    {
      "Layer": 0,
      "X": 496,
      "Y": 144,
      "Width": 8,
      "Height": 176,
      "Pattern": 218
    },
    {
      "Layer": 0,
      "X": 112,
      "Y": 320,
      "Width": 272,
      "Height": 48,
      "Pattern": 3
    },
    {
      "Layer": 0,
      "X": 376,
      "Y": 320,
      "Width": 8,
      "Height": 48,
      "Pattern": 219
    },
    {
      "Layer": 0,
      "X": 64,
      "Y": 64,
      "Width": 320,
      "Height": 48,
      "Pattern": 3
    },
    {
      "Layer": 0,
      "X": 224,
      "Y": 112,
      "Width": 160,
      "Height": 96,
      "Pattern": 3
    },
    {
      "Layer": 0,
      "X": 40,
      "Y": 40,
      "Width": 24,
      "Height": 24,
      "Pattern": 57
    },
    {
      "Layer": 0,
      "X": 64,
      "Y": 40,
      "Width": 320,
      "Height": 24,
      "Pattern": 224
    },
    {
      "Layer": 0,
      "X": 40,
      "Y": 64,
      "Width": 24,
      "Height": 304,
      "Pattern": 227
    },
    {
      "Layer": 0,
      "X": 384,
      "Y": 40,
      "Width": 24,
      "Height": 24,
      "Pattern": 58
    },
    {
      "Layer": 0,
      "X": 384,
      "Y": 64,
      "Width": 24,
      "Height": 144,
      "Pattern": 225
    },
    {
      "Layer": 0,
      "X": 40,
      "Y": 368,
      "Width": 24,
      "Height": 24,
      "Pattern": 59
    },
    {
      "Layer": 0,
      "X": 64,
      "Y": 368,
      "Width": 320,
      "Height": 24,
      "Pattern": 226
    },
    {
      "Layer": 0,
      "X": 384,
      "Y": 368,
      "Width": 24,
      "Height": 24,
      "Pattern": 60
    },
    {
      "Layer": 0,
      "X": 232,
      "Y": 384,
      "Width": 16,
      "Height": 32,
      "Pattern": 3
    },
    {
      "Layer": 0,
      "X": 224,
      "Y": 392,
      "Width": 8,
      "Height": 24,
      "Pattern": 71
    },
    {
      "Layer": 0,
      "X": 232,
      "Y": 416,
      "Width": 16,
      "Height": 8,
      "Pattern": 70
    },
    {
      "Layer": 0,
      "X": 248,
      "Y": 392,
      "Width": 8,
      "Height": 24,
      "Pattern": 71
    },
    {
      "Layer": 0,
      "X": 248,
      "Y": 368,
      "Width": 8,
      "Height": 16,
      "Pattern": 287
    },
    {
      "Layer": 0,
      "X": 224,
      "Y": 368,
      "Width": 8,
      "Height": 16,
      "Pattern": 288
    },
    {
      "Layer": 0,
      "X": 232,
      "Y": 368,
      "Width": 16,
      "Height": 16,
      "Pattern": 294
    },
    {
      "Layer": 0,
      "X": 168,
      "Y": 48,
      "Width": 16,
      "Height": 16,
      "Pattern": 251
    },
    {
      "Layer": 0,
      "X": 160,
      "Y": 48,
      "Width": 8,
      "Height": 16,
      "Pattern": 285
    },
    {
      "Layer": 0,
      "X": 184,
      "Y": 48,
      "Width": 8,
      "Height": 16,
      "Pattern": 286
    },
    {
      "Layer": 0,
      "X": 200,
      "Y": 128,
      "Width": 24,
      "Height": 80,
      "Pattern": 227
    },
    {
      "Layer": 0,
      "X": 112,
      "Y": 128,
      "Width": 24,
      "Height": 176,
      "Pattern": 225
    },
    {
      "Layer": 0,
      "X": 128,
      "Y": 112,
      "Width": 80,
      "Height": 24,
      "Pattern": 226
    },
    {
      "Layer": 0,
      "X": 112,
      "Y": 112,
      "Width": 24,
      "Height": 24,
      "Pattern": 65
    },
    {
      "Layer": 0,
      "X": 200,
      "Y": 112,
      "Width": 24,
      "Height": 24,
      "Pattern": 66
    },
    {
      "Layer": 0,
      "X": 64,
      "Y": 112,
      "Width": 48,
      "Height": 256,
      "Pattern": 3
    },
    {
      "Layer": 0,
      "X": 128,
      "Y": 296,
      "Width": 256,
      "Height": 24,
      "Pattern": 224
    },
    {
      "Layer": 0,
      "X": 384,
      "Y": 296,
      "Width": 24,
      "Height": 24,
      "Pattern": 58
    },
    {
      "Layer": 0,
      "X": 384,
      "Y": 320,
      "Width": 24,
      "Height": 48,
      "Pattern": 225
    },
    {
      "Layer": 0,
      "X": 112,
      "Y": 296,
      "Width": 24,
      "Height": 24,
      "Pattern": 67
    },
    {
      "Layer": 0,
      "X": 64,
      "Y": 360,
      "Width": 320,
      "Height": 8,
      "Pattern": 217
    },
    {
      "Layer": 0,
      "X": 112,
      "Y": 104,
      "Width": 112,
      "Height": 8,
      "Pattern": 217
    },
    {
      "Layer": 0,
      "X": 104,
      "Y": 112,
      "Width": 8,
      "Height": 208,
      "Pattern": 219
    },
    {
      "Layer": 0,
      "X": 112,
      "Y": 320,
      "Width": 272,
      "Height": 8,
      "Pattern": 216
    },
    {
      "Layer": 0,
      "X": 64,
      "Y": 64,
      "Width": 8,
      "Height": 304,
      "Pattern": 218
    },
    {
      "Layer": 0,
      "X": 64,
      "Y": 64,
      "Width": 320,
      "Height": 8,
      "Pattern": 216
    },
    {
      "Layer": 0,
      "X": 200,
      "Y": 208,
      "Width": 24,
      "Height": 24,
      "Pattern": 59
    },
    {
      "Layer": 0,
      "X": 384,
      "Y": 208,
      "Width": 24,
      "Height": 24,
      "Pattern": 60
    },
    {
      "Layer": 0,
      "X": 224,
      "Y": 208,
      "Width": 160,
      "Height": 24,
      "Pattern": 226
    },
    {
      "Layer": 0,
      "X": 376,
      "Y": 64,
      "Width": 8,
      "Height": 144,
      "Pattern": 219
    },
    {
      "Layer": 0,
      "X": 224,
      "Y": 112,
      "Width": 8,
      "Height": 96,
      "Pattern": 218
    },
    {
      "Layer": 0,
      "X": 224,
      "Y": 200,
      "Width": 160,
      "Height": 8,
      "Pattern": 217
    },
    {
      "Layer": 0,
      "X": 376,
      "Y": 64,
      "Width": 8,
      "Height": 8,
      "Pattern": 213
    },
    {
      "Layer": 0,
      "X": 376,
      "Y": 320,
      "Width": 8,
      "Height": 8,
      "Pattern": 213
    },
    {
      "Layer": 0,
      "X": 104,
      "Y": 320,
      "Width": 8,
      "Height": 8,
      "Pattern": 223
    },
    {
      "Layer": 0,
      "X": 104,
      "Y": 104,
      "Width": 8,
      "Height": 8,
      "Pattern": 220
    },
    {
      "Layer": 0,
      "X": 224,
      "Y": 104,
      "Width": 8,
      "Height": 8,
      "Pattern": 221
    },
    {
      "Layer": 0,
      "X": 64,
      "Y": 360,
      "Width": 8,
      "Height": 8,
      "Pattern": 214
    },
    {
      "Layer": 0,
      "X": 224,
      "Y": 200,
      "Width": 8,
      "Height": 8,
      "Pattern": 214
    },
    {
      "Layer": 0,
      "X": 64,
      "Y": 64,
      "Width": 8,
      "Height": 8,
      "Pattern": 212
    },
    {
      "Layer": 0,
      "X": 368,
      "Y": 200,
      "Width": 8,
      "Height": 8,
      "Pattern": 215
    },
    {
      "Layer": 0,
      "X": 376,
      "Y": 360,
      "Width": 8,
      "Height": 8,
      "Pattern": 215
    },
    {
      "Layer": 0,
      "X": 328,
      "Y": 208,
      "Width": 8,
      "Height": 16,
      "Pattern": 288
    },
    {
      "Layer": 0,
      "X": 352,
      "Y": 208,
      "Width": 8,
      "Height": 16,
      "Pattern": 287
    },
    {
      "Layer": 0,
      "X": 336,
      "Y": 208,
      "Width": 16,
      "Height": 16,
      "Pattern": 294
    },
    {
      "Layer": 0,
      "X": 336,
      "Y": 304,
      "Width": 16,
      "Height": 16,
      "Pattern": 293
    },
    {
      "Layer": 0,
      "X": 352,
      "Y": 304,
      "Width": 8,
      "Height": 16,
      "Pattern": 286
    },
    {
      "Layer": 0,
      "X": 328,
      "Y": 304,
      "Width": 8,
      "Height": 16,
      "Pattern": 285
    },
    {
      "Layer": 0,
      "X": 336,
      "Y": 224,
      "Width": 16,
      "Height": 80,
      "Pattern": 3
    },
    {
      "Layer": 0,
      "X": 328,
      "Y": 232,
      "Width": 8,
      "Height": 64,
      "Pattern": 71
    },
    {
      "Layer": 0,
      "X": 352,
      "Y": 232,
      "Width": 8,
      "Height": 64,
      "Pattern": 71
    },
    {
      "Layer": 0,
      "X": 472,
      "Y": 120,
      "Width": 24,
      "Height": 24,
      "Pattern": 57
    },
    {
      "Layer": 0,
      "X": 496,
      "Y": 144,
      "Width": 8,
      "Height": 8,
      "Pattern": 212
    },
    {
      "Layer": 0,
      "X": 592,
      "Y": 40,
      "Width": 24,
      "Height": 24,
      "Pattern": 58
    },
    {
      "Layer": 0,
      "X": 496,
      "Y": 120,
      "Width": 32,
      "Height": 24,
      "Pattern": 224
    },
    {
      "Layer": 0,
      "X": 592,
      "Y": 64,
      "Width": 24,
      "Height": 224,
      "Pattern": 225
    },
    {
      "Layer": 0,
      "X": 472,
      "Y": 144,
      "Width": 24,
      "Height": 224,
      "Pattern": 227
    },
    {
      "Layer": 0,
      "X": 384,
      "Y": 160,
      "Width": 16,
      "Height": 16,
      "Pattern": 296
    },
    {
      "Layer": 0,
      "X": 384,
      "Y": 176,
      "Width": 16,
      "Height": 8,
      "Pattern": 291
    },
    {
      "Layer": 0,
      "X": 384,
      "Y": 152,
      "Width": 16,
      "Height": 8,
      "Pattern": 290
    },
    {
      "Layer": 0,
      "X": 480,
      "Y": 160,
      "Width": 16,
      "Height": 16,
      "Pattern": 295
    },
    {
      "Layer": 0,
      "X": 480,
      "Y": 176,
      "Width": 16,
      "Height": 8,
      "Pattern": 292
    },
    {
      "Layer": 0,
      "X": 480,
      "Y": 152,
      "Width": 16,
      "Height": 8,
      "Pattern": 289
    },
    {
      "Layer": 0,
      "X": 400,
      "Y": 160,
      "Width": 80,
      "Height": 16,
      "Pattern": 3
    },
    {
      "Layer": 0,
      "X": 408,
      "Y": 152,
      "Width": 64,
      "Height": 8,
      "Pattern": 70
    },
    {
      "Layer": 0,
      "X": 408,
      "Y": 176,
      "Width": 64,
      "Height": 8,
      "Pattern": 70
    },
    {
      "Layer": 0,
      "X": 552,
      "Y": 48,
      "Width": 8,
      "Height": 16,
      "Pattern": 285
    },
    {
      "Layer": 0,
      "X": 576,
      "Y": 48,
      "Width": 8,
      "Height": 16,
      "Pattern": 286
    },
    {
      "Layer": 0,
      "X": 608,
      "Y": 280,
      "Width": 128,
      "Height": 24,
      "Pattern": 224
    },
    {
      "Layer": 0,
      "X": 472,
      "Y": 368,
      "Width": 24,
      "Height": 24,
      "Pattern": 59
    },
    {
      "Layer": 0,
      "X": 496,
      "Y": 368,
      "Width": 400,
      "Height": 24,
      "Pattern": 226
    },
    {
      "Layer": 0,
      "X": 496,
      "Y": 352,
      "Width": 16,
      "Height": 16,
      "Pattern": 319
    },
    {
      "Layer": 0,
      "X": 512,
      "Y": 352,
      "Width": 48,
      "Height": 16,
      "Pattern": 322
    },
    {
      "Layer": 0,
      "X": 496,
      "Y": 320,
      "Width": 16,
      "Height": 32,
      "Pattern": 321
    },
    {
      "Layer": 0,
      "X": 544,
      "Y": 320,
      "Width": 16,
      "Height": 16,
      "Pattern": 3
    },
    {
      "Layer": 0,
      "X": 536,
      "Y": 328,
      "Width": 8,
      "Height": 8,
      "Pattern": 335
    },
    {
      "Layer": 0,
      "X": 536,
      "Y": 336,
      "Width": 8,
      "Height": 8,
      "Pattern": 339
    },
    {
      "Layer": 0,
      "X": 544,
      "Y": 336,
      "Width": 8,
      "Height": 8,
      "Pattern": 332
    },
    {
      "Layer": 0,
      "X": 552,
      "Y": 336,
      "Width": 8,
      "Height": 8,
      "Pattern": 331
    },
    {
      "Layer": 0,
      "X": 552,
      "Y": 344,
      "Width": 8,
      "Height": 24,
      "Pattern": 335
    },
    {
      "Layer": 0,
      "X": 592,
      "Y": 304,
      "Width": 160,
      "Height": 8,
      "Pattern": 216
    },
    {
      "Layer": 0,
      "X": 560,
      "Y": 360,
      "Width": 336,
      "Height": 8,
      "Pattern": 217
    },
    {
      "Layer": 0,
      "X": 896,
      "Y": 368,
      "Width": 24,
      "Height": 24,
      "Pattern": 60
    },
    {
      "Layer": 0,
      "X": 728,
      "Y": 216,
      "Width": 24,
      "Height": 24,
      "Pattern": 57
    },
    {
      "Layer": 0,
      "X": 896,
      "Y": 216,
      "Width": 24,
      "Height": 24,
      "Pattern": 58
    },
    {
      "Layer": 0,
      "X": 896,
      "Y": 240,
      "Width": 24,
      "Height": 128,
      "Pattern": 225
    },
    {
      "Layer": 0,
      "X": 728,
      "Y": 240,
      "Width": 24,
      "Height": 48,
      "Pattern": 227
    },
    {
      "Layer": 0,
      "X": 752,
      "Y": 216,
      "Width": 144,
      "Height": 24,
      "Pattern": 224
    },
    {
      "Layer": 0,
      "X": 728,
      "Y": 280,
      "Width": 24,
      "Height": 24,
      "Pattern": 68
    },
    {
      "Layer": 0,
      "X": 752,
      "Y": 240,
      "Width": 144,
      "Height": 8,
      "Pattern": 216
    },
    {
      "Layer": 0,
      "X": 752,
      "Y": 240,
      "Width": 8,
      "Height": 64,
      "Pattern": 218
    },
    {
      "Layer": 0,
      "X": 888,
      "Y": 240,
      "Width": 8,
      "Height": 128,
      "Pattern": 219
    },
    {
      "Layer": 0,
      "X": 752,
      "Y": 240,
      "Width": 8,
      "Height": 8,
      "Pattern": 212
    },
    {
      "Layer": 0,
      "X": 888,
      "Y": 240,
      "Width": 8,
      "Height": 8,
      "Pattern": 213
    },
    {
      "Layer": 0,
      "X": 888,
      "Y": 360,
      "Width": 8,
      "Height": 8,
      "Pattern": 215
    },
    {
      "Layer": 0,
      "X": 752,
      "Y": 304,
      "Width": 8,
      "Height": 8,
      "Pattern": 222
    },
    {
      "Layer": 0,
      "X": 816,
      "Y": 384,
      "Width": 16,
      "Height": 32,
      "Pattern": 3
    },
    {
      "Layer": 0,
      "X": 808,
      "Y": 392,
      "Width": 8,
      "Height": 24,
      "Pattern": 71
    },
    {
      "Layer": 0,
      "X": 816,
      "Y": 416,
      "Width": 16,
      "Height": 8,
      "Pattern": 70
    },
    {
      "Layer": 0,
      "X": 832,
      "Y": 392,
      "Width": 8,
      "Height": 24,
      "Pattern": 71
    },
    {
      "Layer": 0,
      "X": 832,
      "Y": 368,
      "Width": 8,
      "Height": 16,
      "Pattern": 287
    },
    {
      "Layer": 0,
      "X": 808,
      "Y": 368,
      "Width": 8,
      "Height": 16,
      "Pattern": 288
    },
    {
      "Layer": 0,
      "X": 816,
      "Y": 368,
      "Width": 16,
      "Height": 16,
      "Pattern": 294
    },
    {
      "Layer": 0,
      "X": 312,
      "Y": 200,
      "Width": 8,
      "Height": 8,
      "Pattern": 69
    },
    {
      "Layer": 0,
      "X": 312,
      "Y": 192,
      "Width": 8,
      "Height": 8,
      "Pattern": 71
    },
    {
      "Layer": 0,
      "X": 312,
      "Y": 184,
      "Width": 8,
      "Height": 8,
      "Pattern": 69
    },
    {
      "Layer": 0,
      "X": 320,
      "Y": 184,
      "Width": 48,
      "Height": 8,
      "Pattern": 70
    },
    {
      "Layer": 0,
      "X": 368,
      "Y": 184,
      "Width": 8,
      "Height": 8,
      "Pattern": 69
    },
    {
      "Layer": 0,
      "X": 368,
      "Y": 192,
      "Width": 8,
      "Height": 8,
      "Pattern": 71
    },
    {
      "Layer": 0,
      "X": 368,
      "Y": 200,
      "Width": 8,
      "Height": 8,
      "Pattern": 69
    },
    {
      "Layer": 0,
      "X": 256,
      "Y": 96,
      "Width": 128,
      "Height": 48,
      "Pattern": 420
    },
    {
      "Layer": 0,
      "X": 256,
      "Y": 144,
      "Width": 48,
      "Height": 64,
      "Pattern": 420
    },
    {
      "Layer": 0,
      "X": 560,
      "Y": 48,
      "Width": 16,
      "Height": 16,
      "Pattern": 250
    },
    {
      "Layer": 0,
      "X": 648,
      "Y": 304,
      "Width": 48,
      "Height": 64,
      "Pattern": 422
    },
    {
      "Layer": 0,
      "X": 648,
      "Y": 312,
      "Width": 8,
      "Height": 48,
      "Pattern": 333
    },
    {
      "Layer": 0,
      "X": 688,
      "Y": 312,
      "Width": 8,
      "Height": 48,
      "Pattern": 335
    },
    {
      "Layer": 0,
      "X": 648,
      "Y": 304,
      "Width": 8,
      "Height": 8,
      "Pattern": 328
    },
    {
      "Layer": 0,
      "X": 656,
      "Y": 304,
      "Width": 32,
      "Height": 8,
      "Pattern": 332
    },
    {
      "Layer": 0,
      "X": 688,
      "Y": 304,
      "Width": 8,
      "Height": 8,
      "Pattern": 331
    },
    {
      "Layer": 0,
      "X": 688,
      "Y": 360,
      "Width": 8,
      "Height": 8,
      "Pattern": 330
    },
    {
      "Layer": 0,
      "X": 656,
      "Y": 360,
      "Width": 32,
      "Height": 8,
      "Pattern": 334
    },
    {
      "Layer": 0,
      "X": 648,
      "Y": 360,
      "Width": 8,
      "Height": 8,
      "Pattern": 329
    },
    {
      "Layer": 0,
      "X": 752,
      "Y": 240,
      "Width": 144,
      "Height": 48,
      "Pattern": 422
    },
    {
      "Layer": 0,
      "X": 760,
      "Y": 280,
      "Width": 88,
      "Height": 8,
      "Pattern": 334
    },
    {
      "Layer": 0,
      "X": 848,
      "Y": 288,
      "Width": 48,
      "Height": 48,
      "Pattern": 422
    },
    {
      "Layer": 0,
      "X": 848,
      "Y": 288,
      "Width": 8,
      "Height": 40,
      "Pattern": 333
    },
    {
      "Layer": 0,
      "X": 856,
      "Y": 328,
      "Width": 32,
      "Height": 8,
      "Pattern": 334
    },
    {
      "Layer": 0,
      "X": 848,
      "Y": 328,
      "Width": 8,
      "Height": 8,
      "Pattern": 329
    },
    {
      "Layer": 0,
      "X": 848,
      "Y": 280,
      "Width": 8,
      "Height": 8,
      "Pattern": 337
    },
    {
      "Layer": 0,
      "X": 752,
      "Y": 248,
      "Width": 8,
      "Height": 32,
      "Pattern": 333
    },
    {
      "Layer": 0,
      "X": 752,
      "Y": 240,
      "Width": 8,
      "Height": 8,
      "Pattern": 328
    },
    {
      "Layer": 0,
      "X": 760,
      "Y": 240,
      "Width": 128,
      "Height": 8,
      "Pattern": 332
    },
    {
      "Layer": 0,
      "X": 752,
      "Y": 280,
      "Width": 8,
      "Height": 8,
      "Pattern": 329
    },
    {
      "Layer": 0,
      "X": 888,
      "Y": 248,
      "Width": 8,
      "Height": 80,
      "Pattern": 335
    },
    {
      "Layer": 0,
      "X": 888,
      "Y": 240,
      "Width": 8,
      "Height": 8,
      "Pattern": 331
    },
    {
      "Layer": 0,
      "X": 888,
      "Y": 328,
      "Width": 8,
      "Height": 8,
      "Pattern": 330
    },
    {
      "Layer": 0,
      "X": 544,
      "Y": 64,
      "Width": 48,
      "Height": 8,
      "Pattern": 216
    },
    {
      "Layer": 0,
      "X": 584,
      "Y": 64,
      "Width": 8,
      "Height": 8,
      "Pattern": 213
    },
    {
      "Layer": 0,
      "X": 544,
      "Y": 64,
      "Width": 8,
      "Height": 80,
      "Pattern": 218
    },
    {
      "Layer": 0,
      "X": 544,
      "Y": 144,
      "Width": 8,
      "Height": 8,
      "Pattern": 222
    },
    {
      "Layer": 0,
      "X": 520,
      "Y": 40,
      "Width": 24,
      "Height": 24,
      "Pattern": 57
    },
    {
      "Layer": 0,
      "X": 520,
      "Y": 64,
      "Width": 24,
      "Height": 64,
      "Pattern": 227
    },
    {
      "Layer": 0,
      "X": 520,
      "Y": 120,
      "Width": 24,
      "Height": 24,
      "Pattern": 68
    },
    {
      "Layer": 0,
      "X": 584,
      "Y": 64,
      "Width": 8,
      "Height": 240,
      "Pattern": 219
    },
    {
      "Layer": 0,
      "X": 592,
      "Y": 280,
      "Width": 24,
      "Height": 24,
      "Pattern": 67
    },
    {
      "Layer": 0,
      "X": 584,
      "Y": 304,
      "Width": 8,
      "Height": 8,
      "Pattern": 223
    },
    {
      "Layer": 0,
      "X": 496,
      "Y": 208,
      "Width": 96,
      "Height": 64,
      "Pattern": 422
    },
    {
      "Layer": 0,
      "X": 496,
      "Y": 216,
      "Width": 8,
      "Height": 48,
      "Pattern": 333
    },
    {
      "Layer": 0,
      "X": 584,
      "Y": 216,
      "Width": 8,
      "Height": 48,
      "Pattern": 335
    },
    {
      "Layer": 0,
      "X": 496,
      "Y": 208,
      "Width": 8,
      "Height": 8,
      "Pattern": 328
    },
    {
      "Layer": 0,
      "X": 504,
      "Y": 208,
      "Width": 80,
      "Height": 8,
      "Pattern": 332
    },
    {
      "Layer": 0,
      "X": 584,
      "Y": 208,
      "Width": 8,
      "Height": 8,
      "Pattern": 331
    },
    {
      "Layer": 0,
      "X": 584,
      "Y": 264,
      "Width": 8,
      "Height": 8,
      "Pattern": 330
    },
    {
      "Layer": 0,
      "X": 504,
      "Y": 264,
      "Width": 80,
      "Height": 8,
      "Pattern": 334
    },
    {
      "Layer": 0,
      "X": 496,
      "Y": 264,
      "Width": 8,
      "Height": 8,
      "Pattern": 329
    },
    {
      "Layer": 0,
      "X": 496,
      "Y": 320,
      "Width": 40,
      "Height": 8,
      "Pattern": 332
    },
    {
      "Layer": 0,
      "X": 536,
      "Y": 320,
      "Width": 8,
      "Height": 8,
      "Pattern": 331
    },
    {
      "Layer": 1,
      "X": 472,
      "Y": 144,
      "Width": 8,
      "Height": 64,
      "Pattern": 417
    },
    {
      "Layer": 1,
      "X": 400,
      "Y": 128,
      "Width": 8,
      "Height": 96,
      "Pattern": 418
    },
    {
      "Layer": 1,
      "X": 160,
      "Y": 40,
      "Width": 32,
      "Height": 8,
      "Pattern": 311
    },
    {
      "Layer": 1,
      "X": 552,
      "Y": 40,
      "Width": 32,
      "Height": 8,
      "Pattern": 311
    },
    {
      "Layer": 1,
      "X": 304,
      "Y": 224,
      "Width": 96,
      "Height": 8,
      "Pattern": 414
    },
    {
      "Layer": 1,
      "X": 16,
      "Y": 16,
      "Width": 24,
      "Height": 24,
      "Pattern": 45
    },
    {
      "Layer": 1,
      "X": 40,
      "Y": 16,
      "Width": 368,
      "Height": 24,
      "Pattern": 49
    },
    {
      "Layer": 1,
      "X": 16,
      "Y": 40,
      "Width": 24,
      "Height": 352,
      "Pattern": 51
    },
    {
      "Layer": 1,
      "X": 408,
      "Y": 40,
      "Width": 24,
      "Height": 192,
      "Pattern": 50
    },
    {
      "Layer": 1,
      "X": 408,
      "Y": 16,
      "Width": 24,
      "Height": 24,
      "Pattern": 46
    },
    {
      "Layer": 1,
      "X": 408,
      "Y": 392,
      "Width": 24,
      "Height": 24,
      "Pattern": 48
    },
    {
      "Layer": 1,
      "X": 16,
      "Y": 392,
      "Width": 24,
      "Height": 24,
      "Pattern": 47
    },
    {
      "Layer": 1,
      "X": 40,
      "Y": 392,
      "Width": 368,
      "Height": 24,
      "Pattern": 52
    },
    {
      "Layer": 1,
      "X": 192,
      "Y": 384,
      "Width": 96,
      "Height": 8,
      "Pattern": 414
    },
    {
      "Layer": 1,
      "X": 224,
      "Y": 384,
      "Width": 32,
      "Height": 8,
      "Pattern": 312
    },
    {
      "Layer": 1,
      "X": 168,
      "Y": 40,
      "Width": 16,
      "Height": 8,
      "Pattern": 348
    },
    {
      "Layer": 1,
      "X": 176,
      "Y": 152,
      "Width": 24,
      "Height": 80,
      "Pattern": 51
    },
    {
      "Layer": 1,
      "X": 136,
      "Y": 152,
      "Width": 24,
      "Height": 128,
      "Pattern": 50
    },
    {
      "Layer": 1,
      "X": 152,
      "Y": 136,
      "Width": 32,
      "Height": 24,
      "Pattern": 52
    },
    {
      "Layer": 1,
      "X": 136,
      "Y": 136,
      "Width": 24,
      "Height": 24,
      "Pattern": 53
    },
    {
      "Layer": 1,
      "X": 176,
      "Y": 136,
      "Width": 24,
      "Height": 24,
      "Pattern": 54
    },
    {
      "Layer": 1,
      "X": 152,
      "Y": 272,
      "Width": 256,
      "Height": 24,
      "Pattern": 49
    },
    {
      "Layer": 1,
      "X": 408,
      "Y": 272,
      "Width": 24,
      "Height": 24,
      "Pattern": 46
    },
    {
      "Layer": 1,
      "X": 408,
      "Y": 296,
      "Width": 24,
      "Height": 96,
      "Pattern": 50
    },
    {
      "Layer": 1,
      "X": 136,
      "Y": 272,
      "Width": 24,
      "Height": 24,
      "Pattern": 55
    },
    {
      "Layer": 1,
      "X": 408,
      "Y": 232,
      "Width": 24,
      "Height": 24,
      "Pattern": 48
    },
    {
      "Layer": 1,
      "X": 176,
      "Y": 232,
      "Width": 24,
      "Height": 24,
      "Pattern": 47
    },
    {
      "Layer": 1,
      "X": 200,
      "Y": 232,
      "Width": 208,
      "Height": 24,
      "Pattern": 52
    },
    {
      "Layer": 1,
      "X": 304,
      "Y": 296,
      "Width": 96,
      "Height": 8,
      "Pattern": 413
    },
    {
      "Layer": 1,
      "X": 328,
      "Y": 296,
      "Width": 32,
      "Height": 8,
      "Pattern": 311
    },
    {
      "Layer": 1,
      "X": 328,
      "Y": 224,
      "Width": 32,
      "Height": 8,
      "Pattern": 312
    },
    {
      "Layer": 1,
      "X": 448,
      "Y": 96,
      "Width": 24,
      "Height": 24,
      "Pattern": 45
    },
    {
      "Layer": 1,
      "X": 616,
      "Y": 16,
      "Width": 24,
      "Height": 24,
      "Pattern": 46
    },
    {
      "Layer": 1,
      "X": 472,
      "Y": 96,
      "Width": 32,
      "Height": 24,
      "Pattern": 49
    },
    {
      "Layer": 1,
      "X": 448,
      "Y": 120,
      "Width": 24,
      "Height": 272,
      "Pattern": 51
    },
    {
      "Layer": 1,
      "X": 616,
      "Y": 40,
      "Width": 24,
      "Height": 224,
      "Pattern": 50
    },
    {
      "Layer": 1,
      "X": 400,
      "Y": 152,
      "Width": 8,
      "Height": 32,
      "Pattern": 308
    },
    {
      "Layer": 1,
      "X": 472,
      "Y": 152,
      "Width": 8,
      "Height": 32,
      "Pattern": 307
    },
    {
      "Layer": 1,
      "X": 560,
      "Y": 40,
      "Width": 16,
      "Height": 8,
      "Pattern": 346
    },
    {
      "Layer": 1,
      "X": 632,
      "Y": 256,
      "Width": 80,
      "Height": 24,
      "Pattern": 49
    },
    {
      "Layer": 1,
      "X": 448,
      "Y": 392,
      "Width": 24,
      "Height": 24,
      "Pattern": 47
    },
    {
      "Layer": 1,
      "X": 472,
      "Y": 392,
      "Width": 448,
      "Height": 24,
      "Pattern": 52
    },
    {
      "Layer": 1,
      "X": 920,
      "Y": 392,
      "Width": 24,
      "Height": 24,
      "Pattern": 48
    },
    {
      "Layer": 1,
      "X": 920,
      "Y": 216,
      "Width": 24,
      "Height": 176,
      "Pattern": 50
    },
    {
      "Layer": 1,
      "X": 920,
      "Y": 192,
      "Width": 24,
      "Height": 24,
      "Pattern": 46
    },
    {
      "Layer": 1,
      "X": 728,
      "Y": 192,
      "Width": 192,
      "Height": 24,
      "Pattern": 49
    },
    {
      "Layer": 1,
      "X": 704,
      "Y": 192,
      "Width": 24,
      "Height": 24,
      "Pattern": 45
    },
    {
      "Layer": 1,
      "X": 704,
      "Y": 216,
      "Width": 24,
      "Height": 48,
      "Pattern": 51
    },
    {
      "Layer": 1,
      "X": 704,
      "Y": 256,
      "Width": 24,
      "Height": 24,
      "Pattern": 56
    },
    {
      "Layer": 1,
      "X": 768,
      "Y": 384,
      "Width": 96,
      "Height": 8,
      "Pattern": 414
    },
    {
      "Layer": 1,
      "X": 808,
      "Y": 384,
      "Width": 32,
      "Height": 8,
      "Pattern": 312
    },
    {
      "Layer": 1,
      "X": 520,
      "Y": 16,
      "Width": 96,
      "Height": 24,
      "Pattern": 49
    },
    {
      "Layer": 1,
      "X": 496,
      "Y": 16,
      "Width": 24,
      "Height": 24,
      "Pattern": 45
    },
    {
      "Layer": 1,
      "X": 496,
      "Y": 40,
      "Width": 24,
      "Height": 64,
      "Pattern": 51
    },
    {
      "Layer": 1,
      "X": 496,
      "Y": 96,
      "Width": 24,
      "Height": 24,
      "Pattern": 56
    },
    {
      "Layer": 1,
      "X": 616,
      "Y": 256,
      "Width": 24,
      "Height": 24,
      "Pattern": 55
    },
    {
      "Layer": 2,
      "X": 0,
      "Y": 0,
      "Width": 960,
      "Height": 16,
      "Pattern": 170
    },
    {
      "Layer": 2,
      "X": 0,
      "Y": 16,
      "Width": 16,
      "Height": 400,
      "Pattern": 170
    },
    {
      "Layer": 2,
      "X": 432,
      "Y": 16,
      "Width": 16,
      "Height": 400,
      "Pattern": 170
    },
    {
      "Layer": 2,
      "X": 0,
      "Y": 416,
      "Width": 960,
      "Height": 16,
      "Pattern": 170
    },
    {
      "Layer": 2,
      "X": 160,
      "Y": 160,
      "Width": 16,
      "Height": 96,
      "Pattern": 170
    },
    {
      "Layer": 2,
      "X": 160,
      "Y": 256,
      "Width": 272,
      "Height": 16,
      "Pattern": 170
    },
    {
      "Layer": 2,
      "X": 704,
      "Y": 16,
      "Width": 240,
      "Height": 176,
      "Pattern": 170
    },
    {
      "Layer": 2,
      "X": 944,
      "Y": 16,
      "Width": 16,
      "Height": 400,
      "Pattern": 170
    },
    {
      "Layer": 2,
      "X": 640,
      "Y": 16,
      "Width": 64,
      "Height": 240,
      "Pattern": 170
    },
    {
      "Layer": 2,
      "X": 448,
      "Y": 16,
      "Width": 48,
      "Height": 80,
      "Pattern": 170
    }
  ],
  "Destination": [
    {
      "Layer": 0,
      "X": 824,
      "Y": 381,
      "Name": "from_outside_e",
      "Direction": 1
    },
    {
      "Layer": 0,
      "X": 240,
      "Y": 381,
      "Name": "from_outside_w",
      "Direction": 1
    },
    {
      "Layer": 0,
      "X": 176,
      "Y": 61,
      "Name": "from_1f",
      "Direction": 3
    },
    {
      "Layer": 0,
      "X": 568,
      "Y": 61,
      "Name": "from_3f",
      "Direction": 3
    },
    {
      "Layer": 0,
      "X": 584,
      "Y": 285,
      "Name": "from_3f_hole_w",
      "Direction": -1
    },
    {
      "Layer": 0,
      "X": 720,
      "Y": 357,
      "Name": "from_3f_hole_e",
      "Direction": -1
    }
  ],
  "Teletransporter": [
    {
      "Layer": 0,
      "X": 232,
      "Y": 400,
      "Width": 16,
      "Height": 16,
      "Name": "teletransporter_3",
      "Transition": "fade",
      "DestinationMap": 8,
      "Destination": "from_west_mountain_cave_2f_w"
    },
    {
      "Layer": 0,
      "X": 816,
      "Y": 400,
      "Width": 16,
      "Height": 16,
      "Name": "teletransporter_2",
      "Transition": "fade",
      "DestinationMap": 8,
      "Destination": "from_west_mountain_cave_2f_e"
    },
    {
      "Layer": 0,
      "X": 496,
      "Y": 320,
      "Width": 48,
      "Height": 16,
      "Name": "teletransporter",
      "Transition": "fade",
      "DestinationMap": 91,
      "Destination": "from_2f_hole"
    },
    {
      "Layer": 0,
      "X": 496,
      "Y": 336,
      "Width": 64,
      "Height": 32,
      "Name": "teletransporter_4",
      "Transition": "fade",
      "DestinationMap": 91,
      "Destination": "from_2f_hole"
    },
    {
      "Layer": 0,
      "X": 168,
      "Y": 48,
      "Width": 16,
      "Height": 16,
      "Name": "teletransporter_5",
      "Transition": "fade",
      "DestinationMap": 91,
      "Destination": "from_2f"
    },
    {
      "Layer": 0,
      "X": 560,
      "Y": 48,
      "Width": 16,
      "Height": 16,
      "Name": "teletransporter_6",
      "Transition": "fade",
      "DestinationMap": 94,
      "Destination": "from_2f"
    }
  ],
  "Stairs": [
    {
      "Layer": 0,
      "X": 168,
      "Y": 48,
      "Name": "stairs",
      "Direction": 1,
      "Subtype": 1
    },
    {
      "Layer": 0,
      "X": 560,
      "Y": 48,
      "Name": "stairs_2",
      "Direction": 1,
      "Subtype": 0
    }
  ],
  "Pickable": [],
  "Sensor": [],
  "Door": [],
  "DynamicTile": [],
  "Npc": [],
  "Block": [],
  "Chest": [],
  "Jumper": [],
  "Wall": [],
  "Enemy": [],
  "Destructible": [],
  "Switch": []
}
