{
    "Id": 16,
    "Description": "",
    "BackgroundColor": [255, 255, 255],
    "TilePattern": [
        {
            "Id": 1,
            "Ground": "wall",
            "DefaultLayer": 0,
            "X": [0],
            "Y": [0],
            "Width": 24,
            "Height": 24
        },
        {
            "Id": 2,
            "Ground": "wall",
            "DefaultLayer": 0,
            "X": [24],
            "Y": [0],
            "Width": 24,
            "Height": 24
        },
        {
            "Id": 3,
            "Ground": "wall",
            "DefaultLayer": 0,
            "X": [24],
            "Y": [24],
            "Width": 24,
            "Height": 24
        },
        {
            "Id": 4,
            "Ground": "wall",
            "DefaultLayer": 0,
            "X": [0],
            "Y": [24],
            "Width": 24,
            "Height": 24
        },
        {
            "Id": 5,
            "Ground": "wall",
            "DefaultLayer": 0,
            "X": [0],
            "Y": [48],
            "Width": 24,
            "Height": 32
        },
        {
            "Id": 7,
            "Ground": "wall",
            "DefaultLayer": 0,
            "X": [24],
            "Y": [48],
            "Width": 24,
            "Height": 32
        },
        {
            "Id": 9,
            "Ground": "wall",
            "DefaultLayer": 0,
            "X": [48],
            "Y": [0],
            "Width": 40,
            "Height": 24
        },
        {
            "Id": 10,
            "Ground": "wall",
            "DefaultLayer": 0,
            "X": [0],
            "Y": [80],
            "Width": 24,
            "Height": 32
        },
        {
            "Id": 11,
            "Ground": "wall",
            "DefaultLayer": 0,
            "X": [24],
            "Y": [80],
            "Width": 24,
            "Height": 32
        },
        {
            "Id": 12,
            "Ground": "wall",
            "DefaultLayer": 0,
            "X": [0],
            "Y": [112],
            "Width": 24,
            "Height": 8
        },
        {
            "Id": 13,
            "Ground": "wall",
            "DefaultLayer": 0,
            "X": [24],
            "Y": [112],
            "Width": 24,
            "Height": 8
        },
        {
            "Id": 14,
            "Ground": "wall",
            "DefaultLayer": 0,
            "X": [48],
            "Y": [24],
            "Width": 40,
            "Height": 24
        },
        {
            "Id": 15,
            "Ground": "wall",
            "DefaultLayer": 0,
            "X": [88],
            "Y": [0],
            "Width": 40,
            "Height": 24
        },
        {
            "Id": 16,
            "Ground": "wall",
            "DefaultLayer": 0,
            "X": [88],
            "Y": [24],
            "Width": 40,
            "Height": 24
        },
        {
            "Id": 17,
            "Ground": "wall",
            "DefaultLayer": 0,
            "X": [128],
            "Y": [0],
            "Width": 8,
            "Height": 24
        },
        {
            "Id": 18,
            "Ground": "wall",
            "DefaultLayer": 0,
            "X": [128],
            "Y": [24],
            "Width": 8,
            "Height": 24
        },
        {
            "Id": 19,
            "Ground": "traversable",
            "DefaultLayer": 0,
            "X": [48],
            "Y": [48],
            "Width": 16,
            "Height": 16
        },
        {
            "Id": 20,
            "Ground": "traversable",
            "DefaultLayer": 0,
            "X": [48],
            "Y": [64],
            "Width": 16,
            "Height": 16
        },
        {
            "Id": 21,
            "Ground": "wall",
            "DefaultLayer": 0,
            "X": [64],
            "Y": [48],
            "Width": 16,
            "Height": 16
        },
        {
            "Id": 22,
            "Ground": "wall",
            "DefaultLayer": 0,
            "X": [64],
            "Y": [64],
            "Width": 16,
            "Height": 16
        },
        {
            "Id": 23,
            "Ground": "traversable",
            "DefaultLayer": 0,
            "X": [80],
            "Y": [48],
            "Width": 16,
            "Height": 16
        },
        {
            "Id": 24,
            "Ground": "traversable",
            "DefaultLayer": 2,
            "X": [96],
            "Y": [48],
            "Width": 8,
            "Height": 8
        },
        {
            "Id": 25,
            "Ground": "traversable",
            "DefaultLayer": 2,
            "X": [104],
            "Y": [48],
            "Width": 32,
            "Height": 8
        },
        {
            "Id": 26,
            "Ground": "traversable",
            "DefaultLayer": 2,
            "X": [104],
            "Y": [56],
            "Width": 32,
            "Height": 8
        },
        {
            "Id": 27,
            "Ground": "traversable",
            "DefaultLayer": 2,
            "X": [136],
            "Y": [32],
            "Width": 8,
            "Height": 32
        },
        {
            "Id": 28,
            "Ground": "traversable",
            "DefaultLayer": 2,
            "X": [144],
            "Y": [32],
            "Width": 8,
            "Height": 32
        },
        {
            "Id": 29,
            "Ground": "traversable",
            "DefaultLayer": 0,
            "X": [104],
            "Y": [64],
            "Width": 48,
            "Height": 8
        },
        {
            "Id": 30,
            "Ground": "traversable",
            "DefaultLayer": 0,
            "X": [104],
            "Y": [72],
            "Width": 48,
            "Height": 8
        },
        {
            "Id": 31,
            "Ground": "traversable",
            "DefaultLayer": 0,
            "X": [152],
            "Y": [32],
            "Width": 8,
            "Height": 48
        },
        {
            "Id": 32,
            "Ground": "traversable",
            "DefaultLayer": 0,
            "X": [160],
            "Y": [32],
            "Width": 8,
            "Height": 48
        },
        {
            "Id": 33,
            "Ground": "wall",
            "DefaultLayer": 0,
            "X": [48],
            "Y": [80],
            "Width": 8,
            "Height": 16
        },
        {
            "Id": 34,
            "Ground": "wall",
            "DefaultLayer": 0,
            "X": [56],
            "Y": [80],
            "Width": 8,
            "Height": 16
        },
        {
            "Id": 35,
            "Ground": "wall",
            "DefaultLayer": 0,
            "X": [64],
            "Y": [80],
            "Width": 16,
            "Height": 8
        },
        {
            "Id": 36,
            "Ground": "wall",
            "DefaultLayer": 0,
            "X": [64],
            "Y": [88],
            "Width": 16,
            "Height": 8
        },
        {
            "Id": 37,
            "Ground": "wall",
            "DefaultLayer": 0,
            "X": [48],
            "Y": [96],
            "Width": 16,
            "Height": 8
        },
        {
            "Id": 38,
            "Ground": "wall",
            "DefaultLayer": 0,
            "X": [48],
            "Y": [104],
            "Width": 16,
            "Height": 8
        },
        {
            "Id": 39,
            "Ground": "wall",
            "DefaultLayer": 0,
            "X": [64],
            "Y": [96],
            "Width": 8,
            "Height": 16
        },
        {
            "Id": 40,
            "Ground": "wall",
            "DefaultLayer": 0,
            "X": [72],
            "Y": [96],
            "Width": 8,
            "Height": 16
        },
        {
            "Id": 41,
            "Ground": "traversable",
            "DefaultLayer": 0,
            "X": [80],
            "Y": [80],
            "Width": 16,
            "Height": 16
        },
        {
            "Id": 42,
            "Ground": "traversable",
            "DefaultLayer": 0,
            "X": [96],
            "Y": [80],
            "Width": 16,
            "Height": 16
        },
        {
            "Id": 43,
            "Ground": "traversable",
            "DefaultLayer": 0,
            "X": [80],
            "Y": [96],
            "Width": 16,
            "Height": 16
        },
        {
            "Id": 44,
            "Ground": "traversable",
            "DefaultLayer": 0,
            "X": [96],
            "Y": [96],
            "Width": 16,
            "Height": 16
        },
        {
            "Id": 45,
            "Ground": "traversable",
            "DefaultLayer": 0,
            "X": [112],
            "Y": [96],
            "Width": 16,
            "Height": 16
        },
        {
            "Id": 46,
            "Ground": "wall",
            "DefaultLayer": 0,
            "X": [112],
            "Y": [80],
            "Width": 16,
            "Height": 16
        },
        {
            "Id": 47,
            "Ground": "wall",
            "DefaultLayer": 0,
            "X": [128],
            "Y": [80],
            "Width": 16,
            "Height": 16
        },
        {
            "Id": 48,
            "Ground": "wall",
            "DefaultLayer": 0,
            "X": [144],
            "Y": [80],
            "Width": 16,
            "Height": 16
        },
        {
            "Id": 49,
            "Ground": "wall",
            "DefaultLayer": 0,
            "X": [128],
            "Y": [96],
            "Width": 16,
            "Height": 16
        },
        {
            "Id": 50,
            "Ground": "wall",
            "DefaultLayer": 0,
            "X": [144],
            "Y": [96],
            "Width": 16,
            "Height": 16
        },
        {
            "Id": 51,
            "Ground": "traversable",
            "DefaultLayer": 0,
            "X": [48, 64, 80],
            "Y": [112, 112, 112],
            "Width": 16,
            "Height": 16
        }
    ]


}
